{
    "id": 10,
    "name": "Death spawn",
    "incomplete": true,
    "members": true,
    "release_date": "2005-01-26",
    "combat_level": 46,
    "size": 1,
    "hitpoints": 60,
    "max_hit": 2,
    "attack_type": [
        "slash",
        "typeless"
    ],
    "attack_speed": 4,
    "aggressive": true,
    "poisonous": false,
    "immune_poison": false,
    "immune_venom": false,
    "weakness": [
        "magic"
    ],
    "slayer_monster": false,
    "slayer_level": null,
    "slayer_xp": null,
    "slayer_masters": [],
    "duplicate": false,
    "examine": "An evil death spawn.",
    "wiki_name": "Death spawn",
    "wiki_url": "https://oldschool.runescape.wiki/w/Death_spawn",
    "attack_level": 67,
    "strength_level": 7,
    "defence_level": 30,
    "magic_level": 1,
    "ranged_level": 1,
    "attack_stab": 0,
    "attack_slash": 0,
    "attack_crush": 0,
    "attack_magic": 0,
    "attack_ranged": 0,
    "defence_stab": 20,
    "defence_slash": 20,
    "defence_crush": 20,
    "defence_magic": 0,
    "defence_ranged": 20,
    "attack_accuracy": 0,
    "melee_strength": 0,
    "ranged_strength": 0,
    "magic_damage": 0,
    "drops": {
        "592": {
            "id": 592,
            "name": "Ashes",
            "members": true,
            "quantity": "1",
            "noted": false,
            "rarity": "1/1",
            "drop_requirements": null
        }
    },
    "rare_drop_table": false
}