{
    "id": 100,
    "name": "Rock Crab",
    "incomplete": true,
    "members": true,
    "release_date": "2004-11-02",
    "combat_level": 13,
    "size": 1,
    "hitpoints": 50,
    "max_hit": 1,
    "attack_type": [
        "crush"
    ],
    "attack_speed": 4,
    "aggressive": true,
    "poisonous": false,
    "immune_poison": false,
    "immune_venom": false,
    "weakness": [],
    "slayer_monster": false,
    "slayer_level": null,
    "slayer_xp": null,
    "slayer_masters": [],
    "duplicate": false,
    "examine": "No one likes crabs...",
    "wiki_name": "Rock Crab (Active)",
    "wiki_url": "https://oldschool.runescape.wiki/w/Rock_Crab#Active",
    "attack_level": 1,
    "strength_level": 1,
    "defence_level": 1,
    "magic_level": 1,
    "ranged_level": 1,
    "attack_stab": 0,
    "attack_slash": 0,
    "attack_crush": 0,
    "attack_magic": 0,
    "attack_ranged": 0,
    "defence_stab": 0,
    "defence_slash": 0,
    "defence_crush": 0,
    "defence_magic": 0,
    "defence_ranged": 0,
    "attack_accuracy": 0,
    "melee_strength": 0,
    "ranged_strength": 0,
    "magic_damage": 0,
    "drops": {
        "45": {
            "id": 45,
            "name": "Opal bolt tips",
            "members": true,
            "quantity": "5",
            "noted": false,
            "rarity": "2/128",
            "drop_requirements": null
        },
        "313": {
            "id": 313,
            "name": "Fishing bait",
            "members": true,
            "quantity": "10",
            "noted": false,
            "rarity": "2/128",
            "drop_requirements": null
        },
        "401": {
            "id": 401,
            "name": "Seaweed",
            "members": true,
            "quantity": "5",
            "noted": false,
            "rarity": "2/128",
            "drop_requirements": null
        },
        "403": {
            "id": 403,
            "name": "Edible seaweed",
            "members": true,
            "quantity": "2",
            "noted": false,
            "rarity": "2/128",
            "drop_requirements": null
        },
        "405": {
            "id": 405,
            "name": "Casket",
            "members": true,
            "quantity": "1",
            "noted": false,
            "rarity": "1/128",
            "drop_requirements": null
        },
        "407": {
            "id": 407,
            "name": "Oyster",
            "members": true,
            "quantity": "1",
            "noted": false,
            "rarity": "9/128",
            "drop_requirements": null
        },
        "409": {
            "id": 409,
            "name": "Empty oyster",
            "members": true,
            "quantity": "3",
            "noted": false,
            "rarity": "1/128",
            "drop_requirements": null
        },
        "411": {
            "id": 411,
            "name": "Oyster pearl",
            "members": true,
            "quantity": "1",
            "noted": false,
            "rarity": "1/128",
            "drop_requirements": null
        },
        "436": {
            "id": 436,
            "name": "Copper ore",
            "members": true,
            "quantity": "3",
            "noted": false,
            "rarity": "2/128",
            "drop_requirements": null
        },
        "438": {
            "id": 438,
            "name": "Tin ore",
            "members": true,
            "quantity": "3",
            "noted": false,
            "rarity": "4/128",
            "drop_requirements": null
        },
        "440": {
            "id": 440,
            "name": "Iron ore",
            "members": true,
            "quantity": "1",
            "noted": false,
            "rarity": "2/128",
            "drop_requirements": null
        },
        "453": {
            "id": 453,
            "name": "Coal",
            "members": true,
            "quantity": "2",
            "noted": false,
            "rarity": "2/128",
            "drop_requirements": null
        },
        "617": {
            "id": 617,
            "name": "Coins",
            "members": true,
            "quantity": "36",
            "noted": false,
            "rarity": "8/128",
            "drop_requirements": null
        },
        "1265": {
            "id": 1265,
            "name": "Bronze pickaxe",
            "members": true,
            "quantity": "1",
            "noted": false,
            "rarity": "6/128",
            "drop_requirements": null
        },
        "1267": {
            "id": 1267,
            "name": "Iron pickaxe",
            "members": true,
            "quantity": "1",
            "noted": false,
            "rarity": "5/128",
            "drop_requirements": null
        },
        "1969": {
            "id": 1969,
            "name": "Spinach roll",
            "members": true,
            "quantity": "1",
            "noted": false,
            "rarity": "1/128",
            "drop_requirements": null
        },
        "2677": {
            "id": 2677,
            "name": "Clue scroll (easy)",
            "members": true,
            "quantity": "1",
            "noted": false,
            "rarity": "1/128",
            "drop_requirements": null
        },
        "12073": {
            "id": 12073,
            "name": "Clue scroll (elite)",
            "members": true,
            "quantity": "1",
            "noted": false,
            "rarity": "1/1",
            "drop_requirements": null
        },
        "20543": {
            "id": 20543,
            "name": "Reward casket (elite)",
            "members": true,
            "quantity": "1",
            "noted": false,
            "rarity": "1/1",
            "drop_requirements": null
        }
    },
    "rare_drop_table": true
}