{
    "id": 1024,
    "name": "Zygomite",
    "incomplete": false,
    "members": true,
    "release_date": "2006-03-07",
    "combat_level": 86,
    "size": 2,
    "hitpoints": 65,
    "max_hit": 10,
    "attack_type": [
        "melee",
        "ranged",
        "magic"
    ],
    "attack_speed": 4,
    "aggressive": false,
    "poisonous": false,
    "immune_poison": false,
    "immune_venom": false,
    "weakness": [
        "melee"
    ],
    "slayer_monster": true,
    "slayer_level": 57,
    "slayer_xp": 65.0,
    "slayer_masters": [
        "chaeldar",
        "konar",
        "nieve",
        "duradel"
    ],
    "duplicate": false,
    "examine": "A bouncy fungus.",
    "wiki_name": "Zygomite",
    "wiki_url": "https://oldschool.runescape.wiki/w/Zygomite",
    "attack_level": 65,
    "strength_level": 65,
    "defence_level": 65,
    "magic_level": 65,
    "ranged_level": 65,
    "attack_stab": 0,
    "attack_slash": 0,
    "attack_crush": 0,
    "attack_magic": 0,
    "attack_ranged": 0,
    "defence_stab": 10,
    "defence_slash": 10,
    "defence_crush": 10,
    "defence_magic": 20,
    "defence_ranged": 20,
    "attack_accuracy": 30,
    "melee_strength": 0,
    "ranged_strength": 0,
    "magic_damage": 0,
    "drops": {
        "199": {
            "id": 199,
            "name": "Grimy guam leaf",
            "members": true,
            "quantity": "1",
            "noted": false,
            "rarity": "1/8",
            "drop_requirements": null
        },
        "201": {
            "id": 201,
            "name": "Grimy marrentill",
            "members": true,
            "quantity": "1",
            "noted": false,
            "rarity": "1/8",
            "drop_requirements": null
        },
        "203": {
            "id": 203,
            "name": "Grimy tarromin",
            "members": true,
            "quantity": "1",
            "noted": false,
            "rarity": "1/8",
            "drop_requirements": null
        },
        "205": {
            "id": 205,
            "name": "Grimy harralander",
            "members": true,
            "quantity": "1",
            "noted": false,
            "rarity": "1/32",
            "drop_requirements": null
        },
        "207": {
            "id": 207,
            "name": "Grimy ranarr weed",
            "members": true,
            "quantity": "1",
            "noted": false,
            "rarity": "1/32",
            "drop_requirements": null
        },
        "209": {
            "id": 209,
            "name": "Grimy irit leaf",
            "members": true,
            "quantity": "1",
            "noted": false,
            "rarity": "1/32",
            "drop_requirements": null
        },
        "211": {
            "id": 211,
            "name": "Grimy avantoe",
            "members": true,
            "quantity": "1",
            "noted": false,
            "rarity": "1/32",
            "drop_requirements": null
        },
        "213": {
            "id": 213,
            "name": "Grimy kwuarm",
            "members": true,
            "quantity": "1",
            "noted": false,
            "rarity": "1/128",
            "drop_requirements": null
        },
        "215": {
            "id": 215,
            "name": "Grimy cadantine",
            "members": true,
            "quantity": "1",
            "noted": false,
            "rarity": "1/128",
            "drop_requirements": null
        },
        "217": {
            "id": 217,
            "name": "Grimy dwarf weed",
            "members": true,
            "quantity": "1",
            "noted": false,
            "rarity": "1/512",
            "drop_requirements": null
        },
        "434": {
            "id": 434,
            "name": "Clay",
            "members": true,
            "quantity": "1",
            "noted": false,
            "rarity": "1/32",
            "drop_requirements": null
        },
        "557": {
            "id": 557,
            "name": "Earth rune",
            "members": true,
            "quantity": "15",
            "noted": false,
            "rarity": "1/32",
            "drop_requirements": null
        },
        "561": {
            "id": 561,
            "name": "Nature rune",
            "members": true,
            "quantity": "2",
            "noted": false,
            "rarity": "1/8",
            "drop_requirements": null
        },
        "563": {
            "id": 563,
            "name": "Law rune",
            "members": true,
            "quantity": "10-50",
            "noted": false,
            "rarity": "1/32",
            "drop_requirements": null
        },
        "592": {
            "id": 592,
            "name": "Ashes",
            "members": true,
            "quantity": "1",
            "noted": false,
            "rarity": "1/1",
            "drop_requirements": null
        },
        "617": {
            "id": 617,
            "name": "Coins",
            "members": true,
            "quantity": "44-400",
            "noted": false,
            "rarity": "1/32",
            "drop_requirements": null
        },
        "1159": {
            "id": 1159,
            "name": "Mithril full helm",
            "members": true,
            "quantity": "1",
            "noted": false,
            "rarity": "1/128",
            "drop_requirements": null
        },
        "1163": {
            "id": 1163,
            "name": "Rune full helm",
            "members": true,
            "quantity": "1",
            "noted": false,
            "rarity": "1/128",
            "drop_requirements": null
        },
        "1311": {
            "id": 1311,
            "name": "Steel 2h sword",
            "members": true,
            "quantity": "1",
            "noted": false,
            "rarity": "1/32",
            "drop_requirements": null
        },
        "1353": {
            "id": 1353,
            "name": "Steel axe",
            "members": true,
            "quantity": "1",
            "noted": false,
            "rarity": "1/32",
            "drop_requirements": null
        },
        "2485": {
            "id": 2485,
            "name": "Grimy lantadyme",
            "members": true,
            "quantity": "1",
            "noted": false,
            "rarity": "1/128",
            "drop_requirements": null
        },
        "2970": {
            "id": 2970,
            "name": "Mort myre fungus",
            "members": true,
            "quantity": "1-5",
            "noted": false,
            "rarity": "1/32",
            "drop_requirements": null
        },
        "5096": {
            "id": 5096,
            "name": "Marigold seed",
            "members": true,
            "quantity": "1",
            "noted": false,
            "rarity": "1/128",
            "drop_requirements": null
        },
        "5098": {
            "id": 5098,
            "name": "Nasturtium seed",
            "members": true,
            "quantity": "1",
            "noted": false,
            "rarity": "1/32",
            "drop_requirements": null
        },
        "5099": {
            "id": 5099,
            "name": "Woad seed",
            "members": true,
            "quantity": "1",
            "noted": false,
            "rarity": "1/128",
            "drop_requirements": null
        },
        "5100": {
            "id": 5100,
            "name": "Limpwurt seed",
            "members": true,
            "quantity": "1",
            "noted": false,
            "rarity": "1/32",
            "drop_requirements": null
        },
        "5104": {
            "id": 5104,
            "name": "Jangerberry seed",
            "members": true,
            "quantity": "1",
            "noted": false,
            "rarity": "1/32",
            "drop_requirements": null
        },
        "5105": {
            "id": 5105,
            "name": "Whiteberry seed",
            "members": true,
            "quantity": "1",
            "noted": false,
            "rarity": "1/32",
            "drop_requirements": null
        },
        "5106": {
            "id": 5106,
            "name": "Poison ivy seed",
            "members": true,
            "quantity": "1",
            "noted": false,
            "rarity": "1/32",
            "drop_requirements": null
        },
        "5282": {
            "id": 5282,
            "name": "Mushroom spore",
            "members": true,
            "quantity": "1",
            "noted": false,
            "rarity": "1/32",
            "drop_requirements": null
        },
        "5295": {
            "id": 5295,
            "name": "Ranarr seed",
            "members": true,
            "quantity": "1",
            "noted": false,
            "rarity": "1/128",
            "drop_requirements": null
        },
        "5296": {
            "id": 5296,
            "name": "Toadflax seed",
            "members": true,
            "quantity": "1",
            "noted": false,
            "rarity": "1/32",
            "drop_requirements": null
        },
        "5299": {
            "id": 5299,
            "name": "Kwuarm seed",
            "members": true,
            "quantity": "1",
            "noted": false,
            "rarity": "1/32",
            "drop_requirements": null
        },
        "5305": {
            "id": 5305,
            "name": "Barley seed",
            "members": true,
            "quantity": "1",
            "noted": false,
            "rarity": "1/32",
            "drop_requirements": null
        },
        "5306": {
            "id": 5306,
            "name": "Jute seed",
            "members": true,
            "quantity": "1",
            "noted": false,
            "rarity": "1/128",
            "drop_requirements": null
        },
        "5307": {
            "id": 5307,
            "name": "Hammerstone seed",
            "members": true,
            "quantity": "3",
            "noted": false,
            "rarity": "1/32",
            "drop_requirements": null
        },
        "5308": {
            "id": 5308,
            "name": "Asgarnian seed",
            "members": true,
            "quantity": "3",
            "noted": false,
            "rarity": "1/32",
            "drop_requirements": null
        },
        "5309": {
            "id": 5309,
            "name": "Yanillian seed",
            "members": true,
            "quantity": "1",
            "noted": false,
            "rarity": "1/128",
            "drop_requirements": null
        },
        "5311": {
            "id": 5311,
            "name": "Wildblood seed",
            "members": true,
            "quantity": "1",
            "noted": false,
            "rarity": "1/32",
            "drop_requirements": null
        },
        "5318": {
            "id": 5318,
            "name": "Potato seed",
            "members": true,
            "quantity": "4",
            "noted": false,
            "rarity": "1/32",
            "drop_requirements": null
        },
        "5319": {
            "id": 5319,
            "name": "Onion seed",
            "members": true,
            "quantity": "4",
            "noted": false,
            "rarity": "1/32",
            "drop_requirements": null
        },
        "5321": {
            "id": 5321,
            "name": "Watermelon seed",
            "members": true,
            "quantity": "1-3",
            "noted": false,
            "rarity": "1/128",
            "drop_requirements": null
        },
        "5322": {
            "id": 5322,
            "name": "Tomato seed",
            "members": true,
            "quantity": "3",
            "noted": false,
            "rarity": "1/32",
            "drop_requirements": null
        },
        "5323": {
            "id": 5323,
            "name": "Strawberry seed",
            "members": true,
            "quantity": "1-6",
            "noted": false,
            "rarity": "1/32",
            "drop_requirements": null
        },
        "6034": {
            "id": 6034,
            "name": "Supercompost",
            "members": true,
            "quantity": "1-3",
            "noted": true,
            "rarity": "1/32",
            "drop_requirements": null
        },
        "7432": {
            "id": 7432,
            "name": "Fungicide",
            "members": true,
            "quantity": "1",
            "noted": false,
            "rarity": "1/32",
            "drop_requirements": null
        },
        "23083": {
            "id": 23083,
            "name": "Brimstone key",
            "members": true,
            "quantity": "1",
            "noted": false,
            "rarity": null,
            "drop_requirements": null
        }
    },
    "rare_drop_table": false
}