{
    "id": 1047,
    "name": "Cave horror",
    "incomplete": false,
    "members": true,
    "release_date": "2006-07-04",
    "combat_level": 80,
    "size": 2,
    "hitpoints": 55,
    "max_hit": 9,
    "attack_type": [
        "melee",
        "magic"
    ],
    "attack_speed": 0,
    "aggressive": true,
    "poisonous": false,
    "immune_poison": false,
    "immune_venom": false,
    "weakness": [
        "melee",
        "ranged"
    ],
    "slayer_monster": true,
    "slayer_level": 58,
    "slayer_xp": 55.0,
    "slayer_masters": [
        "chaeldar",
        "nieve",
        "duradel"
    ],
    "duplicate": false,
    "examine": "A horrible, emaciated ape like creature with beady red eyes.",
    "wiki_name": "Cave horror",
    "wiki_url": "https://oldschool.runescape.wiki/w/Cave_horror",
    "attack_level": 80,
    "strength_level": 77,
    "defence_level": 62,
    "magic_level": 80,
    "ranged_level": 1,
    "attack_stab": 0,
    "attack_slash": 0,
    "attack_crush": 0,
    "attack_magic": 0,
    "attack_ranged": 0,
    "defence_stab": 0,
    "defence_slash": 0,
    "defence_crush": 0,
    "defence_magic": 0,
    "defence_ranged": 0,
    "attack_accuracy": 0,
    "melee_strength": 0,
    "ranged_strength": 0,
    "magic_damage": 0,
    "drops": {
        "225": {
            "id": 225,
            "name": "Limpwurt root",
            "members": true,
            "quantity": "1",
            "noted": false,
            "rarity": "7/128",
            "drop_requirements": null
        },
        "532": {
            "id": 532,
            "name": "Big bones",
            "members": true,
            "quantity": "1",
            "noted": false,
            "rarity": "1/1",
            "drop_requirements": null
        },
        "561": {
            "id": 561,
            "name": "Nature rune",
            "members": true,
            "quantity": "3",
            "noted": false,
            "rarity": "1/128",
            "drop_requirements": null
        },
        "617": {
            "id": 617,
            "name": "Coins",
            "members": true,
            "quantity": "440",
            "noted": false,
            "rarity": "1/128",
            "drop_requirements": null
        },
        "1161": {
            "id": 1161,
            "name": "Adamant full helm",
            "members": true,
            "quantity": "1",
            "noted": false,
            "rarity": "1/128",
            "drop_requirements": null
        },
        "1197": {
            "id": 1197,
            "name": "Mithril kiteshield",
            "members": true,
            "quantity": "1",
            "noted": false,
            "rarity": "1/128",
            "drop_requirements": null
        },
        "1213": {
            "id": 1213,
            "name": "Rune dagger",
            "members": true,
            "quantity": "1",
            "noted": false,
            "rarity": "1/128",
            "drop_requirements": null
        },
        "1355": {
            "id": 1355,
            "name": "Mithril axe",
            "members": true,
            "quantity": "1",
            "noted": false,
            "rarity": "3/128",
            "drop_requirements": null
        },
        "2722": {
            "id": 2722,
            "name": "Clue scroll (hard)",
            "members": true,
            "quantity": "1",
            "noted": false,
            "rarity": "1/128",
            "drop_requirements": null
        },
        "6332": {
            "id": 6332,
            "name": "Mahogany logs",
            "members": true,
            "quantity": "2",
            "noted": false,
            "rarity": "3/128",
            "drop_requirements": null
        },
        "6333": {
            "id": 6333,
            "name": "Teak logs",
            "members": true,
            "quantity": "4",
            "noted": true,
            "rarity": "7/128",
            "drop_requirements": null
        },
        "8901": {
            "id": 8901,
            "name": "Black mask (10)",
            "members": true,
            "quantity": "1",
            "noted": false,
            "rarity": "1/512",
            "drop_requirements": null
        },
        "10976": {
            "id": 10976,
            "name": "Long bone",
            "members": true,
            "quantity": "1",
            "noted": false,
            "rarity": "1/400",
            "drop_requirements": null
        },
        "10977": {
            "id": 10977,
            "name": "Curved bone",
            "members": true,
            "quantity": "1",
            "noted": false,
            "rarity": "1/5012.5",
            "drop_requirements": null
        },
        "13486": {
            "id": 13486,
            "name": "Ensouled horror head",
            "members": true,
            "quantity": "1",
            "noted": false,
            "rarity": "1/30",
            "drop_requirements": null
        }
    },
    "rare_drop_table": true
}