{
    "id": 1098,
    "name": "Sea Snake Hatchling",
    "incomplete": false,
    "members": true,
    "release_date": "2006-05-22",
    "combat_level": 62,
    "size": 1,
    "hitpoints": 50,
    "max_hit": 6,
    "attack_type": [
        "crush"
    ],
    "attack_speed": 4,
    "aggressive": false,
    "poisonous": false,
    "immune_poison": false,
    "immune_venom": false,
    "weakness": [],
    "slayer_monster": true,
    "slayer_level": 40,
    "slayer_xp": 50.0,
    "slayer_masters": [
        "vannaka"
    ],
    "duplicate": false,
    "examine": "A baby sea snake. Snaaaaaaake!",
    "wiki_name": "Sea Snake Hatchling",
    "wiki_url": "https://oldschool.runescape.wiki/w/Sea_Snake_Hatchling",
    "attack_level": 60,
    "strength_level": 55,
    "defence_level": 50,
    "magic_level": 1,
    "ranged_level": 0,
    "attack_stab": 0,
    "attack_slash": 0,
    "attack_crush": 0,
    "attack_magic": 0,
    "attack_ranged": 0,
    "defence_stab": 0,
    "defence_slash": 0,
    "defence_crush": 0,
    "defence_magic": 0,
    "defence_ranged": 0,
    "attack_accuracy": 0,
    "melee_strength": 0,
    "ranged_strength": 0,
    "magic_damage": 0,
    "drops": {
        "46": {
            "id": 46,
            "name": "Pearl bolt tips",
            "members": true,
            "quantity": "3",
            "noted": false,
            "rarity": "4/128",
            "drop_requirements": null
        },
        "313": {
            "id": 313,
            "name": "Fishing bait",
            "members": true,
            "quantity": "50",
            "noted": false,
            "rarity": "4/128",
            "drop_requirements": null
        },
        "363": {
            "id": 363,
            "name": "Raw bass",
            "members": true,
            "quantity": "2",
            "noted": false,
            "rarity": "4/128",
            "drop_requirements": null
        },
        "377": {
            "id": 377,
            "name": "Raw lobster",
            "members": true,
            "quantity": "1",
            "noted": false,
            "rarity": "2/128",
            "drop_requirements": null
        },
        "401": {
            "id": 401,
            "name": "Seaweed",
            "members": true,
            "quantity": "5",
            "noted": false,
            "rarity": "2/128",
            "drop_requirements": null
        },
        "403": {
            "id": 403,
            "name": "Edible seaweed",
            "members": true,
            "quantity": "5",
            "noted": false,
            "rarity": "2/128",
            "drop_requirements": null
        },
        "405": {
            "id": 405,
            "name": "Casket",
            "members": true,
            "quantity": "1",
            "noted": false,
            "rarity": "1/128",
            "drop_requirements": null
        },
        "411": {
            "id": 411,
            "name": "Oyster pearl",
            "members": true,
            "quantity": "2",
            "noted": false,
            "rarity": "1/128",
            "drop_requirements": null
        },
        "413": {
            "id": 413,
            "name": "Oyster pearls",
            "members": true,
            "quantity": "1",
            "noted": false,
            "rarity": "1/128",
            "drop_requirements": null
        },
        "526": {
            "id": 526,
            "name": "Bones",
            "members": true,
            "quantity": "1",
            "noted": false,
            "rarity": "1/1",
            "drop_requirements": null
        },
        "555": {
            "id": 555,
            "name": "Water rune",
            "members": true,
            "quantity": "15",
            "noted": false,
            "rarity": "2/128",
            "drop_requirements": null
        },
        "571": {
            "id": 571,
            "name": "Water orb",
            "members": true,
            "quantity": "1",
            "noted": false,
            "rarity": "3/128",
            "drop_requirements": null
        },
        "617": {
            "id": 617,
            "name": "Coins",
            "members": true,
            "quantity": "23",
            "noted": false,
            "rarity": "7/128",
            "drop_requirements": null
        },
        "823": {
            "id": 823,
            "name": "Adamant dart tip",
            "members": true,
            "quantity": "2",
            "noted": false,
            "rarity": "10/128",
            "drop_requirements": null
        },
        "2801": {
            "id": 2801,
            "name": "Clue scroll (medium)",
            "members": true,
            "quantity": "1",
            "noted": false,
            "rarity": "1/128",
            "drop_requirements": null
        },
        "4150": {
            "id": 4150,
            "name": "Broad arrows",
            "members": true,
            "quantity": "4",
            "noted": false,
            "rarity": "2/128",
            "drop_requirements": null
        },
        "4695": {
            "id": 4695,
            "name": "Mist rune",
            "members": true,
            "quantity": "1",
            "noted": false,
            "rarity": "2/128",
            "drop_requirements": null
        }
    },
    "rare_drop_table": true
}