{
    "id": 1126,
    "name": "Barrelchest (hard)",
    "incomplete": true,
    "members": true,
    "release_date": "2013-09-05",
    "combat_level": 380,
    "size": 3,
    "hitpoints": 255,
    "max_hit": 61,
    "attack_type": [
        "crush",
        "ranged",
        "ranged"
    ],
    "attack_speed": 5,
    "aggressive": true,
    "poisonous": false,
    "immune_poison": false,
    "immune_venom": false,
    "weakness": [
        "melee",
        "ranged"
    ],
    "slayer_monster": false,
    "slayer_level": null,
    "slayer_xp": null,
    "slayer_masters": [],
    "duplicate": false,
    "examine": "It's trying to mash you flat! Less examine, more fight!",
    "wiki_name": "Barrelchest (Hard)",
    "wiki_url": "https://oldschool.runescape.wiki/w/Barrelchest#Hard",
    "attack_level": 306,
    "strength_level": 261,
    "defence_level": 140,
    "magic_level": 162,
    "ranged_level": 1,
    "attack_stab": 0,
    "attack_slash": 0,
    "attack_crush": 0,
    "attack_magic": 0,
    "attack_ranged": 0,
    "defence_stab": 0,
    "defence_slash": 0,
    "defence_crush": 0,
    "defence_magic": 0,
    "defence_ranged": 0,
    "attack_accuracy": 80,
    "melee_strength": 80,
    "ranged_strength": 0,
    "magic_damage": 0,
    "drops": {},
    "rare_drop_table": false
}