{
    "id": 113,
    "name": "Wild dog",
    "incomplete": false,
    "members": true,
    "release_date": "2005-01-17",
    "combat_level": 63,
    "size": 1,
    "hitpoints": 62,
    "max_hit": 6,
    "attack_type": [
        "stab"
    ],
    "attack_speed": 4,
    "aggressive": false,
    "poisonous": false,
    "immune_poison": false,
    "immune_venom": false,
    "weakness": [
        "magic"
    ],
    "slayer_monster": true,
    "slayer_level": 1,
    "slayer_xp": 62.0,
    "slayer_masters": [
        "turael",
        "mazchna"
    ],
    "duplicate": true,
    "examine": "An unsuitable pet.",
    "wiki_name": "Wild dog",
    "wiki_url": "https://oldschool.runescape.wiki/w/Wild_dog",
    "attack_level": 53,
    "strength_level": 54,
    "defence_level": 54,
    "magic_level": 1,
    "ranged_level": 1,
    "attack_stab": 0,
    "attack_slash": 0,
    "attack_crush": 0,
    "attack_magic": 0,
    "attack_ranged": 0,
    "defence_stab": 0,
    "defence_slash": 0,
    "defence_crush": 0,
    "defence_magic": 0,
    "defence_ranged": 0,
    "attack_accuracy": 0,
    "melee_strength": 0,
    "ranged_strength": 0,
    "magic_damage": 0,
    "drops": {
        "526": {
            "id": 526,
            "name": "Bones",
            "members": true,
            "quantity": "1",
            "noted": false,
            "rarity": "1/1",
            "drop_requirements": null
        },
        "13468": {
            "id": 13468,
            "name": "Ensouled dog head",
            "members": true,
            "quantity": "1",
            "noted": false,
            "rarity": "1/25",
            "drop_requirements": null
        }
    },
    "rare_drop_table": false
}