{
    "id": 1141,
    "name": "Woman",
    "incomplete": true,
    "members": true,
    "release_date": "2002-08-27",
    "combat_level": 3,
    "size": 1,
    "hitpoints": 10,
    "max_hit": 1,
    "attack_type": [
        "crush"
    ],
    "attack_speed": 4,
    "aggressive": false,
    "poisonous": false,
    "immune_poison": false,
    "immune_venom": false,
    "weakness": [],
    "slayer_monster": false,
    "slayer_level": null,
    "slayer_xp": null,
    "slayer_masters": [],
    "duplicate": true,
    "examine": "One of Gielinor's many citizens.",
    "wiki_name": "Woman (West Ardougne) (Level 3)",
    "wiki_url": "https://oldschool.runescape.wiki/w/Woman_(West_Ardougne)#Level_3",
    "attack_level": 1,
    "strength_level": 1,
    "defence_level": 2,
    "magic_level": 1,
    "ranged_level": 1,
    "attack_stab": 0,
    "attack_slash": 0,
    "attack_crush": 0,
    "attack_magic": 0,
    "attack_ranged": 0,
    "defence_stab": 0,
    "defence_slash": 0,
    "defence_crush": 0,
    "defence_magic": 0,
    "defence_ranged": 0,
    "attack_accuracy": 0,
    "melee_strength": 0,
    "ranged_strength": 0,
    "magic_damage": 0,
    "drops": {},
    "rare_drop_table": false
}