{
    "id": 1224,
    "name": "Bouncer",
    "incomplete": false,
    "members": true,
    "release_date": "2002-07-23",
    "combat_level": 137,
    "size": 2,
    "hitpoints": 116,
    "max_hit": 13,
    "attack_type": [
        "stab"
    ],
    "attack_speed": 4,
    "aggressive": true,
    "poisonous": false,
    "immune_poison": false,
    "immune_venom": false,
    "weakness": [
        "magic"
    ],
    "slayer_monster": true,
    "slayer_level": 1,
    "slayer_xp": 116.0,
    "slayer_masters": [
        "krystilia",
        "vannaka",
        "chaeldar",
        "nieve",
        "duradel"
    ],
    "duplicate": false,
    "examine": "Postie Pete's worst nightmare.",
    "wiki_name": "Bouncer (Normal)",
    "wiki_url": "https://oldschool.runescape.wiki/w/Bouncer#Normal",
    "attack_level": 120,
    "strength_level": 120,
    "defence_level": 120,
    "magic_level": 1,
    "ranged_level": 1,
    "attack_stab": 0,
    "attack_slash": 0,
    "attack_crush": 0,
    "attack_magic": 0,
    "attack_ranged": 0,
    "defence_stab": 0,
    "defence_slash": 0,
    "defence_crush": 0,
    "defence_magic": 0,
    "defence_ranged": 0,
    "attack_accuracy": 0,
    "melee_strength": 0,
    "ranged_strength": 0,
    "magic_damage": 0,
    "drops": {
        "526": {
            "id": 526,
            "name": "Bones",
            "members": true,
            "quantity": "1",
            "noted": false,
            "rarity": "1/1",
            "drop_requirements": null
        }
    },
    "rare_drop_table": false
}