{
    "id": 1225,
    "name": "Khazard Ogre",
    "incomplete": true,
    "members": true,
    "release_date": "2002-07-23",
    "combat_level": 63,
    "size": 2,
    "hitpoints": 60,
    "max_hit": 8,
    "attack_type": [
        "crush"
    ],
    "attack_speed": 6,
    "aggressive": true,
    "poisonous": false,
    "immune_poison": false,
    "immune_venom": false,
    "weakness": [
        "magic"
    ],
    "slayer_monster": false,
    "slayer_level": null,
    "slayer_xp": null,
    "slayer_masters": [],
    "duplicate": false,
    "examine": "Khazard's strongest ogre warrior.",
    "wiki_name": "Khazard Ogre",
    "wiki_url": "https://oldschool.runescape.wiki/w/Khazard_Ogre",
    "attack_level": 54,
    "strength_level": 53,
    "defence_level": 53,
    "magic_level": 1,
    "ranged_level": 1,
    "attack_stab": 0,
    "attack_slash": 0,
    "attack_crush": 0,
    "attack_magic": 0,
    "attack_ranged": 0,
    "defence_stab": 0,
    "defence_slash": 0,
    "defence_crush": 0,
    "defence_magic": 0,
    "defence_ranged": 0,
    "attack_accuracy": 22,
    "melee_strength": 20,
    "ranged_strength": 0,
    "magic_damage": 0,
    "drops": {},
    "rare_drop_table": false
}