{
    "id": 1231,
    "name": "Arzinian Avatar of Ranging",
    "incomplete": true,
    "members": true,
    "release_date": "2005-03-21",
    "combat_level": 125,
    "size": 1,
    "hitpoints": 100,
    "max_hit": 14,
    "attack_type": [
        "ranged",
        "ranged"
    ],
    "attack_speed": 4,
    "aggressive": true,
    "poisonous": false,
    "immune_poison": false,
    "immune_venom": false,
    "weakness": [
        "melee"
    ],
    "slayer_monster": false,
    "slayer_level": null,
    "slayer_xp": null,
    "slayer_masters": [],
    "duplicate": false,
    "examine": "It is the avatar of the Arzinian Being of Bordanzan, representing ranging.",
    "wiki_name": "Arzinian Avatar of Ranging (Level 125)",
    "wiki_url": "https://oldschool.runescape.wiki/w/Arzinian_Avatar_of_Ranging#Level_125",
    "attack_level": 10,
    "strength_level": 100,
    "defence_level": 120,
    "magic_level": 0,
    "ranged_level": 110,
    "attack_stab": 0,
    "attack_slash": 0,
    "attack_crush": 0,
    "attack_magic": 0,
    "attack_ranged": 0,
    "defence_stab": 15,
    "defence_slash": 15,
    "defence_crush": 15,
    "defence_magic": 80,
    "defence_ranged": 20,
    "attack_accuracy": 0,
    "melee_strength": 0,
    "ranged_strength": 10,
    "magic_damage": 0,
    "drops": {},
    "rare_drop_table": false
}