{
    "id": 1264,
    "name": "Ram",
    "incomplete": true,
    "members": false,
    "release_date": "2006-04-10",
    "combat_level": 2,
    "size": 1,
    "hitpoints": 8,
    "max_hit": 1,
    "attack_type": [
        "melee"
    ],
    "attack_speed": 4,
    "aggressive": false,
    "poisonous": false,
    "immune_poison": false,
    "immune_venom": false,
    "weakness": [],
    "slayer_monster": false,
    "slayer_level": null,
    "slayer_xp": null,
    "slayer_masters": [],
    "duplicate": true,
    "examine": "White and shaggy.",
    "wiki_name": "Ram",
    "wiki_url": "https://oldschool.runescape.wiki/w/Ram",
    "attack_level": 1,
    "strength_level": 1,
    "defence_level": 1,
    "magic_level": 1,
    "ranged_level": 1,
    "attack_stab": 0,
    "attack_slash": 0,
    "attack_crush": 0,
    "attack_magic": 0,
    "attack_ranged": 0,
    "defence_stab": -21,
    "defence_slash": -21,
    "defence_crush": -21,
    "defence_magic": -21,
    "defence_ranged": -21,
    "attack_accuracy": 0,
    "melee_strength": 0,
    "ranged_strength": 0,
    "magic_damage": 0,
    "drops": {
        "526": {
            "id": 526,
            "name": "Bones",
            "members": false,
            "quantity": "1",
            "noted": false,
            "rarity": "1/1",
            "drop_requirements": null
        },
        "7818": {
            "id": 7818,
            "name": "Ram skull",
            "members": true,
            "quantity": "1",
            "noted": false,
            "rarity": "1/1",
            "drop_requirements": null
        }
    },
    "rare_drop_table": false
}