{
    "id": 133,
    "name": "Troll",
    "incomplete": true,
    "members": true,
    "release_date": "2006-05-31",
    "combat_level": 91,
    "size": 1,
    "hitpoints": 120,
    "max_hit": 23,
    "attack_type": [
        "crush"
    ],
    "attack_speed": 4,
    "aggressive": true,
    "poisonous": false,
    "immune_poison": false,
    "immune_venom": false,
    "weakness": [
        "slash",
        "stab"
    ],
    "slayer_monster": false,
    "slayer_level": null,
    "slayer_xp": null,
    "slayer_masters": [],
    "duplicate": false,
    "examine": "Young, but still dangerous.",
    "wiki_name": "Troll (Construction)",
    "wiki_url": "https://oldschool.runescape.wiki/w/Troll_(Construction)",
    "attack_level": 50,
    "strength_level": 100,
    "defence_level": 50,
    "magic_level": 0,
    "ranged_level": 0,
    "attack_stab": 0,
    "attack_slash": 0,
    "attack_crush": 0,
    "attack_magic": 0,
    "attack_ranged": 0,
    "defence_stab": 25,
    "defence_slash": 25,
    "defence_crush": 40,
    "defence_magic": 200,
    "defence_ranged": 200,
    "attack_accuracy": 40,
    "melee_strength": 70,
    "ranged_strength": 0,
    "magic_damage": 0,
    "drops": {},
    "rare_drop_table": false
}