{
    "id": 137,
    "name": "Baby red dragon",
    "incomplete": true,
    "members": true,
    "release_date": "2006-05-31",
    "combat_level": 65,
    "size": 2,
    "hitpoints": 65,
    "max_hit": 6,
    "attack_type": [
        "slash"
    ],
    "attack_speed": 4,
    "aggressive": true,
    "poisonous": false,
    "immune_poison": false,
    "immune_venom": false,
    "weakness": [
        "stab",
        "ranged"
    ],
    "slayer_monster": false,
    "slayer_level": null,
    "slayer_xp": null,
    "slayer_masters": [],
    "duplicate": false,
    "examine": "Young, but still dangerous.",
    "wiki_name": "Baby red dragon",
    "wiki_url": "https://oldschool.runescape.wiki/w/Baby_red_dragon",
    "attack_level": 55,
    "strength_level": 55,
    "defence_level": 55,
    "magic_level": 1,
    "ranged_level": 1,
    "attack_stab": 0,
    "attack_slash": 0,
    "attack_crush": 0,
    "attack_magic": 0,
    "attack_ranged": 0,
    "defence_stab": 30,
    "defence_slash": 50,
    "defence_crush": 50,
    "defence_magic": 40,
    "defence_ranged": 30,
    "attack_accuracy": 0,
    "melee_strength": 0,
    "ranged_strength": 0,
    "magic_damage": 0,
    "drops": {},
    "rare_drop_table": false
}