{
    "id": 1370,
    "name": "Water elemental",
    "incomplete": true,
    "members": true,
    "release_date": "2004-06-02",
    "combat_level": 34,
    "size": 1,
    "hitpoints": 30,
    "max_hit": 4,
    "attack_type": [
        "stab"
    ],
    "attack_speed": 4,
    "aggressive": false,
    "poisonous": false,
    "immune_poison": false,
    "immune_venom": false,
    "weakness": [],
    "slayer_monster": false,
    "slayer_level": null,
    "slayer_xp": 0.0,
    "slayer_masters": [],
    "duplicate": false,
    "examine": "A water elemental.",
    "wiki_name": "Water elemental",
    "wiki_url": "https://oldschool.runescape.wiki/w/Water_elemental",
    "attack_level": 30,
    "strength_level": 30,
    "defence_level": 30,
    "magic_level": 30,
    "ranged_level": 30,
    "attack_stab": 0,
    "attack_slash": 0,
    "attack_crush": 0,
    "attack_magic": 0,
    "attack_ranged": 0,
    "defence_stab": 0,
    "defence_slash": 0,
    "defence_crush": 0,
    "defence_magic": 0,
    "defence_ranged": 0,
    "attack_accuracy": 0,
    "melee_strength": 0,
    "ranged_strength": 0,
    "magic_damage": 0,
    "drops": {
        "227": {
            "id": 227,
            "name": "Vial of water",
            "members": true,
            "quantity": "1",
            "noted": false,
            "rarity": "1/1",
            "drop_requirements": null
        },
        "555": {
            "id": 555,
            "name": "Water rune",
            "members": true,
            "quantity": "20",
            "noted": false,
            "rarity": "1/46.931",
            "drop_requirements": null
        },
        "560": {
            "id": 560,
            "name": "Death rune",
            "members": true,
            "quantity": "1",
            "noted": false,
            "rarity": "1/36.744",
            "drop_requirements": null
        },
        "561": {
            "id": 561,
            "name": "Nature rune",
            "members": true,
            "quantity": "2",
            "noted": false,
            "rarity": "1/13.203",
            "drop_requirements": null
        },
        "562": {
            "id": 562,
            "name": "Chaos rune",
            "members": true,
            "quantity": "2",
            "noted": false,
            "rarity": "1/18.884",
            "drop_requirements": null
        },
        "563": {
            "id": 563,
            "name": "Law rune",
            "members": true,
            "quantity": "1",
            "noted": false,
            "rarity": "1/20.973",
            "drop_requirements": null
        },
        "565": {
            "id": 565,
            "name": "Blood rune",
            "members": true,
            "quantity": "1",
            "noted": false,
            "rarity": "1/91.154",
            "drop_requirements": null
        },
        "617": {
            "id": 617,
            "name": "Coins",
            "members": true,
            "quantity": "42",
            "noted": false,
            "rarity": "1/47.879",
            "drop_requirements": null
        },
        "1383": {
            "id": 1383,
            "name": "Staff of water",
            "members": true,
            "quantity": "1",
            "noted": false,
            "rarity": "1/66.761",
            "drop_requirements": null
        }
    },
    "rare_drop_table": true
}