{
    "id": 1378,
    "name": "The Kendal",
    "incomplete": true,
    "members": true,
    "release_date": "2005-03-07",
    "combat_level": 70,
    "size": 2,
    "hitpoints": 50,
    "max_hit": 9,
    "attack_type": [
        "crush"
    ],
    "attack_speed": 4,
    "aggressive": true,
    "poisonous": false,
    "immune_poison": false,
    "immune_venom": false,
    "weakness": [
        "magic"
    ],
    "slayer_monster": false,
    "slayer_level": null,
    "slayer_xp": null,
    "slayer_masters": [],
    "duplicate": true,
    "examine": "Is that a bear...or a man?",
    "wiki_name": "The Kendal (Normal)",
    "wiki_url": "https://oldschool.runescape.wiki/w/The_Kendal#Normal",
    "attack_level": 65,
    "strength_level": 65,
    "defence_level": 60,
    "magic_level": 0,
    "ranged_level": 0,
    "attack_stab": 0,
    "attack_slash": 0,
    "attack_crush": 0,
    "attack_magic": 0,
    "attack_ranged": 0,
    "defence_stab": 10,
    "defence_slash": 10,
    "defence_crush": 10,
    "defence_magic": -10,
    "defence_ranged": 20,
    "attack_accuracy": 5,
    "melee_strength": 10,
    "ranged_strength": 0,
    "magic_damage": 0,
    "drops": {
        "526": {
            "id": 526,
            "name": "Bones",
            "members": true,
            "quantity": "1",
            "noted": false,
            "rarity": "1/1",
            "drop_requirements": null
        },
        "4502": {
            "id": 4502,
            "name": "Bearhead",
            "members": true,
            "quantity": "1",
            "noted": false,
            "rarity": "1/1",
            "drop_requirements": null
        }
    },
    "rare_drop_table": false
}