{
    "id": 140,
    "name": "Dagannoth",
    "incomplete": true,
    "members": true,
    "release_date": "2006-05-31",
    "combat_level": 135,
    "size": 3,
    "hitpoints": 142,
    "max_hit": 22,
    "attack_type": [
        "stab"
    ],
    "attack_speed": 4,
    "aggressive": true,
    "poisonous": false,
    "immune_poison": false,
    "immune_venom": false,
    "weakness": [
        "magic"
    ],
    "slayer_monster": false,
    "slayer_level": null,
    "slayer_xp": null,
    "slayer_masters": [],
    "duplicate": false,
    "examine": "A darkened horror from the ocean depths.",
    "wiki_name": "Dagannoth (Construction)",
    "wiki_url": "https://oldschool.runescape.wiki/w/Dagannoth_(Construction)",
    "attack_level": 114,
    "strength_level": 117,
    "defence_level": 98,
    "magic_level": 1,
    "ranged_level": 1,
    "attack_stab": 0,
    "attack_slash": 0,
    "attack_crush": 0,
    "attack_magic": 0,
    "attack_ranged": 0,
    "defence_stab": 50,
    "defence_slash": 50,
    "defence_crush": 50,
    "defence_magic": 50,
    "defence_ranged": 50,
    "attack_accuracy": 50,
    "melee_strength": 0,
    "ranged_strength": 50,
    "magic_damage": 0,
    "drops": {},
    "rare_drop_table": false
}