{
    "id": 1685,
    "name": "Skeleton",
    "incomplete": false,
    "members": false,
    "release_date": "2005-05-09",
    "combat_level": 77,
    "size": 1,
    "hitpoints": 51,
    "max_hit": 10,
    "attack_type": [
        "melee"
    ],
    "attack_speed": 4,
    "aggressive": true,
    "poisonous": false,
    "immune_poison": false,
    "immune_venom": false,
    "weakness": [
        "crush",
        "magic",
        "crumble undead"
    ],
    "slayer_monster": true,
    "slayer_level": 1,
    "slayer_xp": 51.0,
    "slayer_masters": [
        "turael",
        "mazchna"
    ],
    "duplicate": false,
    "examine": "Could do with gaining a few pounds.",
    "wiki_name": "Skeleton (Barrows)",
    "wiki_url": "https://oldschool.runescape.wiki/w/Skeleton_(Barrows)",
    "attack_level": 72,
    "strength_level": 72,
    "defence_level": 72,
    "magic_level": 1,
    "ranged_level": 1,
    "attack_stab": 0,
    "attack_slash": 0,
    "attack_crush": 0,
    "attack_magic": 0,
    "attack_ranged": 0,
    "defence_stab": 5,
    "defence_slash": 5,
    "defence_crush": -5,
    "defence_magic": 0,
    "defence_ranged": 5,
    "attack_accuracy": 0,
    "melee_strength": 0,
    "ranged_strength": 0,
    "magic_damage": 0,
    "drops": {},
    "rare_drop_table": false
}