{
    "id": 1738,
    "name": "Brawler",
    "incomplete": true,
    "members": true,
    "release_date": "2006-04-18",
    "combat_level": 158,
    "size": 2,
    "hitpoints": 143,
    "max_hit": 14,
    "attack_type": [
        "melee"
    ],
    "attack_speed": 4,
    "aggressive": true,
    "poisonous": false,
    "immune_poison": false,
    "immune_venom": false,
    "weakness": [
        "ranged"
    ],
    "slayer_monster": false,
    "slayer_level": null,
    "slayer_xp": null,
    "slayer_masters": [],
    "duplicate": false,
    "examine": "Mind your toes!",
    "wiki_name": "Brawler (Level 158)",
    "wiki_url": "https://oldschool.runescape.wiki/w/Brawler#Level_158",
    "attack_level": 0,
    "strength_level": 0,
    "defence_level": 0,
    "magic_level": 0,
    "ranged_level": 0,
    "attack_stab": 0,
    "attack_slash": 0,
    "attack_crush": 0,
    "attack_magic": 0,
    "attack_ranged": 0,
    "defence_stab": 0,
    "defence_slash": 0,
    "defence_crush": 0,
    "defence_magic": 0,
    "defence_ranged": 0,
    "attack_accuracy": 0,
    "melee_strength": 0,
    "ranged_strength": 0,
    "magic_damage": 0,
    "drops": {},
    "rare_drop_table": false
}