{
    "id": 1740,
    "name": "Portal",
    "incomplete": true,
    "members": true,
    "release_date": "2006-04-18",
    "combat_level": 0,
    "size": 3,
    "hitpoints": 0,
    "max_hit": 0,
    "attack_type": [],
    "attack_speed": 0,
    "aggressive": false,
    "poisonous": false,
    "immune_poison": false,
    "immune_venom": false,
    "weakness": [
        "magic"
    ],
    "slayer_monster": false,
    "slayer_level": null,
    "slayer_xp": null,
    "slayer_masters": [],
    "duplicate": false,
    "examine": "The Void Knight will soon weaken the shield.",
    "wiki_name": "Portal (Pest Control) (Blue)",
    "wiki_url": "https://oldschool.runescape.wiki/w/Portal_(Pest_Control)#Blue",
    "attack_level": 0,
    "strength_level": 0,
    "defence_level": 85,
    "magic_level": 0,
    "ranged_level": 0,
    "attack_stab": 0,
    "attack_slash": 0,
    "attack_crush": 0,
    "attack_magic": 0,
    "attack_ranged": 0,
    "defence_stab": 0,
    "defence_slash": 0,
    "defence_crush": 0,
    "defence_magic": 70,
    "defence_ranged": 70,
    "attack_accuracy": 0,
    "melee_strength": 0,
    "ranged_strength": 0,
    "magic_damage": 0,
    "drops": {},
    "rare_drop_table": false
}