{
    "id": 1795,
    "name": "Goat",
    "incomplete": true,
    "members": true,
    "release_date": "2006-10-18",
    "combat_level": 23,
    "size": 1,
    "hitpoints": 21,
    "max_hit": 4,
    "attack_type": [
        "crush"
    ],
    "attack_speed": 4,
    "aggressive": false,
    "poisonous": false,
    "immune_poison": false,
    "immune_venom": false,
    "weakness": [
        "magic"
    ],
    "slayer_monster": false,
    "slayer_level": null,
    "slayer_xp": null,
    "slayer_masters": [],
    "duplicate": false,
    "examine": "They'll eat anything!",
    "wiki_name": "Goat (Tan)",
    "wiki_url": "https://oldschool.runescape.wiki/w/Goat#Tan",
    "attack_level": 20,
    "strength_level": 20,
    "defence_level": 20,
    "magic_level": 1,
    "ranged_level": 1,
    "attack_stab": 0,
    "attack_slash": 0,
    "attack_crush": 0,
    "attack_magic": 0,
    "attack_ranged": 0,
    "defence_stab": 10,
    "defence_slash": 10,
    "defence_crush": 0,
    "defence_magic": 0,
    "defence_ranged": 10,
    "attack_accuracy": 29,
    "melee_strength": 10,
    "ranged_strength": 0,
    "magic_damage": 0,
    "drops": {
        "526": {
            "id": 526,
            "name": "Bones",
            "members": true,
            "quantity": "1",
            "noted": false,
            "rarity": "1/1",
            "drop_requirements": null
        },
        "9735": {
            "id": 9735,
            "name": "Desert goat horn",
            "members": true,
            "quantity": "1",
            "noted": false,
            "rarity": "1/1",
            "drop_requirements": null
        }
    },
    "rare_drop_table": false
}