{
    "id": 1864,
    "name": "Tree spirit",
    "incomplete": true,
    "members": true,
    "release_date": "2004-02-02",
    "combat_level": 79,
    "size": 1,
    "hitpoints": 86,
    "max_hit": 10,
    "attack_type": [
        "crush"
    ],
    "attack_speed": 4,
    "aggressive": true,
    "poisonous": false,
    "immune_poison": false,
    "immune_venom": false,
    "weakness": [
        "ranged",
        "magic"
    ],
    "slayer_monster": false,
    "slayer_level": null,
    "slayer_xp": null,
    "slayer_masters": [],
    "duplicate": false,
    "examine": "A very angry nymph.",
    "wiki_name": "Tree spirit (Level 79)",
    "wiki_url": "https://oldschool.runescape.wiki/w/Tree_spirit#Level_79",
    "attack_level": 65,
    "strength_level": 65,
    "defence_level": 65,
    "magic_level": 1,
    "ranged_level": 1,
    "attack_stab": 0,
    "attack_slash": 0,
    "attack_crush": 0,
    "attack_magic": 0,
    "attack_ranged": 0,
    "defence_stab": 0,
    "defence_slash": 0,
    "defence_crush": 0,
    "defence_magic": 0,
    "defence_ranged": 0,
    "attack_accuracy": 0,
    "melee_strength": 0,
    "ranged_strength": 0,
    "magic_damage": 0,
    "drops": {
        "199": {
            "id": 199,
            "name": "Grimy guam leaf",
            "members": true,
            "quantity": "1",
            "noted": false,
            "rarity": "1/8",
            "drop_requirements": null
        },
        "201": {
            "id": 201,
            "name": "Grimy marrentill",
            "members": true,
            "quantity": "1",
            "noted": false,
            "rarity": "1/8",
            "drop_requirements": null
        },
        "203": {
            "id": 203,
            "name": "Grimy tarromin",
            "members": true,
            "quantity": "1",
            "noted": false,
            "rarity": "1/32",
            "drop_requirements": null
        },
        "205": {
            "id": 205,
            "name": "Grimy harralander",
            "members": true,
            "quantity": "1",
            "noted": false,
            "rarity": "1/32",
            "drop_requirements": null
        },
        "207": {
            "id": 207,
            "name": "Grimy ranarr weed",
            "members": true,
            "quantity": "1",
            "noted": false,
            "rarity": "1/32",
            "drop_requirements": null
        },
        "209": {
            "id": 209,
            "name": "Grimy irit leaf",
            "members": true,
            "quantity": "1",
            "noted": false,
            "rarity": "1/32",
            "drop_requirements": null
        },
        "211": {
            "id": 211,
            "name": "Grimy avantoe",
            "members": true,
            "quantity": "1",
            "noted": false,
            "rarity": "1/32",
            "drop_requirements": null
        },
        "213": {
            "id": 213,
            "name": "Grimy kwuarm",
            "members": true,
            "quantity": "1",
            "noted": false,
            "rarity": "1/32",
            "drop_requirements": null
        },
        "215": {
            "id": 215,
            "name": "Grimy cadantine",
            "members": true,
            "quantity": "1",
            "noted": false,
            "rarity": "1/32",
            "drop_requirements": null
        },
        "217": {
            "id": 217,
            "name": "Grimy dwarf weed",
            "members": true,
            "quantity": "1",
            "noted": false,
            "rarity": "1/32",
            "drop_requirements": null
        },
        "561": {
            "id": 561,
            "name": "Nature rune",
            "members": true,
            "quantity": "2,5,10,22",
            "noted": false,
            "rarity": "1/8",
            "drop_requirements": null
        },
        "946": {
            "id": 946,
            "name": "Knife",
            "members": true,
            "quantity": "1",
            "noted": false,
            "rarity": "1/32",
            "drop_requirements": null
        },
        "1353": {
            "id": 1353,
            "name": "Steel axe",
            "members": true,
            "quantity": "1",
            "noted": false,
            "rarity": "1/8",
            "drop_requirements": null
        },
        "1355": {
            "id": 1355,
            "name": "Mithril axe",
            "members": true,
            "quantity": "1",
            "noted": false,
            "rarity": "1/8",
            "drop_requirements": null
        },
        "1357": {
            "id": 1357,
            "name": "Adamant axe",
            "members": true,
            "quantity": "1",
            "noted": false,
            "rarity": "1/32",
            "drop_requirements": null
        },
        "1359": {
            "id": 1359,
            "name": "Rune axe",
            "members": true,
            "quantity": "1",
            "noted": false,
            "rarity": "1/32",
            "drop_requirements": null
        },
        "3049": {
            "id": 3049,
            "name": "Grimy toadflax",
            "members": true,
            "quantity": "1",
            "noted": false,
            "rarity": "1/32",
            "drop_requirements": null
        },
        "3051": {
            "id": 3051,
            "name": "Grimy snapdragon",
            "members": true,
            "quantity": "1",
            "noted": false,
            "rarity": "1/8",
            "drop_requirements": null
        },
        "5106": {
            "id": 5106,
            "name": "Poison ivy seed",
            "members": true,
            "quantity": "1",
            "noted": false,
            "rarity": "1/32",
            "drop_requirements": null
        },
        "5280": {
            "id": 5280,
            "name": "Cactus seed",
            "members": true,
            "quantity": "1",
            "noted": false,
            "rarity": "1/32",
            "drop_requirements": null
        },
        "5281": {
            "id": 5281,
            "name": "Belladonna seed",
            "members": true,
            "quantity": "1",
            "noted": false,
            "rarity": "1/128",
            "drop_requirements": null
        },
        "5296": {
            "id": 5296,
            "name": "Toadflax seed",
            "members": true,
            "quantity": "1",
            "noted": false,
            "rarity": "1/8",
            "drop_requirements": null
        },
        "5297": {
            "id": 5297,
            "name": "Irit seed",
            "members": true,
            "quantity": "1",
            "noted": false,
            "rarity": "1/32",
            "drop_requirements": null
        },
        "5298": {
            "id": 5298,
            "name": "Avantoe seed",
            "members": true,
            "quantity": "1",
            "noted": false,
            "rarity": "1/128",
            "drop_requirements": null
        },
        "5299": {
            "id": 5299,
            "name": "Kwuarm seed",
            "members": true,
            "quantity": "1",
            "noted": false,
            "rarity": "1/128",
            "drop_requirements": null
        },
        "5300": {
            "id": 5300,
            "name": "Snapdragon seed",
            "members": true,
            "quantity": "1",
            "noted": false,
            "rarity": "1/128",
            "drop_requirements": null
        },
        "5301": {
            "id": 5301,
            "name": "Cadantine seed",
            "members": true,
            "quantity": "1",
            "noted": false,
            "rarity": "1/512",
            "drop_requirements": null
        },
        "5302": {
            "id": 5302,
            "name": "Lantadyme seed",
            "members": true,
            "quantity": "1",
            "noted": false,
            "rarity": "1/512",
            "drop_requirements": null
        },
        "5303": {
            "id": 5303,
            "name": "Dwarf weed seed",
            "members": true,
            "quantity": "1",
            "noted": false,
            "rarity": "1/512",
            "drop_requirements": null
        },
        "5304": {
            "id": 5304,
            "name": "Torstol seed",
            "members": true,
            "quantity": "1",
            "noted": false,
            "rarity": "1/128",
            "drop_requirements": null
        },
        "5321": {
            "id": 5321,
            "name": "Watermelon seed",
            "members": true,
            "quantity": "1",
            "noted": false,
            "rarity": "1/128",
            "drop_requirements": null
        }
    },
    "rare_drop_table": true
}