{
    "id": 2018,
    "name": "Lesser demon",
    "incomplete": false,
    "members": false,
    "release_date": "2001-06-11",
    "combat_level": 82,
    "size": 2,
    "hitpoints": 81,
    "max_hit": 8,
    "attack_type": [
        "slash"
    ],
    "attack_speed": 4,
    "aggressive": true,
    "poisonous": false,
    "immune_poison": false,
    "immune_venom": false,
    "weakness": [
        "magic",
        "demonbane"
    ],
    "slayer_monster": true,
    "slayer_level": 1,
    "slayer_xp": 79.0,
    "slayer_masters": [
        "krystilia",
        "vannaka",
        "chaeldar"
    ],
    "duplicate": true,
    "examine": "Lesser, but still pretty big.",
    "wiki_name": "Lesser demon (Level 82)",
    "wiki_url": "https://oldschool.runescape.wiki/w/Lesser_demon#Level_82",
    "attack_level": 68,
    "strength_level": 70,
    "defence_level": 71,
    "magic_level": 1,
    "ranged_level": 1,
    "attack_stab": 0,
    "attack_slash": 0,
    "attack_crush": 0,
    "attack_magic": 0,
    "attack_ranged": 0,
    "defence_stab": 0,
    "defence_slash": 0,
    "defence_crush": 0,
    "defence_magic": -10,
    "defence_ranged": 0,
    "attack_accuracy": 0,
    "melee_strength": 0,
    "ranged_strength": 0,
    "magic_damage": 0,
    "drops": {
        "444": {
            "id": 444,
            "name": "Gold ore",
            "members": false,
            "quantity": "5",
            "noted": true,
            "rarity": "2/128",
            "drop_requirements": null
        },
        "554": {
            "id": 554,
            "name": "Fire rune",
            "members": false,
            "quantity": "30",
            "noted": false,
            "rarity": "1/128",
            "drop_requirements": null
        },
        "560": {
            "id": 560,
            "name": "Death rune",
            "members": false,
            "quantity": "30",
            "noted": false,
            "rarity": "1/128",
            "drop_requirements": null
        },
        "562": {
            "id": 562,
            "name": "Chaos rune",
            "members": false,
            "quantity": "20",
            "noted": false,
            "rarity": "5/128",
            "drop_requirements": null
        },
        "565": {
            "id": 565,
            "name": "Blood rune",
            "members": true,
            "quantity": "10",
            "noted": false,
            "rarity": "1/128",
            "drop_requirements": null
        },
        "592": {
            "id": 592,
            "name": "Ashes",
            "members": false,
            "quantity": "1",
            "noted": false,
            "rarity": "1/1",
            "drop_requirements": null
        },
        "617": {
            "id": 617,
            "name": "Coins",
            "members": true,
            "quantity": "450-1199",
            "noted": false,
            "rarity": "1/128",
            "drop_requirements": null
        },
        "1109": {
            "id": 1109,
            "name": "Mithril chainbody",
            "members": false,
            "quantity": "1",
            "noted": false,
            "rarity": "1/128",
            "drop_requirements": null
        },
        "1111": {
            "id": 1111,
            "name": "Adamant chainbody",
            "members": false,
            "quantity": "1",
            "noted": false,
            "rarity": "1/128",
            "drop_requirements": null
        },
        "1123": {
            "id": 1123,
            "name": "Adamant platebody",
            "members": false,
            "quantity": "1",
            "noted": false,
            "rarity": "1/128",
            "drop_requirements": null
        },
        "1147": {
            "id": 1147,
            "name": "Rune med helm",
            "members": false,
            "quantity": "1",
            "noted": false,
            "rarity": "1/128",
            "drop_requirements": null
        },
        "1157": {
            "id": 1157,
            "name": "Steel full helm",
            "members": false,
            "quantity": "1",
            "noted": false,
            "rarity": "4/128",
            "drop_requirements": null
        },
        "1165": {
            "id": 1165,
            "name": "Black full helm",
            "members": false,
            "quantity": "1",
            "noted": false,
            "rarity": "4/128",
            "drop_requirements": null
        },
        "1181": {
            "id": 1181,
            "name": "Mithril sq shield",
            "members": false,
            "quantity": "1",
            "noted": false,
            "rarity": "1/128",
            "drop_requirements": null
        },
        "1211": {
            "id": 1211,
            "name": "Adamant dagger",
            "members": false,
            "quantity": "1",
            "noted": false,
            "rarity": "1/128",
            "drop_requirements": null
        },
        "1325": {
            "id": 1325,
            "name": "Steel scimitar",
            "members": false,
            "quantity": "1",
            "noted": false,
            "rarity": "3/128",
            "drop_requirements": null
        },
        "1353": {
            "id": 1353,
            "name": "Steel axe",
            "members": false,
            "quantity": "1",
            "noted": false,
            "rarity": "4/128",
            "drop_requirements": null
        },
        "1355": {
            "id": 1355,
            "name": "Mithril axe",
            "members": false,
            "quantity": "1",
            "noted": false,
            "rarity": "4/128",
            "drop_requirements": null
        },
        "1993": {
            "id": 1993,
            "name": "Jug of wine",
            "members": false,
            "quantity": "1",
            "noted": false,
            "rarity": "3/128",
            "drop_requirements": null
        },
        "6805": {
            "id": 6805,
            "name": "Lesser demon champion scroll",
            "members": true,
            "quantity": "1",
            "noted": false,
            "rarity": "1/5000",
            "drop_requirements": null
        },
        "11941": {
            "id": 11941,
            "name": "Looting bag",
            "members": true,
            "quantity": "1",
            "noted": false,
            "rarity": "1/3",
            "drop_requirements": null
        },
        "13501": {
            "id": 13501,
            "name": "Ensouled demon head",
            "members": true,
            "quantity": "1",
            "noted": false,
            "rarity": "1/50",
            "drop_requirements": null
        }
    },
    "rare_drop_table": true
}