{
    "id": 2083,
    "name": "Fire giant",
    "incomplete": false,
    "members": true,
    "release_date": "2002-05-10",
    "combat_level": 86,
    "size": 2,
    "hitpoints": 111,
    "max_hit": 11,
    "attack_type": [
        "slash"
    ],
    "attack_speed": 5,
    "aggressive": true,
    "poisonous": false,
    "immune_poison": false,
    "immune_venom": false,
    "weakness": [
        "magic"
    ],
    "slayer_monster": true,
    "slayer_level": 1,
    "slayer_xp": 111.0,
    "slayer_masters": [
        "krystilia",
        "vannaka",
        "chaeldar",
        "konar",
        "nieve",
        "duradel"
    ],
    "duplicate": true,
    "examine": "A very large elemental adversary.",
    "wiki_name": "Fire giant (Level 86)",
    "wiki_url": "https://oldschool.runescape.wiki/w/Fire_giant#Level_86",
    "attack_level": 65,
    "strength_level": 65,
    "defence_level": 65,
    "magic_level": 1,
    "ranged_level": 1,
    "attack_stab": 0,
    "attack_slash": 0,
    "attack_crush": 0,
    "attack_magic": 0,
    "attack_ranged": 0,
    "defence_stab": 0,
    "defence_slash": 3,
    "defence_crush": 2,
    "defence_magic": 0,
    "defence_ranged": 0,
    "attack_accuracy": 29,
    "melee_strength": 31,
    "ranged_strength": 0,
    "magic_damage": 0,
    "drops": {
        "117": {
            "id": 117,
            "name": "Strength potion(2)",
            "members": true,
            "quantity": "1",
            "noted": false,
            "rarity": "1/128",
            "drop_requirements": null
        },
        "379": {
            "id": 379,
            "name": "Lobster",
            "members": true,
            "quantity": "1",
            "noted": false,
            "rarity": "3/128",
            "drop_requirements": null
        },
        "532": {
            "id": 532,
            "name": "Big bones",
            "members": true,
            "quantity": "1",
            "noted": false,
            "rarity": "1/1",
            "drop_requirements": null
        },
        "554": {
            "id": 554,
            "name": "Fire rune",
            "members": true,
            "quantity": "37",
            "noted": false,
            "rarity": "1/128",
            "drop_requirements": null
        },
        "562": {
            "id": 562,
            "name": "Chaos rune",
            "members": true,
            "quantity": "5",
            "noted": false,
            "rarity": "7/128",
            "drop_requirements": null
        },
        "563": {
            "id": 563,
            "name": "Law rune",
            "members": true,
            "quantity": "2",
            "noted": false,
            "rarity": "1/128",
            "drop_requirements": null
        },
        "565": {
            "id": 565,
            "name": "Blood rune",
            "members": true,
            "quantity": "5",
            "noted": false,
            "rarity": "4/128",
            "drop_requirements": null
        },
        "617": {
            "id": 617,
            "name": "Coins",
            "members": true,
            "quantity": "50",
            "noted": false,
            "rarity": "1/128",
            "drop_requirements": null
        },
        "892": {
            "id": 892,
            "name": "Rune arrow",
            "members": true,
            "quantity": "12",
            "noted": false,
            "rarity": "5/128",
            "drop_requirements": null
        },
        "1181": {
            "id": 1181,
            "name": "Mithril sq shield",
            "members": true,
            "quantity": "1",
            "noted": false,
            "rarity": "2/128",
            "drop_requirements": null
        },
        "1333": {
            "id": 1333,
            "name": "Rune scimitar",
            "members": true,
            "quantity": "1",
            "noted": false,
            "rarity": "1/128",
            "drop_requirements": null
        },
        "1353": {
            "id": 1353,
            "name": "Steel axe",
            "members": true,
            "quantity": "1",
            "noted": false,
            "rarity": "3/128",
            "drop_requirements": null
        },
        "1393": {
            "id": 1393,
            "name": "Fire battlestaff",
            "members": true,
            "quantity": "1",
            "noted": false,
            "rarity": "1/128",
            "drop_requirements": null
        },
        "2353": {
            "id": 2353,
            "name": "Steel bar",
            "members": true,
            "quantity": "1",
            "noted": false,
            "rarity": "2/128",
            "drop_requirements": null
        },
        "6800": {
            "id": 6800,
            "name": "Giant champion scroll",
            "members": true,
            "quantity": "1",
            "noted": false,
            "rarity": "1/5000",
            "drop_requirements": null
        },
        "7872": {
            "id": 7872,
            "name": "Fire giant bone",
            "members": true,
            "quantity": "1",
            "noted": false,
            "rarity": "1/4",
            "drop_requirements": null
        },
        "10976": {
            "id": 10976,
            "name": "Long bone",
            "members": true,
            "quantity": "1",
            "noted": false,
            "rarity": "1/400",
            "drop_requirements": null
        },
        "10977": {
            "id": 10977,
            "name": "Curved bone",
            "members": true,
            "quantity": "1",
            "noted": false,
            "rarity": "1/5012.5",
            "drop_requirements": null
        },
        "11941": {
            "id": 11941,
            "name": "Looting bag",
            "members": true,
            "quantity": "1",
            "noted": false,
            "rarity": "1/3",
            "drop_requirements": null
        },
        "13474": {
            "id": 13474,
            "name": "Ensouled giant head",
            "members": true,
            "quantity": "1",
            "noted": false,
            "rarity": "1/20",
            "drop_requirements": null
        },
        "23083": {
            "id": 23083,
            "name": "Brimstone key",
            "members": true,
            "quantity": "1",
            "noted": false,
            "rarity": "1/139.2",
            "drop_requirements": null
        }
    },
    "rare_drop_table": true
}