{
    "id": 2094,
    "name": "Jogre",
    "incomplete": true,
    "members": true,
    "release_date": "2003-01-27",
    "combat_level": 53,
    "size": 2,
    "hitpoints": 60,
    "max_hit": 7,
    "attack_type": [
        "crush"
    ],
    "attack_speed": 6,
    "aggressive": true,
    "poisonous": false,
    "immune_poison": false,
    "immune_venom": false,
    "weakness": [
        "magic"
    ],
    "slayer_monster": false,
    "slayer_level": null,
    "slayer_xp": null,
    "slayer_masters": [],
    "duplicate": false,
    "examine": "An aggressive humanoid.",
    "wiki_name": "Jogre (Normal)",
    "wiki_url": "https://oldschool.runescape.wiki/w/Jogre#Normal",
    "attack_level": 43,
    "strength_level": 43,
    "defence_level": 43,
    "magic_level": 1,
    "ranged_level": 1,
    "attack_stab": 0,
    "attack_slash": 0,
    "attack_crush": 22,
    "attack_magic": 0,
    "attack_ranged": 0,
    "defence_stab": 0,
    "defence_slash": 0,
    "defence_crush": 0,
    "defence_magic": 0,
    "defence_ranged": 0,
    "attack_accuracy": 22,
    "melee_strength": 20,
    "ranged_strength": 0,
    "magic_damage": 0,
    "drops": {
        "526": {
            "id": 526,
            "name": "Bones",
            "members": true,
            "quantity": "1",
            "noted": false,
            "rarity": "2/129",
            "drop_requirements": null
        },
        "532": {
            "id": 532,
            "name": "Big bones",
            "members": true,
            "quantity": "3",
            "noted": false,
            "rarity": "2/129",
            "drop_requirements": null
        },
        "561": {
            "id": 561,
            "name": "Nature rune",
            "members": true,
            "quantity": "5",
            "noted": false,
            "rarity": "2/129",
            "drop_requirements": null
        },
        "827": {
            "id": 827,
            "name": "Steel javelin",
            "members": true,
            "quantity": "5",
            "noted": false,
            "rarity": "2/129",
            "drop_requirements": null
        },
        "946": {
            "id": 946,
            "name": "Knife",
            "members": true,
            "quantity": "1",
            "noted": false,
            "rarity": "5/129",
            "drop_requirements": null
        },
        "1237": {
            "id": 1237,
            "name": "Bronze spear",
            "members": true,
            "quantity": "1",
            "noted": false,
            "rarity": "30/129",
            "drop_requirements": null
        },
        "1239": {
            "id": 1239,
            "name": "Iron spear",
            "members": true,
            "quantity": "1",
            "noted": false,
            "rarity": "4/129",
            "drop_requirements": null
        },
        "1525": {
            "id": 1525,
            "name": "Grimy snake weed",
            "members": true,
            "quantity": "1",
            "noted": false,
            "rarity": "5/129",
            "drop_requirements": null
        },
        "1533": {
            "id": 1533,
            "name": "Grimy rogue's purse",
            "members": true,
            "quantity": "1",
            "noted": false,
            "rarity": "5/129",
            "drop_requirements": null
        },
        "2114": {
            "id": 2114,
            "name": "Pineapple",
            "members": true,
            "quantity": "2",
            "noted": false,
            "rarity": "8/129",
            "drop_requirements": null
        },
        "2801": {
            "id": 2801,
            "name": "Clue scroll (medium)",
            "members": true,
            "quantity": "1",
            "noted": false,
            "rarity": "1/129",
            "drop_requirements": null
        },
        "3125": {
            "id": 3125,
            "name": "Jogre bones",
            "members": true,
            "quantity": "1",
            "noted": false,
            "rarity": "1/1",
            "drop_requirements": null
        },
        "6306": {
            "id": 6306,
            "name": "Trading sticks",
            "members": true,
            "quantity": "22",
            "noted": false,
            "rarity": "27/129",
            "drop_requirements": null
        },
        "6804": {
            "id": 6804,
            "name": "Jogre champion scroll",
            "members": true,
            "quantity": "1",
            "noted": false,
            "rarity": "1/5000",
            "drop_requirements": null
        },
        "7845": {
            "id": 7845,
            "name": "Jogre bone",
            "members": true,
            "quantity": "1",
            "noted": false,
            "rarity": "1/4",
            "drop_requirements": null
        }
    },
    "rare_drop_table": true
}