{
    "id": 2138,
    "name": "Cyclops",
    "incomplete": false,
    "members": true,
    "release_date": "2015-02-05",
    "combat_level": 106,
    "size": 2,
    "hitpoints": 150,
    "max_hit": 8,
    "attack_type": [
        "melee"
    ],
    "attack_speed": 4,
    "aggressive": true,
    "poisonous": false,
    "immune_poison": false,
    "immune_venom": false,
    "weakness": [
        "crush"
    ],
    "slayer_monster": true,
    "slayer_level": 1,
    "slayer_xp": 150.0,
    "slayer_masters": [
        "mazchna",
        "vannaka"
    ],
    "duplicate": true,
    "examine": "A one-eyed man eater.",
    "wiki_name": "Cyclops (Level 106)",
    "wiki_url": "https://oldschool.runescape.wiki/w/Cyclops#Level_106",
    "attack_level": 95,
    "strength_level": 75,
    "defence_level": 55,
    "magic_level": 1,
    "ranged_level": 1,
    "attack_stab": 0,
    "attack_slash": 0,
    "attack_crush": 0,
    "attack_magic": 0,
    "attack_ranged": 0,
    "defence_stab": 0,
    "defence_slash": 0,
    "defence_crush": 0,
    "defence_magic": 0,
    "defence_ranged": 0,
    "attack_accuracy": 0,
    "melee_strength": 0,
    "ranged_strength": 0,
    "magic_damage": 0,
    "drops": {
        "199": {
            "id": 199,
            "name": "Grimy guam leaf",
            "members": true,
            "quantity": "1",
            "noted": false,
            "rarity": "1/8",
            "drop_requirements": null
        },
        "201": {
            "id": 201,
            "name": "Grimy marrentill",
            "members": true,
            "quantity": "1",
            "noted": false,
            "rarity": "1/8",
            "drop_requirements": null
        },
        "203": {
            "id": 203,
            "name": "Grimy tarromin",
            "members": true,
            "quantity": "1",
            "noted": false,
            "rarity": "1/8",
            "drop_requirements": null
        },
        "205": {
            "id": 205,
            "name": "Grimy harralander",
            "members": true,
            "quantity": "1",
            "noted": false,
            "rarity": "1/32",
            "drop_requirements": null
        },
        "207": {
            "id": 207,
            "name": "Grimy ranarr weed",
            "members": true,
            "quantity": "1",
            "noted": false,
            "rarity": "1/32",
            "drop_requirements": null
        },
        "209": {
            "id": 209,
            "name": "Grimy irit leaf",
            "members": true,
            "quantity": "1",
            "noted": false,
            "rarity": "1/32",
            "drop_requirements": null
        },
        "211": {
            "id": 211,
            "name": "Grimy avantoe",
            "members": true,
            "quantity": "1",
            "noted": false,
            "rarity": "1/32",
            "drop_requirements": null
        },
        "213": {
            "id": 213,
            "name": "Grimy kwuarm",
            "members": true,
            "quantity": "1",
            "noted": false,
            "rarity": "1/32",
            "drop_requirements": null
        },
        "215": {
            "id": 215,
            "name": "Grimy cadantine",
            "members": true,
            "quantity": "1",
            "noted": false,
            "rarity": "1/128",
            "drop_requirements": null
        },
        "217": {
            "id": 217,
            "name": "Grimy dwarf weed",
            "members": true,
            "quantity": "1",
            "noted": false,
            "rarity": "1/128",
            "drop_requirements": null
        },
        "225": {
            "id": 225,
            "name": "Limpwurt root",
            "members": true,
            "quantity": "1",
            "noted": false,
            "rarity": "11/128",
            "drop_requirements": null
        },
        "379": {
            "id": 379,
            "name": "Lobster",
            "members": true,
            "quantity": "1",
            "noted": false,
            "rarity": "7/100",
            "drop_requirements": null
        },
        "532": {
            "id": 532,
            "name": "Big bones",
            "members": true,
            "quantity": "1",
            "noted": false,
            "rarity": "1/1",
            "drop_requirements": null
        },
        "554": {
            "id": 554,
            "name": "Fire rune",
            "members": true,
            "quantity": "15",
            "noted": false,
            "rarity": "3/128",
            "drop_requirements": null
        },
        "555": {
            "id": 555,
            "name": "Water rune",
            "members": true,
            "quantity": "7",
            "noted": false,
            "rarity": "3/128",
            "drop_requirements": null
        },
        "558": {
            "id": 558,
            "name": "Mind rune",
            "members": true,
            "quantity": "3",
            "noted": false,
            "rarity": "2/128",
            "drop_requirements": null
        },
        "560": {
            "id": 560,
            "name": "Death rune",
            "members": true,
            "quantity": "2",
            "noted": false,
            "rarity": "1/128",
            "drop_requirements": null
        },
        "561": {
            "id": 561,
            "name": "Nature rune",
            "members": true,
            "quantity": "6",
            "noted": false,
            "rarity": "2/128",
            "drop_requirements": null
        },
        "562": {
            "id": 562,
            "name": "Chaos rune",
            "members": true,
            "quantity": "2",
            "noted": false,
            "rarity": "1/128",
            "drop_requirements": null
        },
        "563": {
            "id": 563,
            "name": "Law rune",
            "members": true,
            "quantity": "2",
            "noted": false,
            "rarity": "3/128",
            "drop_requirements": null
        },
        "564": {
            "id": 564,
            "name": "Cosmic rune",
            "members": true,
            "quantity": "2",
            "noted": false,
            "rarity": "2/128",
            "drop_requirements": null
        },
        "617": {
            "id": 617,
            "name": "Coins",
            "members": true,
            "quantity": "88",
            "noted": false,
            "rarity": "2/128",
            "drop_requirements": null
        },
        "809": {
            "id": 809,
            "name": "Mithril dart",
            "members": true,
            "quantity": "12",
            "noted": false,
            "rarity": "6/100",
            "drop_requirements": null
        },
        "869": {
            "id": 869,
            "name": "Black knife",
            "members": true,
            "quantity": "22",
            "noted": false,
            "rarity": "4/100",
            "drop_requirements": null
        },
        "884": {
            "id": 884,
            "name": "Iron arrow",
            "members": true,
            "quantity": "3",
            "noted": false,
            "rarity": "6/128",
            "drop_requirements": null
        },
        "886": {
            "id": 886,
            "name": "Steel arrow",
            "members": true,
            "quantity": "10",
            "noted": false,
            "rarity": "2/128",
            "drop_requirements": null
        },
        "1071": {
            "id": 1071,
            "name": "Mithril platelegs",
            "members": true,
            "quantity": "1",
            "noted": false,
            "rarity": "4/100",
            "drop_requirements": null
        },
        "1101": {
            "id": 1101,
            "name": "Iron chainbody",
            "members": true,
            "quantity": "1",
            "noted": false,
            "rarity": "2/100",
            "drop_requirements": null
        },
        "1105": {
            "id": 1105,
            "name": "Steel chainbody",
            "members": true,
            "quantity": "1",
            "noted": false,
            "rarity": "5/100",
            "drop_requirements": null
        },
        "1119": {
            "id": 1119,
            "name": "Steel platebody",
            "members": true,
            "quantity": "1",
            "noted": false,
            "rarity": "5/100",
            "drop_requirements": null
        },
        "1141": {
            "id": 1141,
            "name": "Steel med helm",
            "members": true,
            "quantity": "1",
            "noted": false,
            "rarity": "2/100",
            "drop_requirements": null
        },
        "1147": {
            "id": 1147,
            "name": "Rune med helm",
            "members": true,
            "quantity": "1",
            "noted": false,
            "rarity": "3/100",
            "drop_requirements": null
        },
        "1153": {
            "id": 1153,
            "name": "Iron full helm",
            "members": true,
            "quantity": "1",
            "noted": false,
            "rarity": "5/128",
            "drop_requirements": null
        },
        "1163": {
            "id": 1163,
            "name": "Rune full helm",
            "members": true,
            "quantity": "1",
            "noted": false,
            "rarity": "1/100",
            "drop_requirements": null
        },
        "1165": {
            "id": 1165,
            "name": "Black full helm",
            "members": true,
            "quantity": "1",
            "noted": false,
            "rarity": "5/100",
            "drop_requirements": null
        },
        "1183": {
            "id": 1183,
            "name": "Adamant sq shield",
            "members": true,
            "quantity": "1",
            "noted": false,
            "rarity": "1/100",
            "drop_requirements": null
        },
        "1191": {
            "id": 1191,
            "name": "Iron kiteshield",
            "members": true,
            "quantity": "1",
            "noted": false,
            "rarity": "3/128",
            "drop_requirements": null
        },
        "1197": {
            "id": 1197,
            "name": "Mithril kiteshield",
            "members": true,
            "quantity": "1",
            "noted": false,
            "rarity": "5/100",
            "drop_requirements": null
        },
        "1203": {
            "id": 1203,
            "name": "Iron dagger",
            "members": true,
            "quantity": "1",
            "noted": false,
            "rarity": "4/128",
            "drop_requirements": null
        },
        "1207": {
            "id": 1207,
            "name": "Steel dagger",
            "members": true,
            "quantity": "1",
            "noted": false,
            "rarity": "2/100",
            "drop_requirements": null
        },
        "1209": {
            "id": 1209,
            "name": "Mithril dagger",
            "members": true,
            "quantity": "1",
            "noted": false,
            "rarity": "1/100",
            "drop_requirements": null
        },
        "1211": {
            "id": 1211,
            "name": "Adamant dagger",
            "members": true,
            "quantity": "1",
            "noted": false,
            "rarity": "5/100",
            "drop_requirements": null
        },
        "1217": {
            "id": 1217,
            "name": "Black dagger",
            "members": true,
            "quantity": "1",
            "noted": false,
            "rarity": "1/32",
            "drop_requirements": null
        },
        "1281": {
            "id": 1281,
            "name": "Steel sword",
            "members": true,
            "quantity": "1",
            "noted": false,
            "rarity": "2/100",
            "drop_requirements": null
        },
        "1283": {
            "id": 1283,
            "name": "Black sword",
            "members": true,
            "quantity": "1",
            "noted": false,
            "rarity": "1/100",
            "drop_requirements": null
        },
        "1295": {
            "id": 1295,
            "name": "Steel longsword",
            "members": true,
            "quantity": "1",
            "noted": false,
            "rarity": "2/128",
            "drop_requirements": null
        },
        "1297": {
            "id": 1297,
            "name": "Black longsword",
            "members": true,
            "quantity": "1",
            "noted": false,
            "rarity": "1/100",
            "drop_requirements": null
        },
        "1299": {
            "id": 1299,
            "name": "Mithril longsword",
            "members": true,
            "quantity": "1",
            "noted": false,
            "rarity": "1/100",
            "drop_requirements": null
        },
        "1309": {
            "id": 1309,
            "name": "Iron 2h sword",
            "members": true,
            "quantity": "1",
            "noted": false,
            "rarity": "2/100",
            "drop_requirements": null
        },
        "1311": {
            "id": 1311,
            "name": "Steel 2h sword",
            "members": true,
            "quantity": "1",
            "noted": false,
            "rarity": "2/100",
            "drop_requirements": null
        },
        "1313": {
            "id": 1313,
            "name": "Black 2h sword",
            "members": true,
            "quantity": "1",
            "noted": false,
            "rarity": "1/100",
            "drop_requirements": null
        },
        "1317": {
            "id": 1317,
            "name": "Adamant 2h sword",
            "members": true,
            "quantity": "1",
            "noted": false,
            "rarity": "1/8",
            "drop_requirements": null
        },
        "1329": {
            "id": 1329,
            "name": "Mithril scimitar",
            "members": true,
            "quantity": "1",
            "noted": false,
            "rarity": "5/100",
            "drop_requirements": null
        },
        "1365": {
            "id": 1365,
            "name": "Steel battleaxe",
            "members": true,
            "quantity": "1",
            "noted": false,
            "rarity": "2/100",
            "drop_requirements": null
        },
        "1424": {
            "id": 1424,
            "name": "Steel mace",
            "members": true,
            "quantity": "1",
            "noted": false,
            "rarity": "2/100",
            "drop_requirements": null
        },
        "1426": {
            "id": 1426,
            "name": "Black mace",
            "members": true,
            "quantity": "1",
            "noted": false,
            "rarity": "5/100",
            "drop_requirements": null
        },
        "1430": {
            "id": 1430,
            "name": "Adamant mace",
            "members": true,
            "quantity": "1",
            "noted": false,
            "rarity": "1/100",
            "drop_requirements": null
        },
        "1446": {
            "id": 1446,
            "name": "Body talisman",
            "members": true,
            "quantity": "1",
            "noted": false,
            "rarity": "2/128",
            "drop_requirements": null
        },
        "1917": {
            "id": 1917,
            "name": "Beer",
            "members": true,
            "quantity": "1",
            "noted": false,
            "rarity": "6/128",
            "drop_requirements": null
        },
        "2485": {
            "id": 2485,
            "name": "Grimy lantadyme",
            "members": true,
            "quantity": "1",
            "noted": false,
            "rarity": "1/128",
            "drop_requirements": null
        },
        "2722": {
            "id": 2722,
            "name": "Clue scroll (hard)",
            "members": true,
            "quantity": "1",
            "noted": false,
            "rarity": "1/256",
            "drop_requirements": null
        },
        "5100": {
            "id": 5100,
            "name": "Limpwurt seed",
            "members": true,
            "quantity": "1",
            "noted": false,
            "rarity": "1/8",
            "drop_requirements": null
        },
        "5104": {
            "id": 5104,
            "name": "Jangerberry seed",
            "members": true,
            "quantity": "1",
            "noted": false,
            "rarity": "1/8",
            "drop_requirements": null
        },
        "5105": {
            "id": 5105,
            "name": "Whiteberry seed",
            "members": true,
            "quantity": "1",
            "noted": false,
            "rarity": "1/32",
            "drop_requirements": null
        },
        "5106": {
            "id": 5106,
            "name": "Poison ivy seed",
            "members": true,
            "quantity": "1",
            "noted": false,
            "rarity": "1/32",
            "drop_requirements": null
        },
        "5280": {
            "id": 5280,
            "name": "Cactus seed",
            "members": true,
            "quantity": "1",
            "noted": false,
            "rarity": "1/32",
            "drop_requirements": null
        },
        "5281": {
            "id": 5281,
            "name": "Belladonna seed",
            "members": true,
            "quantity": "1",
            "noted": false,
            "rarity": "1/32",
            "drop_requirements": null
        },
        "5282": {
            "id": 5282,
            "name": "Mushroom spore",
            "members": true,
            "quantity": "1",
            "noted": false,
            "rarity": "1/32",
            "drop_requirements": null
        },
        "5292": {
            "id": 5292,
            "name": "Marrentill seed",
            "members": true,
            "quantity": "1",
            "noted": false,
            "rarity": "1/8",
            "drop_requirements": null
        },
        "5293": {
            "id": 5293,
            "name": "Tarromin seed",
            "members": true,
            "quantity": "1",
            "noted": false,
            "rarity": "1/8",
            "drop_requirements": null
        },
        "5294": {
            "id": 5294,
            "name": "Harralander seed",
            "members": true,
            "quantity": "1",
            "noted": false,
            "rarity": "1/8",
            "drop_requirements": null
        },
        "5295": {
            "id": 5295,
            "name": "Ranarr seed",
            "members": true,
            "quantity": "1",
            "noted": false,
            "rarity": "1/32",
            "drop_requirements": null
        },
        "5296": {
            "id": 5296,
            "name": "Toadflax seed",
            "members": true,
            "quantity": "1",
            "noted": false,
            "rarity": "1/32",
            "drop_requirements": null
        },
        "5297": {
            "id": 5297,
            "name": "Irit seed",
            "members": true,
            "quantity": "1",
            "noted": false,
            "rarity": "1/32",
            "drop_requirements": null
        },
        "5298": {
            "id": 5298,
            "name": "Avantoe seed",
            "members": true,
            "quantity": "1",
            "noted": false,
            "rarity": "1/32",
            "drop_requirements": null
        },
        "5299": {
            "id": 5299,
            "name": "Kwuarm seed",
            "members": true,
            "quantity": "1",
            "noted": false,
            "rarity": "1/128",
            "drop_requirements": null
        },
        "5300": {
            "id": 5300,
            "name": "Snapdragon seed",
            "members": true,
            "quantity": "1",
            "noted": false,
            "rarity": "1/128",
            "drop_requirements": null
        },
        "5301": {
            "id": 5301,
            "name": "Cadantine seed",
            "members": true,
            "quantity": "1",
            "noted": false,
            "rarity": "1/128",
            "drop_requirements": null
        },
        "5302": {
            "id": 5302,
            "name": "Lantadyme seed",
            "members": true,
            "quantity": "1",
            "noted": false,
            "rarity": "1/128",
            "drop_requirements": null
        },
        "5303": {
            "id": 5303,
            "name": "Dwarf weed seed",
            "members": true,
            "quantity": "1",
            "noted": false,
            "rarity": "1/128",
            "drop_requirements": null
        },
        "5304": {
            "id": 5304,
            "name": "Torstol seed",
            "members": true,
            "quantity": "1",
            "noted": false,
            "rarity": "1/512",
            "drop_requirements": null
        },
        "5311": {
            "id": 5311,
            "name": "Wildblood seed",
            "members": true,
            "quantity": "1",
            "noted": false,
            "rarity": "1/8",
            "drop_requirements": null
        },
        "5321": {
            "id": 5321,
            "name": "Watermelon seed",
            "members": true,
            "quantity": "1",
            "noted": false,
            "rarity": "1/8",
            "drop_requirements": null
        },
        "5323": {
            "id": 5323,
            "name": "Strawberry seed",
            "members": true,
            "quantity": "1",
            "noted": false,
            "rarity": "1/8",
            "drop_requirements": null
        },
        "6800": {
            "id": 6800,
            "name": "Giant champion scroll",
            "members": true,
            "quantity": "1",
            "noted": false,
            "rarity": "1/5000",
            "drop_requirements": null
        },
        "8844": {
            "id": 8844,
            "name": "Bronze defender",
            "members": true,
            "quantity": "1",
            "noted": false,
            "rarity": "2/100",
            "drop_requirements": null
        },
        "8845": {
            "id": 8845,
            "name": "Iron defender",
            "members": true,
            "quantity": "1",
            "noted": false,
            "rarity": "2/100",
            "drop_requirements": null
        },
        "8846": {
            "id": 8846,
            "name": "Steel defender",
            "members": true,
            "quantity": "1",
            "noted": false,
            "rarity": "2/100",
            "drop_requirements": null
        },
        "8847": {
            "id": 8847,
            "name": "Black defender",
            "members": true,
            "quantity": "1",
            "noted": false,
            "rarity": "2/100",
            "drop_requirements": null
        },
        "8848": {
            "id": 8848,
            "name": "Mithril defender",
            "members": true,
            "quantity": "1",
            "noted": false,
            "rarity": "2/100",
            "drop_requirements": null
        },
        "8849": {
            "id": 8849,
            "name": "Adamant defender",
            "members": true,
            "quantity": "1",
            "noted": false,
            "rarity": "2/100",
            "drop_requirements": null
        },
        "8850": {
            "id": 8850,
            "name": "Rune defender",
            "members": true,
            "quantity": "1",
            "noted": false,
            "rarity": "2/100",
            "drop_requirements": null
        },
        "10976": {
            "id": 10976,
            "name": "Long bone",
            "members": true,
            "quantity": "1",
            "noted": false,
            "rarity": "1/400",
            "drop_requirements": null
        },
        "10977": {
            "id": 10977,
            "name": "Curved bone",
            "members": true,
            "quantity": "1",
            "noted": false,
            "rarity": "1/5012.5",
            "drop_requirements": null
        },
        "11941": {
            "id": 11941,
            "name": "Looting bag",
            "members": true,
            "quantity": "1",
            "noted": false,
            "rarity": "1/3",
            "drop_requirements": null
        },
        "11942": {
            "id": 11942,
            "name": "Ecumenical key",
            "members": true,
            "quantity": "1",
            "noted": false,
            "rarity": "1/60",
            "drop_requirements": null
        },
        "12954": {
            "id": 12954,
            "name": "Dragon defender",
            "members": true,
            "quantity": "1",
            "noted": false,
            "rarity": "1/100",
            "drop_requirements": null
        },
        "13474": {
            "id": 13474,
            "name": "Ensouled giant head",
            "members": true,
            "quantity": "1",
            "noted": false,
            "rarity": "1/25",
            "drop_requirements": null
        },
        "20754": {
            "id": 20754,
            "name": "Giant key",
            "members": true,
            "quantity": "1",
            "noted": false,
            "rarity": "1/128",
            "drop_requirements": null
        },
        "22873": {
            "id": 22873,
            "name": "Potato cactus seed",
            "members": true,
            "quantity": "1",
            "noted": false,
            "rarity": "1/128",
            "drop_requirements": null
        },
        "22879": {
            "id": 22879,
            "name": "Snape grass seed",
            "members": true,
            "quantity": "1",
            "noted": false,
            "rarity": "1/32",
            "drop_requirements": null
        },
        "23182": {
            "id": 23182,
            "name": "Clue scroll (beginner)",
            "members": true,
            "quantity": "1",
            "noted": false,
            "rarity": "1/50",
            "drop_requirements": null
        }
    },
    "rare_drop_table": true
}