{
    "id": 2155,
    "name": "TzHaar-Mej",
    "incomplete": false,
    "members": true,
    "release_date": "2005-09-19",
    "combat_level": 103,
    "size": 1,
    "hitpoints": 100,
    "max_hit": 13,
    "attack_type": [
        "crush",
        "magic"
    ],
    "attack_speed": 5,
    "aggressive": false,
    "poisonous": false,
    "immune_poison": false,
    "immune_venom": false,
    "weakness": [
        "melee",
        "ranged"
    ],
    "slayer_monster": true,
    "slayer_level": 1,
    "slayer_xp": 100.0,
    "slayer_masters": [
        "chaeldar",
        "nieve",
        "duradel"
    ],
    "duplicate": true,
    "examine": "Looks like some kind of mystic.",
    "wiki_name": "TzHaar-Mej (monster)",
    "wiki_url": "https://oldschool.runescape.wiki/w/TzHaar-Mej_(monster)",
    "attack_level": 80,
    "strength_level": 80,
    "defence_level": 80,
    "magic_level": 120,
    "ranged_level": 1,
    "attack_stab": 0,
    "attack_slash": 0,
    "attack_crush": 0,
    "attack_magic": 0,
    "attack_ranged": 0,
    "defence_stab": 0,
    "defence_slash": 0,
    "defence_crush": 0,
    "defence_magic": 0,
    "defence_ranged": 0,
    "attack_accuracy": 0,
    "melee_strength": 0,
    "ranged_strength": 0,
    "magic_damage": 0,
    "drops": {
        "554": {
            "id": 554,
            "name": "Fire rune",
            "members": true,
            "quantity": "25",
            "noted": false,
            "rarity": "1/8",
            "drop_requirements": null
        },
        "555": {
            "id": 555,
            "name": "Water rune",
            "members": true,
            "quantity": "25",
            "noted": false,
            "rarity": "1/32",
            "drop_requirements": null
        },
        "556": {
            "id": 556,
            "name": "Air rune",
            "members": true,
            "quantity": "25",
            "noted": false,
            "rarity": "1/32",
            "drop_requirements": null
        },
        "557": {
            "id": 557,
            "name": "Earth rune",
            "members": true,
            "quantity": "25",
            "noted": false,
            "rarity": "1/8",
            "drop_requirements": null
        },
        "560": {
            "id": 560,
            "name": "Death rune",
            "members": true,
            "quantity": "2",
            "noted": false,
            "rarity": "1/128",
            "drop_requirements": null
        },
        "561": {
            "id": 561,
            "name": "Nature rune",
            "members": true,
            "quantity": "2",
            "noted": false,
            "rarity": "1/32",
            "drop_requirements": null
        },
        "562": {
            "id": 562,
            "name": "Chaos rune",
            "members": true,
            "quantity": "5",
            "noted": false,
            "rarity": "1/32",
            "drop_requirements": null
        },
        "563": {
            "id": 563,
            "name": "Law rune",
            "members": true,
            "quantity": "2",
            "noted": false,
            "rarity": "1/32",
            "drop_requirements": null
        },
        "565": {
            "id": 565,
            "name": "Blood rune",
            "members": true,
            "quantity": "2",
            "noted": false,
            "rarity": "1/128",
            "drop_requirements": null
        },
        "6526": {
            "id": 6526,
            "name": "Toktz-mej-tal",
            "members": true,
            "quantity": "1",
            "noted": false,
            "rarity": "1/4096",
            "drop_requirements": null
        },
        "6529": {
            "id": 6529,
            "name": "Tokkul",
            "members": true,
            "quantity": "1-71",
            "noted": false,
            "rarity": "1/8",
            "drop_requirements": null
        },
        "6568": {
            "id": 6568,
            "name": "Obsidian cape",
            "members": true,
            "quantity": "1",
            "noted": false,
            "rarity": "1/4096",
            "drop_requirements": null
        }
    },
    "rare_drop_table": false
}