{
    "id": 2174,
    "name": "TzHaar-Ket",
    "incomplete": false,
    "members": true,
    "release_date": "2005-09-19",
    "combat_level": 149,
    "size": 1,
    "hitpoints": 140,
    "max_hit": 15,
    "attack_type": [
        "crush"
    ],
    "attack_speed": 4,
    "aggressive": false,
    "poisonous": false,
    "immune_poison": false,
    "immune_venom": false,
    "weakness": [
        "magic"
    ],
    "slayer_monster": true,
    "slayer_level": 1,
    "slayer_xp": 140.0,
    "slayer_masters": [
        "chaeldar",
        "nieve",
        "duradel"
    ],
    "duplicate": true,
    "examine": "Must be a guard or something.",
    "wiki_name": "TzHaar-Ket (Lv 149)",
    "wiki_url": "https://oldschool.runescape.wiki/w/TzHaar-Ket#Lv_149",
    "attack_level": 120,
    "strength_level": 140,
    "defence_level": 120,
    "magic_level": 40,
    "ranged_level": 1,
    "attack_stab": 0,
    "attack_slash": 0,
    "attack_crush": 0,
    "attack_magic": 0,
    "attack_ranged": 0,
    "defence_stab": 0,
    "defence_slash": 0,
    "defence_crush": 0,
    "defence_magic": 0,
    "defence_ranged": 0,
    "attack_accuracy": 0,
    "melee_strength": 0,
    "ranged_strength": 0,
    "magic_damage": 0,
    "drops": {
        "1617": {
            "id": 1617,
            "name": "Uncut diamond",
            "members": true,
            "quantity": "1",
            "noted": false,
            "rarity": "1/128",
            "drop_requirements": null
        },
        "1619": {
            "id": 1619,
            "name": "Uncut ruby",
            "members": true,
            "quantity": "1",
            "noted": false,
            "rarity": "1/32",
            "drop_requirements": null
        },
        "1621": {
            "id": 1621,
            "name": "Uncut emerald",
            "members": true,
            "quantity": "1",
            "noted": false,
            "rarity": "1/32",
            "drop_requirements": null
        },
        "1623": {
            "id": 1623,
            "name": "Uncut sapphire",
            "members": true,
            "quantity": "1",
            "noted": false,
            "rarity": "1/32",
            "drop_requirements": null
        },
        "6524": {
            "id": 6524,
            "name": "Toktz-ket-xil",
            "members": true,
            "quantity": "1",
            "noted": false,
            "rarity": "1/512",
            "drop_requirements": null
        },
        "6528": {
            "id": 6528,
            "name": "Tzhaar-ket-om",
            "members": true,
            "quantity": "1",
            "noted": false,
            "rarity": "1/512",
            "drop_requirements": null
        },
        "6529": {
            "id": 6529,
            "name": "Tokkul",
            "members": true,
            "quantity": "1-103",
            "noted": false,
            "rarity": "1/8",
            "drop_requirements": null
        },
        "6568": {
            "id": 6568,
            "name": "Obsidian cape",
            "members": true,
            "quantity": "1",
            "noted": false,
            "rarity": "1/512",
            "drop_requirements": null
        },
        "9194": {
            "id": 9194,
            "name": "Onyx bolt tips",
            "members": true,
            "quantity": "1-4,20",
            "noted": false,
            "rarity": "1/128",
            "drop_requirements": null
        },
        "13498": {
            "id": 13498,
            "name": "Ensouled tzhaar head",
            "members": true,
            "quantity": "1",
            "noted": false,
            "rarity": "1/35",
            "drop_requirements": null
        },
        "21298": {
            "id": 21298,
            "name": "Obsidian helmet",
            "members": true,
            "quantity": "1",
            "noted": false,
            "rarity": "1/2000",
            "drop_requirements": null
        },
        "21301": {
            "id": 21301,
            "name": "Obsidian platebody",
            "members": true,
            "quantity": "1",
            "noted": false,
            "rarity": "1/2000",
            "drop_requirements": null
        },
        "21304": {
            "id": 21304,
            "name": "Obsidian platelegs",
            "members": true,
            "quantity": "1",
            "noted": false,
            "rarity": "1/2000",
            "drop_requirements": null
        }
    },
    "rare_drop_table": false
}