{
    "id": 2240,
    "name": "Ork",
    "incomplete": true,
    "members": true,
    "release_date": "2013-10-17",
    "combat_level": 107,
    "size": 1,
    "hitpoints": 110,
    "max_hit": 12,
    "attack_type": [
        "melee"
    ],
    "attack_speed": 5,
    "aggressive": true,
    "poisonous": false,
    "immune_poison": false,
    "immune_venom": false,
    "weakness": [
        "stab"
    ],
    "slayer_monster": false,
    "slayer_level": null,
    "slayer_xp": null,
    "slayer_masters": [],
    "duplicate": true,
    "examine": "Ugly, fierce, and with a bad attitude.",
    "wiki_name": "Ork",
    "wiki_url": "https://oldschool.runescape.wiki/w/Ork",
    "attack_level": 100,
    "strength_level": 100,
    "defence_level": 60,
    "magic_level": 1,
    "ranged_level": 1,
    "attack_stab": 0,
    "attack_slash": 0,
    "attack_crush": 0,
    "attack_magic": 0,
    "attack_ranged": 0,
    "defence_stab": 12,
    "defence_slash": 14,
    "defence_crush": 13,
    "defence_magic": 5,
    "defence_ranged": 13,
    "attack_accuracy": 19,
    "melee_strength": 4,
    "ranged_strength": 0,
    "magic_damage": 0,
    "drops": {
        "526": {
            "id": 526,
            "name": "Bones",
            "members": true,
            "quantity": "1",
            "noted": false,
            "rarity": "1/1",
            "drop_requirements": null
        },
        "617": {
            "id": 617,
            "name": "Coins",
            "members": true,
            "quantity": "23",
            "noted": false,
            "rarity": "5/128",
            "drop_requirements": null
        },
        "806": {
            "id": 806,
            "name": "Bronze dart",
            "members": true,
            "quantity": "2",
            "noted": false,
            "rarity": "5/128",
            "drop_requirements": null
        },
        "807": {
            "id": 807,
            "name": "Iron dart",
            "members": true,
            "quantity": "2",
            "noted": false,
            "rarity": "5/128",
            "drop_requirements": null
        },
        "946": {
            "id": 946,
            "name": "Knife",
            "members": true,
            "quantity": "1",
            "noted": false,
            "rarity": "5/128",
            "drop_requirements": null
        },
        "1075": {
            "id": 1075,
            "name": "Bronze platelegs",
            "members": true,
            "quantity": "1",
            "noted": false,
            "rarity": "5/128",
            "drop_requirements": null
        },
        "1101": {
            "id": 1101,
            "name": "Iron chainbody",
            "members": true,
            "quantity": "1",
            "noted": false,
            "rarity": "5/128",
            "drop_requirements": null
        },
        "1139": {
            "id": 1139,
            "name": "Bronze med helm",
            "members": true,
            "quantity": "1",
            "noted": false,
            "rarity": "5/128",
            "drop_requirements": null
        },
        "1141": {
            "id": 1141,
            "name": "Steel med helm",
            "members": true,
            "quantity": "1",
            "noted": false,
            "rarity": "5/128",
            "drop_requirements": null
        },
        "1155": {
            "id": 1155,
            "name": "Bronze full helm",
            "members": true,
            "quantity": "1",
            "noted": false,
            "rarity": "5/128",
            "drop_requirements": null
        },
        "1207": {
            "id": 1207,
            "name": "Steel dagger",
            "members": true,
            "quantity": "1",
            "noted": false,
            "rarity": "5/128",
            "drop_requirements": null
        },
        "1239": {
            "id": 1239,
            "name": "Iron spear",
            "members": true,
            "quantity": "1",
            "noted": false,
            "rarity": "4/128",
            "drop_requirements": null
        },
        "1293": {
            "id": 1293,
            "name": "Iron longsword",
            "members": true,
            "quantity": "1",
            "noted": false,
            "rarity": "5/128",
            "drop_requirements": null
        },
        "1307": {
            "id": 1307,
            "name": "Bronze 2h sword",
            "members": true,
            "quantity": "1",
            "noted": false,
            "rarity": "5/128",
            "drop_requirements": null
        },
        "1321": {
            "id": 1321,
            "name": "Bronze scimitar",
            "members": true,
            "quantity": "1",
            "noted": false,
            "rarity": "1/128",
            "drop_requirements": null
        },
        "1323": {
            "id": 1323,
            "name": "Iron scimitar",
            "members": true,
            "quantity": "1",
            "noted": false,
            "rarity": "5/128",
            "drop_requirements": null
        },
        "1337": {
            "id": 1337,
            "name": "Bronze warhammer",
            "members": true,
            "quantity": "1",
            "noted": false,
            "rarity": "5/128",
            "drop_requirements": null
        },
        "1353": {
            "id": 1353,
            "name": "Steel axe",
            "members": true,
            "quantity": "1",
            "noted": false,
            "rarity": "5/128",
            "drop_requirements": null
        },
        "1375": {
            "id": 1375,
            "name": "Bronze battleaxe",
            "members": true,
            "quantity": "1",
            "noted": false,
            "rarity": "5/128",
            "drop_requirements": null
        },
        "1420": {
            "id": 1420,
            "name": "Iron mace",
            "members": true,
            "quantity": "1",
            "noted": false,
            "rarity": "5/128",
            "drop_requirements": null
        },
        "1424": {
            "id": 1424,
            "name": "Steel mace",
            "members": true,
            "quantity": "1",
            "noted": false,
            "rarity": "5/128",
            "drop_requirements": null
        },
        "2677": {
            "id": 2677,
            "name": "Clue scroll (easy)",
            "members": true,
            "quantity": "1",
            "noted": false,
            "rarity": "1/128",
            "drop_requirements": null
        },
        "2722": {
            "id": 2722,
            "name": "Clue scroll (hard)",
            "members": true,
            "quantity": "1",
            "noted": false,
            "rarity": "1/128",
            "drop_requirements": null
        },
        "3190": {
            "id": 3190,
            "name": "Bronze halberd",
            "members": true,
            "quantity": "1",
            "noted": false,
            "rarity": "5/128",
            "drop_requirements": null
        },
        "11941": {
            "id": 11941,
            "name": "Looting bag",
            "members": true,
            "quantity": "1",
            "noted": false,
            "rarity": "1/3",
            "drop_requirements": null
        },
        "11942": {
            "id": 11942,
            "name": "Ecumenical key",
            "members": true,
            "quantity": "1",
            "noted": false,
            "rarity": "1/60",
            "drop_requirements": null
        }
    },
    "rare_drop_table": false
}