{
    "id": 2455,
    "name": "Animated Adamant Armour",
    "incomplete": true,
    "members": true,
    "release_date": "2006-06-12",
    "combat_level": 113,
    "size": 1,
    "hitpoints": 99,
    "max_hit": 12,
    "attack_type": [
        "crush"
    ],
    "attack_speed": 4,
    "aggressive": true,
    "poisonous": false,
    "immune_poison": false,
    "immune_venom": true,
    "weakness": [
        "crush"
    ],
    "slayer_monster": false,
    "slayer_level": null,
    "slayer_xp": null,
    "slayer_masters": [],
    "duplicate": false,
    "examine": "Animated adamant armour.",
    "wiki_name": "Animated Adamant Armour",
    "wiki_url": "https://oldschool.runescape.wiki/w/Animated_Adamant_Armour",
    "attack_level": 99,
    "strength_level": 99,
    "defence_level": 99,
    "magic_level": 1,
    "ranged_level": 1,
    "attack_stab": 0,
    "attack_slash": 0,
    "attack_crush": 0,
    "attack_magic": 0,
    "attack_ranged": 0,
    "defence_stab": 50,
    "defence_slash": 25,
    "defence_crush": 19,
    "defence_magic": 400,
    "defence_ranged": 400,
    "attack_accuracy": 4,
    "melee_strength": 5,
    "ranged_strength": 0,
    "magic_damage": 0,
    "drops": {
        "1073": {
            "id": 1073,
            "name": "Adamant platelegs",
            "members": true,
            "quantity": "1",
            "noted": false,
            "rarity": "1/1",
            "drop_requirements": null
        },
        "1123": {
            "id": 1123,
            "name": "Adamant platebody",
            "members": true,
            "quantity": "1",
            "noted": false,
            "rarity": "1/1",
            "drop_requirements": null
        },
        "1161": {
            "id": 1161,
            "name": "Adamant full helm",
            "members": true,
            "quantity": "1",
            "noted": false,
            "rarity": "1/1",
            "drop_requirements": null
        },
        "8851": {
            "id": 8851,
            "name": "Warrior guild token",
            "members": true,
            "quantity": "30",
            "noted": false,
            "rarity": "1/1",
            "drop_requirements": null
        }
    },
    "rare_drop_table": false
}