{
    "id": 2474,
    "name": "Catablepon",
    "incomplete": false,
    "members": false,
    "release_date": "2006-07-04",
    "combat_level": 49,
    "size": 2,
    "hitpoints": 40,
    "max_hit": 7,
    "attack_type": [
        "stab"
    ],
    "attack_speed": 4,
    "aggressive": true,
    "poisonous": false,
    "immune_poison": false,
    "immune_venom": false,
    "weakness": [
        "crush"
    ],
    "slayer_monster": true,
    "slayer_level": 1,
    "slayer_xp": 40.0,
    "slayer_masters": [
        "mazchna"
    ],
    "duplicate": false,
    "examine": "Big... Cow-like... But cows don't have serpent tails!",
    "wiki_name": "Catablepon (Level 49)",
    "wiki_url": "https://oldschool.runescape.wiki/w/Catablepon#Level_49",
    "attack_level": 45,
    "strength_level": 40,
    "defence_level": 40,
    "magic_level": 60,
    "ranged_level": 1,
    "attack_stab": 0,
    "attack_slash": 0,
    "attack_crush": 0,
    "attack_magic": 0,
    "attack_ranged": 0,
    "defence_stab": 40,
    "defence_slash": 30,
    "defence_crush": 20,
    "defence_magic": 20,
    "defence_ranged": 40,
    "attack_accuracy": 0,
    "melee_strength": 0,
    "ranged_strength": 0,
    "magic_damage": 0,
    "drops": {
        "199": {
            "id": 199,
            "name": "Grimy guam leaf",
            "members": true,
            "quantity": "1",
            "noted": false,
            "rarity": "1/32",
            "drop_requirements": null
        },
        "201": {
            "id": 201,
            "name": "Grimy marrentill",
            "members": true,
            "quantity": "1",
            "noted": false,
            "rarity": "1/32",
            "drop_requirements": null
        },
        "203": {
            "id": 203,
            "name": "Grimy tarromin",
            "members": true,
            "quantity": "1",
            "noted": false,
            "rarity": "1/32",
            "drop_requirements": null
        },
        "205": {
            "id": 205,
            "name": "Grimy harralander",
            "members": true,
            "quantity": "1",
            "noted": false,
            "rarity": "1/128",
            "drop_requirements": null
        },
        "207": {
            "id": 207,
            "name": "Grimy ranarr weed",
            "members": true,
            "quantity": "1",
            "noted": false,
            "rarity": "1/128",
            "drop_requirements": null
        },
        "209": {
            "id": 209,
            "name": "Grimy irit leaf",
            "members": true,
            "quantity": "1",
            "noted": false,
            "rarity": "1/128",
            "drop_requirements": null
        },
        "211": {
            "id": 211,
            "name": "Grimy avantoe",
            "members": true,
            "quantity": "1",
            "noted": false,
            "rarity": "1/128",
            "drop_requirements": null
        },
        "213": {
            "id": 213,
            "name": "Grimy kwuarm",
            "members": true,
            "quantity": "1",
            "noted": false,
            "rarity": "1/128",
            "drop_requirements": null
        },
        "215": {
            "id": 215,
            "name": "Grimy cadantine",
            "members": true,
            "quantity": "1",
            "noted": false,
            "rarity": "1/128",
            "drop_requirements": null
        },
        "217": {
            "id": 217,
            "name": "Grimy dwarf weed",
            "members": true,
            "quantity": "1",
            "noted": false,
            "rarity": "1/128",
            "drop_requirements": null
        },
        "221": {
            "id": 221,
            "name": "Eye of newt",
            "members": false,
            "quantity": "1",
            "noted": false,
            "rarity": "1/32",
            "drop_requirements": null
        },
        "333": {
            "id": 333,
            "name": "Trout",
            "members": false,
            "quantity": "1",
            "noted": false,
            "rarity": "1/32",
            "drop_requirements": null
        },
        "453": {
            "id": 453,
            "name": "Coal",
            "members": false,
            "quantity": "3-7",
            "noted": true,
            "rarity": "1/32",
            "drop_requirements": null
        },
        "526": {
            "id": 526,
            "name": "Bones",
            "members": false,
            "quantity": "1",
            "noted": false,
            "rarity": "1/1",
            "drop_requirements": null
        },
        "554": {
            "id": 554,
            "name": "Fire rune",
            "members": false,
            "quantity": "2-15",
            "noted": false,
            "rarity": "1/8",
            "drop_requirements": null
        },
        "555": {
            "id": 555,
            "name": "Water rune",
            "members": false,
            "quantity": "7",
            "noted": false,
            "rarity": "1/32",
            "drop_requirements": null
        },
        "562": {
            "id": 562,
            "name": "Chaos rune",
            "members": false,
            "quantity": "7",
            "noted": false,
            "rarity": "1/32",
            "drop_requirements": null
        },
        "563": {
            "id": 563,
            "name": "Law rune",
            "members": false,
            "quantity": "2",
            "noted": false,
            "rarity": "1/32",
            "drop_requirements": null
        },
        "564": {
            "id": 564,
            "name": "Cosmic rune",
            "members": false,
            "quantity": "2",
            "noted": false,
            "rarity": "1/32",
            "drop_requirements": null
        },
        "596": {
            "id": 596,
            "name": "Unlit torch",
            "members": true,
            "quantity": "1",
            "noted": false,
            "rarity": "1/32",
            "drop_requirements": null
        },
        "617": {
            "id": 617,
            "name": "Coins",
            "members": true,
            "quantity": "15,30,44,100",
            "noted": false,
            "rarity": "1/8",
            "drop_requirements": null
        },
        "888": {
            "id": 888,
            "name": "Mithril arrow",
            "members": false,
            "quantity": "5-14",
            "noted": false,
            "rarity": "1/128",
            "drop_requirements": null
        },
        "1145": {
            "id": 1145,
            "name": "Adamant med helm",
            "members": false,
            "quantity": "1",
            "noted": false,
            "rarity": "1/128",
            "drop_requirements": null
        },
        "1617": {
            "id": 1617,
            "name": "Uncut diamond",
            "members": false,
            "quantity": "1",
            "noted": false,
            "rarity": "1/128",
            "drop_requirements": null
        },
        "1779": {
            "id": 1779,
            "name": "Flax",
            "members": true,
            "quantity": "16",
            "noted": true,
            "rarity": null,
            "drop_requirements": null
        },
        "2485": {
            "id": 2485,
            "name": "Grimy lantadyme",
            "members": true,
            "quantity": "1",
            "noted": false,
            "rarity": "1/128",
            "drop_requirements": null
        },
        "2801": {
            "id": 2801,
            "name": "Clue scroll (medium)",
            "members": true,
            "quantity": "1",
            "noted": false,
            "rarity": "1/101",
            "drop_requirements": null
        },
        "5318": {
            "id": 5318,
            "name": "Potato seed",
            "members": true,
            "quantity": "4",
            "noted": false,
            "rarity": "1/32",
            "drop_requirements": null
        },
        "5319": {
            "id": 5319,
            "name": "Onion seed",
            "members": true,
            "quantity": "1",
            "noted": false,
            "rarity": null,
            "drop_requirements": null
        },
        "7936": {
            "id": 7936,
            "name": "Pure essence",
            "members": false,
            "quantity": "15",
            "noted": true,
            "rarity": "1/32",
            "drop_requirements": null
        },
        "9010": {
            "id": 9010,
            "name": "Top of sceptre",
            "members": false,
            "quantity": "1",
            "noted": false,
            "rarity": "3/101",
            "drop_requirements": null
        }
    },
    "rare_drop_table": true
}