{
    "id": 2523,
    "name": "Skeleton",
    "incomplete": false,
    "members": false,
    "release_date": "2006-07-04",
    "combat_level": 60,
    "size": 1,
    "hitpoints": 70,
    "max_hit": 6,
    "attack_type": [
        "melee"
    ],
    "attack_speed": 4,
    "aggressive": true,
    "poisonous": false,
    "immune_poison": false,
    "immune_venom": false,
    "weakness": [
        "crumble undead"
    ],
    "slayer_monster": true,
    "slayer_level": 1,
    "slayer_xp": 70.0,
    "slayer_masters": [
        "turael",
        "krystilia",
        "mazchna"
    ],
    "duplicate": true,
    "examine": "Could do with gaining a few pounds.",
    "wiki_name": "Skeleton (Level 60)",
    "wiki_url": "https://oldschool.runescape.wiki/w/Skeleton#Level_60",
    "attack_level": 50,
    "strength_level": 50,
    "defence_level": 40,
    "magic_level": 1,
    "ranged_level": 1,
    "attack_stab": 0,
    "attack_slash": 0,
    "attack_crush": 0,
    "attack_magic": 0,
    "attack_ranged": 0,
    "defence_stab": 35,
    "defence_slash": 35,
    "defence_crush": -5,
    "defence_magic": 0,
    "defence_ranged": 35,
    "attack_accuracy": 0,
    "melee_strength": 0,
    "ranged_strength": 0,
    "magic_damage": 0,
    "drops": {
        "175": {
            "id": 175,
            "name": "Antipoison(3)",
            "members": false,
            "quantity": "1",
            "noted": false,
            "rarity": null,
            "drop_requirements": null
        },
        "199": {
            "id": 199,
            "name": "Grimy guam leaf",
            "members": true,
            "quantity": "1",
            "noted": false,
            "rarity": "1/8",
            "drop_requirements": null
        },
        "201": {
            "id": 201,
            "name": "Grimy marrentill",
            "members": true,
            "quantity": "1",
            "noted": false,
            "rarity": "1/8",
            "drop_requirements": null
        },
        "203": {
            "id": 203,
            "name": "Grimy tarromin",
            "members": true,
            "quantity": "1",
            "noted": false,
            "rarity": "1/8",
            "drop_requirements": null
        },
        "205": {
            "id": 205,
            "name": "Grimy harralander",
            "members": true,
            "quantity": "1",
            "noted": false,
            "rarity": "1/8",
            "drop_requirements": null
        },
        "207": {
            "id": 207,
            "name": "Grimy ranarr weed",
            "members": true,
            "quantity": "1",
            "noted": false,
            "rarity": "1/32",
            "drop_requirements": null
        },
        "209": {
            "id": 209,
            "name": "Grimy irit leaf",
            "members": true,
            "quantity": "1",
            "noted": false,
            "rarity": "1/32",
            "drop_requirements": null
        },
        "211": {
            "id": 211,
            "name": "Grimy avantoe",
            "members": true,
            "quantity": "1",
            "noted": false,
            "rarity": "1/32",
            "drop_requirements": null
        },
        "213": {
            "id": 213,
            "name": "Grimy kwuarm",
            "members": true,
            "quantity": "1",
            "noted": false,
            "rarity": "1/32",
            "drop_requirements": null
        },
        "215": {
            "id": 215,
            "name": "Grimy cadantine",
            "members": true,
            "quantity": "1",
            "noted": false,
            "rarity": "1/128",
            "drop_requirements": null
        },
        "217": {
            "id": 217,
            "name": "Grimy dwarf weed",
            "members": true,
            "quantity": "1",
            "noted": false,
            "rarity": "1/128",
            "drop_requirements": null
        },
        "440": {
            "id": 440,
            "name": "Iron ore",
            "members": false,
            "quantity": "1",
            "noted": false,
            "rarity": "1/128",
            "drop_requirements": null
        },
        "526": {
            "id": 526,
            "name": "Bones",
            "members": false,
            "quantity": "1",
            "noted": false,
            "rarity": "1/1",
            "drop_requirements": null
        },
        "554": {
            "id": 554,
            "name": "Fire rune",
            "members": false,
            "quantity": "2",
            "noted": false,
            "rarity": "1/128",
            "drop_requirements": null
        },
        "555": {
            "id": 555,
            "name": "Water rune",
            "members": false,
            "quantity": "9",
            "noted": false,
            "rarity": "1/32",
            "drop_requirements": null
        },
        "556": {
            "id": 556,
            "name": "Air rune",
            "members": false,
            "quantity": "15",
            "noted": false,
            "rarity": "1/32",
            "drop_requirements": null
        },
        "557": {
            "id": 557,
            "name": "Earth rune",
            "members": false,
            "quantity": "3",
            "noted": false,
            "rarity": "1/32",
            "drop_requirements": null
        },
        "561": {
            "id": 561,
            "name": "Nature rune",
            "members": false,
            "quantity": "3",
            "noted": false,
            "rarity": "1/128",
            "drop_requirements": null
        },
        "562": {
            "id": 562,
            "name": "Chaos rune",
            "members": false,
            "quantity": "5",
            "noted": false,
            "rarity": "1/32",
            "drop_requirements": null
        },
        "563": {
            "id": 563,
            "name": "Law rune",
            "members": false,
            "quantity": "2",
            "noted": false,
            "rarity": "1/128",
            "drop_requirements": null
        },
        "564": {
            "id": 564,
            "name": "Cosmic rune",
            "members": false,
            "quantity": "2",
            "noted": false,
            "rarity": "1/128",
            "drop_requirements": null
        },
        "617": {
            "id": 617,
            "name": "Coins",
            "members": true,
            "quantity": "5,10,25,45,65,75",
            "noted": false,
            "rarity": "1/8",
            "drop_requirements": null
        },
        "882": {
            "id": 882,
            "name": "Bronze arrow",
            "members": false,
            "quantity": "2,5",
            "noted": false,
            "rarity": "1/8",
            "drop_requirements": null
        },
        "884": {
            "id": 884,
            "name": "Iron arrow",
            "members": false,
            "quantity": "12",
            "noted": false,
            "rarity": "1/128",
            "drop_requirements": null
        },
        "886": {
            "id": 886,
            "name": "Steel arrow",
            "members": false,
            "quantity": "1",
            "noted": false,
            "rarity": "1/128",
            "drop_requirements": null
        },
        "1137": {
            "id": 1137,
            "name": "Iron med helm",
            "members": false,
            "quantity": "1",
            "noted": false,
            "rarity": "1/32",
            "drop_requirements": null
        },
        "1203": {
            "id": 1203,
            "name": "Iron dagger",
            "members": false,
            "quantity": "1",
            "noted": false,
            "rarity": "1/32",
            "drop_requirements": null
        },
        "1279": {
            "id": 1279,
            "name": "Iron sword",
            "members": false,
            "quantity": "1",
            "noted": false,
            "rarity": "1/32",
            "drop_requirements": null
        },
        "1323": {
            "id": 1323,
            "name": "Iron scimitar",
            "members": false,
            "quantity": "1",
            "noted": false,
            "rarity": "1/128",
            "drop_requirements": null
        },
        "1349": {
            "id": 1349,
            "name": "Iron axe",
            "members": false,
            "quantity": "1",
            "noted": false,
            "rarity": "1/32",
            "drop_requirements": null
        },
        "1442": {
            "id": 1442,
            "name": "Fire talisman",
            "members": false,
            "quantity": "1",
            "noted": false,
            "rarity": "1/32",
            "drop_requirements": null
        },
        "1947": {
            "id": 1947,
            "name": "Grain",
            "members": false,
            "quantity": "1",
            "noted": false,
            "rarity": "1/128",
            "drop_requirements": null
        },
        "2349": {
            "id": 2349,
            "name": "Bronze bar",
            "members": false,
            "quantity": "1",
            "noted": false,
            "rarity": "1/32",
            "drop_requirements": null
        },
        "2485": {
            "id": 2485,
            "name": "Grimy lantadyme",
            "members": true,
            "quantity": "1",
            "noted": false,
            "rarity": "1/128",
            "drop_requirements": null
        },
        "2677": {
            "id": 2677,
            "name": "Clue scroll (easy)",
            "members": true,
            "quantity": "1",
            "noted": false,
            "rarity": "1/128",
            "drop_requirements": null
        },
        "2801": {
            "id": 2801,
            "name": "Clue scroll (medium)",
            "members": true,
            "quantity": "1",
            "noted": false,
            "rarity": "1/128",
            "drop_requirements": null
        },
        "6806": {
            "id": 6806,
            "name": "Skeleton champion scroll",
            "members": true,
            "quantity": "1",
            "noted": false,
            "rarity": "1/5000",
            "drop_requirements": null
        },
        "11941": {
            "id": 11941,
            "name": "Looting bag",
            "members": true,
            "quantity": "1",
            "noted": false,
            "rarity": "1/13",
            "drop_requirements": null
        },
        "19677": {
            "id": 19677,
            "name": "Ancient shard",
            "members": true,
            "quantity": "1",
            "noted": false,
            "rarity": "1/128",
            "drop_requirements": "catacombs-only"
        },
        "19679": {
            "id": 19679,
            "name": "Dark totem base",
            "members": true,
            "quantity": "1",
            "noted": false,
            "rarity": "1/128",
            "drop_requirements": "catacombs-only"
        },
        "19681": {
            "id": 19681,
            "name": "Dark totem middle",
            "members": true,
            "quantity": "1",
            "noted": false,
            "rarity": "1/128",
            "drop_requirements": "catacombs-only"
        },
        "19683": {
            "id": 19683,
            "name": "Dark totem top",
            "members": true,
            "quantity": "1",
            "noted": false,
            "rarity": "1/128",
            "drop_requirements": "catacombs-only"
        },
        "23182": {
            "id": 23182,
            "name": "Clue scroll (beginner)",
            "members": false,
            "quantity": "1",
            "noted": false,
            "rarity": "1/100",
            "drop_requirements": null
        }
    },
    "rare_drop_table": true
}