{
    "id": 257,
    "name": "Black dragon",
    "incomplete": false,
    "members": true,
    "release_date": "2002-02-27",
    "combat_level": 227,
    "size": 4,
    "hitpoints": 190,
    "max_hit": 21,
    "attack_type": [
        "slash",
        "dragonfire"
    ],
    "attack_speed": 4,
    "aggressive": true,
    "poisonous": false,
    "immune_poison": false,
    "immune_venom": false,
    "weakness": [
        "stab",
        "ranged",
        "dragonbane"
    ],
    "slayer_monster": true,
    "slayer_level": 1,
    "slayer_xp": 199.5,
    "slayer_masters": [
        "krystilia",
        "konar",
        "nieve",
        "duradel"
    ],
    "duplicate": true,
    "examine": "A fierce dragon with black scales!",
    "wiki_name": "Black dragon (Level 227)",
    "wiki_url": "https://oldschool.runescape.wiki/w/Black_dragon#Level_227",
    "attack_level": 200,
    "strength_level": 200,
    "defence_level": 200,
    "magic_level": 100,
    "ranged_level": 1,
    "attack_stab": 0,
    "attack_slash": 0,
    "attack_crush": 0,
    "attack_magic": 0,
    "attack_ranged": 0,
    "defence_stab": 50,
    "defence_slash": 70,
    "defence_crush": 70,
    "defence_magic": 60,
    "defence_ranged": 50,
    "attack_accuracy": 0,
    "melee_strength": 0,
    "ranged_strength": 0,
    "magic_damage": 0,
    "drops": {
        "536": {
            "id": 536,
            "name": "Dragon bones",
            "members": true,
            "quantity": "1",
            "noted": false,
            "rarity": "1/1",
            "drop_requirements": null
        },
        "554": {
            "id": 554,
            "name": "Fire rune",
            "members": true,
            "quantity": "50",
            "noted": false,
            "rarity": "8/128",
            "drop_requirements": null
        },
        "556": {
            "id": 556,
            "name": "Air rune",
            "members": true,
            "quantity": "75",
            "noted": false,
            "rarity": "1/128",
            "drop_requirements": null
        },
        "560": {
            "id": 560,
            "name": "Death rune",
            "members": true,
            "quantity": "10",
            "noted": false,
            "rarity": "8/128",
            "drop_requirements": null
        },
        "562": {
            "id": 562,
            "name": "Chaos rune",
            "members": true,
            "quantity": "25",
            "noted": false,
            "rarity": "1/128",
            "drop_requirements": null
        },
        "563": {
            "id": 563,
            "name": "Law rune",
            "members": true,
            "quantity": "10",
            "noted": false,
            "rarity": "5/128",
            "drop_requirements": null
        },
        "565": {
            "id": 565,
            "name": "Blood rune",
            "members": true,
            "quantity": "10",
            "noted": false,
            "rarity": "3/128",
            "drop_requirements": null
        },
        "617": {
            "id": 617,
            "name": "Coins",
            "members": true,
            "quantity": "690",
            "noted": false,
            "rarity": "1/128",
            "drop_requirements": null
        },
        "829": {
            "id": 829,
            "name": "Adamant javelin",
            "members": true,
            "quantity": "30",
            "noted": false,
            "rarity": "20/128",
            "drop_requirements": null
        },
        "868": {
            "id": 868,
            "name": "Rune knife",
            "members": true,
            "quantity": "5",
            "noted": false,
            "rarity": "3/128",
            "drop_requirements": null
        },
        "1123": {
            "id": 1123,
            "name": "Adamant platebody",
            "members": true,
            "quantity": "1",
            "noted": false,
            "rarity": "20/128",
            "drop_requirements": null
        },
        "1147": {
            "id": 1147,
            "name": "Rune med helm",
            "members": true,
            "quantity": "1",
            "noted": false,
            "rarity": "1/128",
            "drop_requirements": null
        },
        "1197": {
            "id": 1197,
            "name": "Mithril kiteshield",
            "members": true,
            "quantity": "1",
            "noted": false,
            "rarity": "1/128",
            "drop_requirements": null
        },
        "1201": {
            "id": 1201,
            "name": "Rune kiteshield",
            "members": true,
            "quantity": "1",
            "noted": false,
            "rarity": "1/128",
            "drop_requirements": null
        },
        "1303": {
            "id": 1303,
            "name": "Rune longsword",
            "members": true,
            "quantity": "1",
            "noted": false,
            "rarity": "1/128",
            "drop_requirements": null
        },
        "1315": {
            "id": 1315,
            "name": "Mithril 2h sword",
            "members": true,
            "quantity": "1",
            "noted": false,
            "rarity": "4/128",
            "drop_requirements": null
        },
        "1317": {
            "id": 1317,
            "name": "Adamant 2h sword",
            "members": true,
            "quantity": "1",
            "noted": false,
            "rarity": "4/128",
            "drop_requirements": null
        },
        "1355": {
            "id": 1355,
            "name": "Mithril axe",
            "members": true,
            "quantity": "1",
            "noted": false,
            "rarity": "3/128",
            "drop_requirements": null
        },
        "1359": {
            "id": 1359,
            "name": "Rune axe",
            "members": true,
            "quantity": "1",
            "noted": false,
            "rarity": "3/128",
            "drop_requirements": null
        },
        "1369": {
            "id": 1369,
            "name": "Mithril battleaxe",
            "members": true,
            "quantity": "1",
            "noted": false,
            "rarity": "3/128",
            "drop_requirements": null
        },
        "1371": {
            "id": 1371,
            "name": "Adamant battleaxe",
            "members": true,
            "quantity": "1",
            "noted": false,
            "rarity": "3/128",
            "drop_requirements": null
        },
        "1747": {
            "id": 1747,
            "name": "Black dragonhide",
            "members": true,
            "quantity": "1",
            "noted": false,
            "rarity": "1/1",
            "drop_requirements": null
        },
        "1897": {
            "id": 1897,
            "name": "Chocolate cake",
            "members": true,
            "quantity": "1",
            "noted": false,
            "rarity": "3/128",
            "drop_requirements": null
        },
        "2361": {
            "id": 2361,
            "name": "Adamantite bar",
            "members": true,
            "quantity": "1",
            "noted": true,
            "rarity": "3/128",
            "drop_requirements": null
        },
        "2722": {
            "id": 2722,
            "name": "Clue scroll (hard)",
            "members": true,
            "quantity": "1",
            "noted": false,
            "rarity": "1/128",
            "drop_requirements": null
        },
        "7478": {
            "id": 7478,
            "name": "Dragon token",
            "members": true,
            "quantity": "1",
            "noted": false,
            "rarity": "1/1",
            "drop_requirements": null
        },
        "7946": {
            "id": 7946,
            "name": "Monkfish",
            "members": true,
            "quantity": "2",
            "noted": false,
            "rarity": "3/128",
            "drop_requirements": null
        },
        "11286": {
            "id": 11286,
            "name": "Draconic visage",
            "members": true,
            "quantity": "1",
            "noted": false,
            "rarity": "1/1250",
            "drop_requirements": null
        },
        "11941": {
            "id": 11941,
            "name": "Looting bag",
            "members": true,
            "quantity": "1",
            "noted": false,
            "rarity": "1/3",
            "drop_requirements": null
        },
        "12073": {
            "id": 12073,
            "name": "Clue scroll (elite)",
            "members": true,
            "quantity": "1",
            "noted": false,
            "rarity": "1/500",
            "drop_requirements": null
        },
        "13510": {
            "id": 13510,
            "name": "Ensouled dragon head",
            "members": true,
            "quantity": "1",
            "noted": false,
            "rarity": "1/35",
            "drop_requirements": null
        },
        "19582": {
            "id": 19582,
            "name": "Dragon javelin heads",
            "members": true,
            "quantity": "25",
            "noted": false,
            "rarity": "6/128",
            "drop_requirements": null
        },
        "23083": {
            "id": 23083,
            "name": "Brimstone key",
            "members": true,
            "quantity": "1",
            "noted": false,
            "rarity": "1/74.6",
            "drop_requirements": null
        }
    },
    "rare_drop_table": true
}