{
    "id": 2586,
    "name": "Abyssal walker",
    "incomplete": true,
    "members": true,
    "release_date": "2005-06-13",
    "combat_level": 81,
    "size": 1,
    "hitpoints": 95,
    "max_hit": 13,
    "attack_type": [
        "crush"
    ],
    "attack_speed": 5,
    "aggressive": true,
    "poisonous": false,
    "immune_poison": false,
    "immune_venom": false,
    "weakness": [
        "crush",
        "magic"
    ],
    "slayer_monster": false,
    "slayer_level": null,
    "slayer_xp": null,
    "slayer_masters": [],
    "duplicate": false,
    "examine": "Apparently walks the abyss.",
    "wiki_name": "Abyssal walker",
    "wiki_url": "https://oldschool.runescape.wiki/w/Abyssal_walker",
    "attack_level": 5,
    "strength_level": 100,
    "defence_level": 95,
    "magic_level": 1,
    "ranged_level": 1,
    "attack_stab": 0,
    "attack_slash": 0,
    "attack_crush": 0,
    "attack_magic": 0,
    "attack_ranged": 0,
    "defence_stab": 75,
    "defence_slash": 75,
    "defence_crush": 10,
    "defence_magic": 75,
    "defence_ranged": 75,
    "attack_accuracy": 5,
    "melee_strength": 10,
    "ranged_strength": 0,
    "magic_damage": 0,
    "drops": {
        "592": {
            "id": 592,
            "name": "Ashes",
            "members": true,
            "quantity": "1",
            "noted": false,
            "rarity": "1/1",
            "drop_requirements": null
        },
        "1438": {
            "id": 1438,
            "name": "Air talisman",
            "members": true,
            "quantity": "1",
            "noted": false,
            "rarity": "5/256",
            "drop_requirements": null
        },
        "1440": {
            "id": 1440,
            "name": "Earth talisman",
            "members": true,
            "quantity": "1",
            "noted": false,
            "rarity": "5/256",
            "drop_requirements": null
        },
        "1442": {
            "id": 1442,
            "name": "Fire talisman",
            "members": true,
            "quantity": "1",
            "noted": false,
            "rarity": "5/256",
            "drop_requirements": null
        },
        "1444": {
            "id": 1444,
            "name": "Water talisman",
            "members": true,
            "quantity": "1",
            "noted": false,
            "rarity": "5/256",
            "drop_requirements": null
        },
        "1446": {
            "id": 1446,
            "name": "Body talisman",
            "members": true,
            "quantity": "1",
            "noted": false,
            "rarity": "5/256",
            "drop_requirements": null
        },
        "1448": {
            "id": 1448,
            "name": "Mind talisman",
            "members": true,
            "quantity": "1",
            "noted": false,
            "rarity": "5/256",
            "drop_requirements": null
        },
        "1452": {
            "id": 1452,
            "name": "Chaos talisman",
            "members": true,
            "quantity": "1",
            "noted": false,
            "rarity": "2/256",
            "drop_requirements": null
        },
        "1454": {
            "id": 1454,
            "name": "Cosmic talisman",
            "members": true,
            "quantity": "1",
            "noted": false,
            "rarity": "2/256",
            "drop_requirements": null
        },
        "1462": {
            "id": 1462,
            "name": "Nature talisman",
            "members": true,
            "quantity": "1",
            "noted": false,
            "rarity": "2/256",
            "drop_requirements": null
        },
        "2801": {
            "id": 2801,
            "name": "Clue scroll (medium)",
            "members": true,
            "quantity": "1",
            "noted": false,
            "rarity": "1/256",
            "drop_requirements": null
        },
        "5509": {
            "id": 5509,
            "name": "Small pouch",
            "members": true,
            "quantity": "1",
            "noted": false,
            "rarity": "1/42",
            "drop_requirements": null
        },
        "5510": {
            "id": 5510,
            "name": "Medium pouch",
            "members": true,
            "quantity": "1",
            "noted": false,
            "rarity": "1/42",
            "drop_requirements": null
        },
        "5512": {
            "id": 5512,
            "name": "Large pouch",
            "members": true,
            "quantity": "1",
            "noted": false,
            "rarity": "1/42",
            "drop_requirements": null
        },
        "5514": {
            "id": 5514,
            "name": "Giant pouch",
            "members": true,
            "quantity": "1",
            "noted": false,
            "rarity": "1/42",
            "drop_requirements": null
        },
        "5516": {
            "id": 5516,
            "name": "Elemental talisman",
            "members": true,
            "quantity": "1",
            "noted": false,
            "rarity": "1/256",
            "drop_requirements": null
        },
        "5521": {
            "id": 5521,
            "name": "Binding necklace",
            "members": true,
            "quantity": "1",
            "noted": false,
            "rarity": "3/256",
            "drop_requirements": null
        },
        "7936": {
            "id": 7936,
            "name": "Pure essence",
            "members": true,
            "quantity": "15",
            "noted": true,
            "rarity": "4/256",
            "drop_requirements": null
        },
        "13507": {
            "id": 13507,
            "name": "Ensouled abyssal head",
            "members": true,
            "quantity": "1",
            "noted": false,
            "rarity": "1/40",
            "drop_requirements": null
        }
    },
    "rare_drop_table": false
}