{
    "id": 2629,
    "name": "Nikita",
    "incomplete": true,
    "members": true,
    "release_date": "2004-06-29",
    "combat_level": 24,
    "size": 1,
    "hitpoints": 60,
    "max_hit": 2,
    "attack_type": [
        "crush"
    ],
    "attack_speed": 4,
    "aggressive": false,
    "poisonous": false,
    "immune_poison": false,
    "immune_venom": false,
    "weakness": [
        "wolfbane"
    ],
    "slayer_monster": false,
    "slayer_level": null,
    "slayer_xp": null,
    "slayer_masters": [],
    "duplicate": false,
    "examine": "The woman.",
    "wiki_name": "Nikita",
    "wiki_url": "https://oldschool.runescape.wiki/w/Nikita",
    "attack_level": 10,
    "strength_level": 10,
    "defence_level": 10,
    "magic_level": 1,
    "ranged_level": 1,
    "attack_stab": 0,
    "attack_slash": 0,
    "attack_crush": 0,
    "attack_magic": 0,
    "attack_ranged": 0,
    "defence_stab": -21,
    "defence_slash": -21,
    "defence_crush": -21,
    "defence_magic": -21,
    "defence_ranged": -21,
    "attack_accuracy": 0,
    "melee_strength": 0,
    "ranged_strength": 0,
    "magic_damage": 0,
    "drops": {},
    "rare_drop_table": false
}