{
    "id": 2801,
    "name": "Cow calf",
    "incomplete": false,
    "members": false,
    "release_date": "2005-07-11",
    "combat_level": 2,
    "size": 1,
    "hitpoints": 6,
    "max_hit": 1,
    "attack_type": [
        "crush"
    ],
    "attack_speed": 6,
    "aggressive": false,
    "poisonous": false,
    "immune_poison": false,
    "immune_venom": false,
    "weakness": [],
    "slayer_monster": true,
    "slayer_level": 1,
    "slayer_xp": 6.0,
    "slayer_masters": [
        "turael"
    ],
    "duplicate": true,
    "examine": "Young, but still beefy.",
    "wiki_name": "Cow calf",
    "wiki_url": "https://oldschool.runescape.wiki/w/Cow_calf",
    "attack_level": 1,
    "strength_level": 1,
    "defence_level": 1,
    "magic_level": 1,
    "ranged_level": 1,
    "attack_stab": 0,
    "attack_slash": 0,
    "attack_crush": 0,
    "attack_magic": 0,
    "attack_ranged": 0,
    "defence_stab": -26,
    "defence_slash": -26,
    "defence_crush": -26,
    "defence_magic": -26,
    "defence_ranged": -26,
    "attack_accuracy": 0,
    "melee_strength": 0,
    "ranged_strength": 0,
    "magic_damage": 0,
    "drops": {
        "526": {
            "id": 526,
            "name": "Bones",
            "members": false,
            "quantity": "1",
            "noted": false,
            "rarity": "1/1",
            "drop_requirements": null
        },
        "1739": {
            "id": 1739,
            "name": "Cowhide",
            "members": false,
            "quantity": "1",
            "noted": false,
            "rarity": "1/1",
            "drop_requirements": null
        },
        "2132": {
            "id": 2132,
            "name": "Raw beef",
            "members": false,
            "quantity": "1",
            "noted": false,
            "rarity": "1/1",
            "drop_requirements": null
        },
        "23182": {
            "id": 23182,
            "name": "Clue scroll (beginner)",
            "members": false,
            "quantity": "1",
            "noted": false,
            "rarity": "1/128",
            "drop_requirements": null
        }
    },
    "rare_drop_table": false
}