{
    "id": 2804,
    "name": "Chicken",
    "incomplete": false,
    "members": false,
    "release_date": "2001-01-04",
    "combat_level": 1,
    "size": 1,
    "hitpoints": 3,
    "max_hit": 0,
    "attack_type": [
        "stab"
    ],
    "attack_speed": 4,
    "aggressive": false,
    "poisonous": false,
    "immune_poison": false,
    "immune_venom": false,
    "weakness": [],
    "slayer_monster": true,
    "slayer_level": 1,
    "slayer_xp": 3.0,
    "slayer_masters": [
        "turael"
    ],
    "duplicate": true,
    "examine": "Yep. Definitely a chicken.",
    "wiki_name": "Chicken",
    "wiki_url": "https://oldschool.runescape.wiki/w/Chicken",
    "attack_level": 1,
    "strength_level": 1,
    "defence_level": 1,
    "magic_level": 1,
    "ranged_level": 1,
    "attack_stab": 0,
    "attack_slash": 0,
    "attack_crush": 0,
    "attack_magic": 0,
    "attack_ranged": 0,
    "defence_stab": -42,
    "defence_slash": -42,
    "defence_crush": -42,
    "defence_magic": -42,
    "defence_ranged": -42,
    "attack_accuracy": -47,
    "melee_strength": -42,
    "ranged_strength": 0,
    "magic_damage": 0,
    "drops": {
        "314": {
            "id": 314,
            "name": "Feather",
            "members": false,
            "quantity": "15",
            "noted": false,
            "rarity": "32/128",
            "drop_requirements": null
        },
        "526": {
            "id": 526,
            "name": "Bones",
            "members": false,
            "quantity": "1",
            "noted": false,
            "rarity": "1/1",
            "drop_requirements": null
        },
        "2138": {
            "id": 2138,
            "name": "Raw chicken",
            "members": false,
            "quantity": "1",
            "noted": false,
            "rarity": "1/1",
            "drop_requirements": null
        },
        "2832": {
            "id": 2832,
            "name": "Key (medium)",
            "members": true,
            "quantity": "1",
            "noted": false,
            "rarity": "1/1",
            "drop_requirements": null
        },
        "23182": {
            "id": 23182,
            "name": "Clue scroll (beginner)",
            "members": false,
            "quantity": "1",
            "noted": false,
            "rarity": "1/300",
            "drop_requirements": null
        }
    },
    "rare_drop_table": false
}