{
    "id": 2851,
    "name": "Ice warrior",
    "incomplete": false,
    "members": false,
    "release_date": "2001-05-24",
    "combat_level": 57,
    "size": 1,
    "hitpoints": 59,
    "max_hit": 6,
    "attack_type": [
        "melee"
    ],
    "attack_speed": 4,
    "aggressive": true,
    "poisonous": false,
    "immune_poison": false,
    "immune_venom": false,
    "weakness": [
        "magic"
    ],
    "slayer_monster": true,
    "slayer_level": 1,
    "slayer_xp": 59.0,
    "slayer_masters": [
        "krystilia",
        "mazchna",
        "vannaka"
    ],
    "duplicate": true,
    "examine": "A cold-hearted elemental warrior.",
    "wiki_name": "Ice warrior",
    "wiki_url": "https://oldschool.runescape.wiki/w/Ice_warrior",
    "attack_level": 47,
    "strength_level": 47,
    "defence_level": 47,
    "magic_level": 1,
    "ranged_level": 1,
    "attack_stab": 0,
    "attack_slash": 0,
    "attack_crush": 0,
    "attack_magic": 0,
    "attack_ranged": 0,
    "defence_stab": 30,
    "defence_slash": 40,
    "defence_crush": 20,
    "defence_magic": 10,
    "defence_ranged": 30,
    "attack_accuracy": 0,
    "melee_strength": 0,
    "ranged_strength": 0,
    "magic_damage": 0,
    "drops": {
        "560": {
            "id": 560,
            "name": "Death rune",
            "members": false,
            "quantity": "2",
            "noted": false,
            "rarity": "3/128",
            "drop_requirements": null
        },
        "561": {
            "id": 561,
            "name": "Nature rune",
            "members": false,
            "quantity": "4",
            "noted": false,
            "rarity": "10/128",
            "drop_requirements": null
        },
        "562": {
            "id": 562,
            "name": "Chaos rune",
            "members": false,
            "quantity": "3",
            "noted": false,
            "rarity": "8/128",
            "drop_requirements": null
        },
        "563": {
            "id": 563,
            "name": "Law rune",
            "members": false,
            "quantity": "2",
            "noted": false,
            "rarity": "7/128",
            "drop_requirements": null
        },
        "564": {
            "id": 564,
            "name": "Cosmic rune",
            "members": false,
            "quantity": "2",
            "noted": false,
            "rarity": "5/128",
            "drop_requirements": null
        },
        "565": {
            "id": 565,
            "name": "Blood rune",
            "members": true,
            "quantity": "2",
            "noted": false,
            "rarity": "1/128",
            "drop_requirements": null
        },
        "617": {
            "id": 617,
            "name": "Coins",
            "members": true,
            "quantity": "10",
            "noted": false,
            "rarity": "10/128",
            "drop_requirements": null
        },
        "888": {
            "id": 888,
            "name": "Mithril arrow",
            "members": false,
            "quantity": "3",
            "noted": false,
            "rarity": "5/128",
            "drop_requirements": null
        },
        "890": {
            "id": 890,
            "name": "Adamant arrow",
            "members": false,
            "quantity": "2",
            "noted": false,
            "rarity": "3/128",
            "drop_requirements": null
        },
        "1363": {
            "id": 1363,
            "name": "Iron battleaxe",
            "members": false,
            "quantity": "1",
            "noted": false,
            "rarity": "3/128",
            "drop_requirements": null
        },
        "1428": {
            "id": 1428,
            "name": "Mithril mace",
            "members": false,
            "quantity": "1",
            "noted": false,
            "rarity": "1/128",
            "drop_requirements": null
        },
        "2801": {
            "id": 2801,
            "name": "Clue scroll (medium)",
            "members": true,
            "quantity": "1",
            "noted": false,
            "rarity": "1/128",
            "drop_requirements": null
        },
        "11941": {
            "id": 11941,
            "name": "Looting bag",
            "members": true,
            "quantity": "1",
            "noted": false,
            "rarity": "1/5",
            "drop_requirements": null
        }
    },
    "rare_drop_table": true
}