{
    "id": 295,
    "name": "Dwarf",
    "incomplete": false,
    "members": false,
    "release_date": "2001-04-06",
    "combat_level": 11,
    "size": 1,
    "hitpoints": 16,
    "max_hit": 2,
    "attack_type": [
        "melee"
    ],
    "attack_speed": 5,
    "aggressive": false,
    "poisonous": false,
    "immune_poison": false,
    "immune_venom": false,
    "weakness": [
        "magic"
    ],
    "slayer_monster": true,
    "slayer_level": 1,
    "slayer_xp": 16.0,
    "slayer_masters": [
        "turael"
    ],
    "duplicate": true,
    "examine": "A dwarven worker.",
    "wiki_name": "Dwarf (Level 11)",
    "wiki_url": "https://oldschool.runescape.wiki/w/Dwarf#Level_11",
    "attack_level": 0,
    "strength_level": 0,
    "defence_level": 0,
    "magic_level": 0,
    "ranged_level": 0,
    "attack_stab": 0,
    "attack_slash": 0,
    "attack_crush": 0,
    "attack_magic": 0,
    "attack_ranged": 0,
    "defence_stab": 0,
    "defence_slash": 0,
    "defence_crush": 0,
    "defence_magic": 0,
    "defence_ranged": 0,
    "attack_accuracy": 0,
    "melee_strength": 0,
    "ranged_strength": 0,
    "magic_damage": 0,
    "drops": {
        "436": {
            "id": 436,
            "name": "Copper ore",
            "members": false,
            "quantity": "1",
            "noted": false,
            "rarity": "3/128",
            "drop_requirements": null
        },
        "438": {
            "id": 438,
            "name": "Tin ore",
            "members": false,
            "quantity": "1",
            "noted": false,
            "rarity": "3/128",
            "drop_requirements": null
        },
        "440": {
            "id": 440,
            "name": "Iron ore",
            "members": false,
            "quantity": "1",
            "noted": false,
            "rarity": "4/128",
            "drop_requirements": null
        },
        "453": {
            "id": 453,
            "name": "Coal",
            "members": false,
            "quantity": "1",
            "noted": false,
            "rarity": "2/128",
            "drop_requirements": null
        },
        "526": {
            "id": 526,
            "name": "Bones",
            "members": false,
            "quantity": "1",
            "noted": false,
            "rarity": "1/1",
            "drop_requirements": null
        },
        "561": {
            "id": 561,
            "name": "Nature rune",
            "members": false,
            "quantity": "2",
            "noted": false,
            "rarity": "4/128",
            "drop_requirements": null
        },
        "562": {
            "id": 562,
            "name": "Chaos rune",
            "members": false,
            "quantity": "2",
            "noted": false,
            "rarity": "4/128",
            "drop_requirements": null
        },
        "617": {
            "id": 617,
            "name": "Coins",
            "members": true,
            "quantity": "30",
            "noted": false,
            "rarity": "2/128",
            "drop_requirements": null
        },
        "877": {
            "id": 877,
            "name": "Bronze bolts",
            "members": false,
            "quantity": "2-12",
            "noted": false,
            "rarity": "7/128",
            "drop_requirements": null
        },
        "1139": {
            "id": 1139,
            "name": "Bronze med helm",
            "members": false,
            "quantity": "1",
            "noted": false,
            "rarity": "4/128",
            "drop_requirements": null
        },
        "1265": {
            "id": 1265,
            "name": "Bronze pickaxe",
            "members": false,
            "quantity": "1",
            "noted": false,
            "rarity": "13/128",
            "drop_requirements": null
        },
        "1363": {
            "id": 1363,
            "name": "Iron battleaxe",
            "members": false,
            "quantity": "1",
            "noted": false,
            "rarity": "1/128",
            "drop_requirements": null
        },
        "1375": {
            "id": 1375,
            "name": "Bronze battleaxe",
            "members": false,
            "quantity": "1",
            "noted": false,
            "rarity": "2/128",
            "drop_requirements": null
        },
        "2347": {
            "id": 2347,
            "name": "Hammer",
            "members": false,
            "quantity": "1",
            "noted": false,
            "rarity": "10/128",
            "drop_requirements": null
        },
        "2349": {
            "id": 2349,
            "name": "Bronze bar",
            "members": false,
            "quantity": "1",
            "noted": false,
            "rarity": "7/128",
            "drop_requirements": null
        },
        "2351": {
            "id": 2351,
            "name": "Iron bar",
            "members": false,
            "quantity": "1",
            "noted": false,
            "rarity": "3/128",
            "drop_requirements": null
        },
        "23182": {
            "id": 23182,
            "name": "Clue scroll (beginner)",
            "members": false,
            "quantity": "1",
            "noted": false,
            "rarity": "1/100",
            "drop_requirements": null
        }
    },
    "rare_drop_table": true
}