{
    "id": 300,
    "name": "Jailer",
    "incomplete": true,
    "members": true,
    "release_date": "2002-02-27",
    "combat_level": 47,
    "size": 1,
    "hitpoints": 47,
    "max_hit": 5,
    "attack_type": [
        "crush"
    ],
    "attack_speed": 4,
    "aggressive": false,
    "poisonous": false,
    "immune_poison": false,
    "immune_venom": false,
    "weakness": [
        "magic"
    ],
    "slayer_monster": false,
    "slayer_level": null,
    "slayer_xp": null,
    "slayer_masters": [],
    "duplicate": false,
    "examine": "Guards prisoners for the black knights.",
    "wiki_name": "Jailer",
    "wiki_url": "https://oldschool.runescape.wiki/w/Jailer",
    "attack_level": 40,
    "strength_level": 40,
    "defence_level": 40,
    "magic_level": 1,
    "ranged_level": 1,
    "attack_stab": 0,
    "attack_slash": 0,
    "attack_crush": 0,
    "attack_magic": 0,
    "attack_ranged": 0,
    "defence_stab": 79,
    "defence_slash": 63,
    "defence_crush": 47,
    "defence_magic": 0,
    "defence_ranged": 0,
    "attack_accuracy": 0,
    "melee_strength": 0,
    "ranged_strength": 0,
    "magic_damage": 0,
    "drops": {
        "526": {
            "id": 526,
            "name": "Bones",
            "members": true,
            "quantity": "1",
            "noted": false,
            "rarity": "1/1",
            "drop_requirements": null
        },
        "1591": {
            "id": 1591,
            "name": "Jail key",
            "members": true,
            "quantity": "1",
            "noted": false,
            "rarity": "1/1",
            "drop_requirements": null
        }
    },
    "rare_drop_table": false
}