{
    "id": 3100,
    "name": "Warrior woman",
    "incomplete": true,
    "members": false,
    "release_date": "2003-12-01",
    "combat_level": 24,
    "size": 1,
    "hitpoints": 20,
    "max_hit": 3,
    "attack_type": [
        "stab"
    ],
    "attack_speed": 4,
    "aggressive": false,
    "poisonous": false,
    "immune_poison": false,
    "immune_venom": false,
    "weakness": [
        "crush",
        "magic"
    ],
    "slayer_monster": false,
    "slayer_level": null,
    "slayer_xp": null,
    "slayer_masters": [],
    "duplicate": false,
    "examine": "Not very fashion conscious.",
    "wiki_name": "Warrior woman",
    "wiki_url": "https://oldschool.runescape.wiki/w/Warrior_woman",
    "attack_level": 22,
    "strength_level": 22,
    "defence_level": 22,
    "magic_level": 1,
    "ranged_level": 1,
    "attack_stab": 6,
    "attack_slash": 6,
    "attack_crush": 6,
    "attack_magic": 6,
    "attack_ranged": 6,
    "defence_stab": 40,
    "defence_slash": 41,
    "defence_crush": 37,
    "defence_magic": -10,
    "defence_ranged": 38,
    "attack_accuracy": 6,
    "melee_strength": 7,
    "ranged_strength": 0,
    "magic_damage": 0,
    "drops": {
        "526": {
            "id": 526,
            "name": "Bones",
            "members": false,
            "quantity": "1",
            "noted": false,
            "rarity": "1/1",
            "drop_requirements": null
        },
        "617": {
            "id": 617,
            "name": "Coins",
            "members": true,
            "quantity": "18",
            "noted": false,
            "rarity": "1/1",
            "drop_requirements": null
        }
    },
    "rare_drop_table": false
}