{
    "id": 3120,
    "name": "Tz-Kek",
    "incomplete": false,
    "members": true,
    "release_date": "2005-10-04",
    "combat_level": 22,
    "size": 1,
    "hitpoints": 10,
    "max_hit": 4,
    "attack_type": [
        "crush"
    ],
    "attack_speed": 4,
    "aggressive": true,
    "poisonous": false,
    "immune_poison": false,
    "immune_venom": false,
    "weakness": [
        "melee",
        "ranged"
    ],
    "slayer_monster": true,
    "slayer_level": 1,
    "slayer_xp": 10.0,
    "slayer_masters": [
        "chaeldar",
        "nieve",
        "duradel"
    ],
    "duplicate": false,
    "examine": "Looks like living lava...",
    "wiki_name": "Tz-Kek (Level 22)",
    "wiki_url": "https://oldschool.runescape.wiki/w/Tz-Kek#Level_22",
    "attack_level": 20,
    "strength_level": 30,
    "defence_level": 15,
    "magic_level": 30,
    "ranged_level": 15,
    "attack_stab": 0,
    "attack_slash": 0,
    "attack_crush": 0,
    "attack_magic": 0,
    "attack_ranged": 0,
    "defence_stab": 0,
    "defence_slash": 0,
    "defence_crush": 0,
    "defence_magic": 0,
    "defence_ranged": 0,
    "attack_accuracy": 0,
    "melee_strength": 0,
    "ranged_strength": 0,
    "magic_damage": 0,
    "drops": {},
    "rare_drop_table": false
}