{
    "id": 3121,
    "name": "Tok-Xil",
    "incomplete": false,
    "members": true,
    "release_date": "2005-10-04",
    "combat_level": 90,
    "size": 3,
    "hitpoints": 40,
    "max_hit": 0,
    "attack_type": [
        "crush",
        "ranged",
        "ranged"
    ],
    "attack_speed": 4,
    "aggressive": true,
    "poisonous": false,
    "immune_poison": false,
    "immune_venom": false,
    "weakness": [],
    "slayer_monster": true,
    "slayer_level": 1,
    "slayer_xp": 40.0,
    "slayer_masters": [
        "chaeldar",
        "nieve",
        "duradel"
    ],
    "duplicate": true,
    "examine": "I don't like the look of those spines...",
    "wiki_name": "Tok-Xil (Standard)",
    "wiki_url": "https://oldschool.runescape.wiki/w/Tok-Xil#Standard",
    "attack_level": 80,
    "strength_level": 120,
    "defence_level": 60,
    "magic_level": 60,
    "ranged_level": 120,
    "attack_stab": 0,
    "attack_slash": 0,
    "attack_crush": 0,
    "attack_magic": 0,
    "attack_ranged": 0,
    "defence_stab": 0,
    "defence_slash": 0,
    "defence_crush": 0,
    "defence_magic": 0,
    "defence_ranged": 0,
    "attack_accuracy": 0,
    "melee_strength": 0,
    "ranged_strength": 0,
    "magic_damage": 0,
    "drops": {},
    "rare_drop_table": false
}