{
    "id": 3127,
    "name": "TzTok-Jad",
    "incomplete": true,
    "members": true,
    "release_date": "2005-10-04",
    "combat_level": 702,
    "size": 5,
    "hitpoints": 250,
    "max_hit": 97,
    "attack_type": [
        "stab",
        "ranged",
        "ranged",
        "magic"
    ],
    "attack_speed": 8,
    "aggressive": true,
    "poisonous": false,
    "immune_poison": false,
    "immune_venom": false,
    "weakness": [
        "melee",
        "ranged"
    ],
    "slayer_monster": false,
    "slayer_level": null,
    "slayer_xp": 0.0,
    "slayer_masters": [],
    "duplicate": false,
    "examine": "This is going to hurt ...",
    "wiki_name": "TzTok-Jad",
    "wiki_url": "https://oldschool.runescape.wiki/w/TzTok-Jad",
    "attack_level": 640,
    "strength_level": 960,
    "defence_level": 480,
    "magic_level": 480,
    "ranged_level": 960,
    "attack_stab": 0,
    "attack_slash": 0,
    "attack_crush": 0,
    "attack_magic": 60,
    "attack_ranged": 0,
    "defence_stab": 0,
    "defence_slash": 0,
    "defence_crush": 0,
    "defence_magic": 0,
    "defence_ranged": 0,
    "attack_accuracy": 0,
    "melee_strength": 0,
    "ranged_strength": 0,
    "magic_damage": 0,
    "drops": {
        "13225": {
            "id": 13225,
            "name": "Tzrek-jad",
            "members": true,
            "quantity": "1",
            "noted": false,
            "rarity": "1/200",
            "drop_requirements": null
        }
    },
    "rare_drop_table": false
}