{
    "id": 3132,
    "name": "Balfrug Kreeyath",
    "incomplete": false,
    "members": true,
    "release_date": "2013-10-17",
    "combat_level": 151,
    "size": 3,
    "hitpoints": 161,
    "max_hit": 16,
    "attack_type": [
        "magic"
    ],
    "attack_speed": 5,
    "aggressive": true,
    "poisonous": false,
    "immune_poison": false,
    "immune_venom": false,
    "weakness": [
        "demonbane"
    ],
    "slayer_monster": true,
    "slayer_level": 1,
    "slayer_xp": 161.0,
    "slayer_masters": [
        "chaeldar",
        "nieve",
        "duradel"
    ],
    "duplicate": false,
    "examine": "Despoiler of Ullek.",
    "wiki_name": "Balfrug Kreeyath",
    "wiki_url": "https://oldschool.runescape.wiki/w/Balfrug_Kreeyath",
    "attack_level": 115,
    "strength_level": 60,
    "defence_level": 153,
    "magic_level": 150,
    "ranged_level": 1,
    "attack_stab": 0,
    "attack_slash": 0,
    "attack_crush": 0,
    "attack_magic": 0,
    "attack_ranged": 0,
    "defence_stab": 0,
    "defence_slash": 0,
    "defence_crush": 0,
    "defence_magic": 10,
    "defence_ranged": 0,
    "attack_accuracy": 0,
    "melee_strength": 0,
    "ranged_strength": 0,
    "magic_damage": 0,
    "drops": {
        "145": {
            "id": 145,
            "name": "Super attack(3)",
            "members": true,
            "quantity": "1",
            "noted": false,
            "rarity": "2/127",
            "drop_requirements": null
        },
        "157": {
            "id": 157,
            "name": "Super strength(3)",
            "members": true,
            "quantity": "1",
            "noted": false,
            "rarity": "2/127",
            "drop_requirements": null
        },
        "245": {
            "id": 245,
            "name": "Wine of zamorak",
            "members": true,
            "quantity": "5-10",
            "noted": true,
            "rarity": "8/127",
            "drop_requirements": null
        },
        "385": {
            "id": 385,
            "name": "Shark",
            "members": true,
            "quantity": "3",
            "noted": false,
            "rarity": "8/127",
            "drop_requirements": null
        },
        "560": {
            "id": 560,
            "name": "Death rune",
            "members": true,
            "quantity": "5-10",
            "noted": false,
            "rarity": "8/127",
            "drop_requirements": null
        },
        "565": {
            "id": 565,
            "name": "Blood rune",
            "members": true,
            "quantity": "5-10",
            "noted": false,
            "rarity": "8/127",
            "drop_requirements": null
        },
        "592": {
            "id": 592,
            "name": "Ashes",
            "members": true,
            "quantity": "1",
            "noted": false,
            "rarity": "1/1",
            "drop_requirements": null
        },
        "617": {
            "id": 617,
            "name": "Coins",
            "members": true,
            "quantity": "1300-1400",
            "noted": false,
            "rarity": "66/127",
            "drop_requirements": null
        },
        "808": {
            "id": 808,
            "name": "Steel dart",
            "members": true,
            "quantity": "95-100",
            "noted": false,
            "rarity": "8/127",
            "drop_requirements": null
        },
        "886": {
            "id": 886,
            "name": "Steel arrow",
            "members": true,
            "quantity": "95-100",
            "noted": false,
            "rarity": "7/127",
            "drop_requirements": null
        },
        "2722": {
            "id": 2722,
            "name": "Clue scroll (hard)",
            "members": true,
            "quantity": "1",
            "noted": false,
            "rarity": "1/128",
            "drop_requirements": null
        },
        "7060": {
            "id": 7060,
            "name": "Tuna potato",
            "members": true,
            "quantity": "2",
            "noted": false,
            "rarity": "8/127",
            "drop_requirements": null
        },
        "11818": {
            "id": 11818,
            "name": "Godsword shard 1",
            "members": true,
            "quantity": "1",
            "noted": false,
            "rarity": "1/1524",
            "drop_requirements": null
        },
        "11820": {
            "id": 11820,
            "name": "Godsword shard 2",
            "members": true,
            "quantity": "1",
            "noted": false,
            "rarity": "1/1524",
            "drop_requirements": null
        },
        "11822": {
            "id": 11822,
            "name": "Godsword shard 3",
            "members": true,
            "quantity": "1",
            "noted": false,
            "rarity": "1/1524",
            "drop_requirements": null
        },
        "11824": {
            "id": 11824,
            "name": "Zamorakian spear",
            "members": true,
            "quantity": "1",
            "noted": false,
            "rarity": "3/16129",
            "drop_requirements": null
        }
    },
    "rare_drop_table": false
}