{
    "id": 3134,
    "name": "Imp",
    "incomplete": true,
    "members": true,
    "release_date": "2013-10-17",
    "combat_level": 7,
    "size": 1,
    "hitpoints": 10,
    "max_hit": 1,
    "attack_type": [
        "stab"
    ],
    "attack_speed": 4,
    "aggressive": false,
    "poisonous": false,
    "immune_poison": false,
    "immune_venom": false,
    "weakness": [],
    "slayer_monster": false,
    "slayer_level": null,
    "slayer_xp": null,
    "slayer_masters": [],
    "duplicate": false,
    "examine": "Have you checked your pockets lately?",
    "wiki_name": "Imp (GWD)",
    "wiki_url": "https://oldschool.runescape.wiki/w/Imp#GWD",
    "attack_level": 5,
    "strength_level": 5,
    "defence_level": 6,
    "magic_level": 1,
    "ranged_level": 1,
    "attack_stab": 0,
    "attack_slash": 0,
    "attack_crush": 0,
    "attack_magic": 0,
    "attack_ranged": 0,
    "defence_stab": -42,
    "defence_slash": -42,
    "defence_crush": -42,
    "defence_magic": -42,
    "defence_ranged": -42,
    "attack_accuracy": 0,
    "melee_strength": 0,
    "ranged_strength": 0,
    "magic_damage": 0,
    "drops": {
        "195": {
            "id": 195,
            "name": "Potion",
            "members": true,
            "quantity": "1",
            "noted": false,
            "rarity": "1/128",
            "drop_requirements": null
        },
        "434": {
            "id": 434,
            "name": "Clay",
            "members": true,
            "quantity": "1",
            "noted": false,
            "rarity": "4/128",
            "drop_requirements": null
        },
        "579": {
            "id": 579,
            "name": "Blue wizard hat",
            "members": true,
            "quantity": "1",
            "noted": false,
            "rarity": "8/128",
            "drop_requirements": null
        },
        "590": {
            "id": 590,
            "name": "Tinderbox",
            "members": true,
            "quantity": "1",
            "noted": false,
            "rarity": "5/128",
            "drop_requirements": null
        },
        "592": {
            "id": 592,
            "name": "Ashes",
            "members": true,
            "quantity": "1",
            "noted": false,
            "rarity": "6/128",
            "drop_requirements": null
        },
        "753": {
            "id": 753,
            "name": "Cadava berries",
            "members": true,
            "quantity": "1",
            "noted": false,
            "rarity": "4/128",
            "drop_requirements": null
        },
        "877": {
            "id": 877,
            "name": "Bronze bolts",
            "members": true,
            "quantity": "1",
            "noted": false,
            "rarity": "8/128",
            "drop_requirements": null
        },
        "956": {
            "id": 956,
            "name": "Flier",
            "members": true,
            "quantity": "1",
            "noted": false,
            "rarity": "2/128",
            "drop_requirements": null
        },
        "1448": {
            "id": 1448,
            "name": "Mind talisman",
            "members": true,
            "quantity": "1",
            "noted": false,
            "rarity": "7/128",
            "drop_requirements": null
        },
        "1470": {
            "id": 1470,
            "name": "Red bead",
            "members": true,
            "quantity": "1",
            "noted": false,
            "rarity": "5/128",
            "drop_requirements": null
        },
        "1472": {
            "id": 1472,
            "name": "Yellow bead",
            "members": true,
            "quantity": "1",
            "noted": false,
            "rarity": "5/128",
            "drop_requirements": null
        },
        "1474": {
            "id": 1474,
            "name": "Black bead",
            "members": true,
            "quantity": "1",
            "noted": false,
            "rarity": "5/128",
            "drop_requirements": null
        },
        "1476": {
            "id": 1476,
            "name": "White bead",
            "members": true,
            "quantity": "1",
            "noted": false,
            "rarity": "5/128",
            "drop_requirements": null
        },
        "1735": {
            "id": 1735,
            "name": "Shears",
            "members": true,
            "quantity": "1",
            "noted": false,
            "rarity": "4/128",
            "drop_requirements": null
        },
        "1759": {
            "id": 1759,
            "name": "Ball of wool",
            "members": true,
            "quantity": "1",
            "noted": false,
            "rarity": "8/128",
            "drop_requirements": null
        },
        "1925": {
            "id": 1925,
            "name": "Bucket",
            "members": true,
            "quantity": "1",
            "noted": false,
            "rarity": "4/128",
            "drop_requirements": null
        },
        "1929": {
            "id": 1929,
            "name": "Bucket of water",
            "members": true,
            "quantity": "1",
            "noted": false,
            "rarity": "2/128",
            "drop_requirements": null
        },
        "1931": {
            "id": 1931,
            "name": "Pot",
            "members": true,
            "quantity": "1",
            "noted": false,
            "rarity": "2/128",
            "drop_requirements": null
        },
        "1933": {
            "id": 1933,
            "name": "Pot of flour",
            "members": true,
            "quantity": "1",
            "noted": false,
            "rarity": "2/128",
            "drop_requirements": null
        },
        "1935": {
            "id": 1935,
            "name": "Jug",
            "members": true,
            "quantity": "1",
            "noted": false,
            "rarity": "2/128",
            "drop_requirements": null
        },
        "1937": {
            "id": 1937,
            "name": "Jug of water",
            "members": true,
            "quantity": "1",
            "noted": false,
            "rarity": "2/128",
            "drop_requirements": null
        },
        "1944": {
            "id": 1944,
            "name": "Egg",
            "members": true,
            "quantity": "1",
            "noted": false,
            "rarity": "5/128",
            "drop_requirements": null
        },
        "1947": {
            "id": 1947,
            "name": "Grain",
            "members": true,
            "quantity": "1",
            "noted": false,
            "rarity": "3/128",
            "drop_requirements": null
        },
        "1949": {
            "id": 1949,
            "name": "Chef's hat",
            "members": true,
            "quantity": "1",
            "noted": false,
            "rarity": "2/128",
            "drop_requirements": null
        },
        "1965": {
            "id": 1965,
            "name": "Cabbage",
            "members": true,
            "quantity": "1",
            "noted": false,
            "rarity": "2/128",
            "drop_requirements": null
        },
        "2138": {
            "id": 2138,
            "name": "Raw chicken",
            "members": true,
            "quantity": "1",
            "noted": false,
            "rarity": "5/128",
            "drop_requirements": null
        },
        "2142": {
            "id": 2142,
            "name": "Cooked meat",
            "members": true,
            "quantity": "1",
            "noted": false,
            "rarity": "1/128",
            "drop_requirements": null
        },
        "2146": {
            "id": 2146,
            "name": "Burnt meat",
            "members": true,
            "quantity": "1",
            "noted": false,
            "rarity": "4/128",
            "drop_requirements": null
        },
        "2307": {
            "id": 2307,
            "name": "Bread dough",
            "members": true,
            "quantity": "1",
            "noted": false,
            "rarity": "2/128",
            "drop_requirements": null
        },
        "2309": {
            "id": 2309,
            "name": "Bread",
            "members": true,
            "quantity": "1",
            "noted": false,
            "rarity": "1/128",
            "drop_requirements": null
        },
        "2311": {
            "id": 2311,
            "name": "Burnt bread",
            "members": true,
            "quantity": "1",
            "noted": false,
            "rarity": "4/128",
            "drop_requirements": null
        },
        "2347": {
            "id": 2347,
            "name": "Hammer",
            "members": true,
            "quantity": "1",
            "noted": false,
            "rarity": "8/128",
            "drop_requirements": null
        },
        "6803": {
            "id": 6803,
            "name": "Imp champion scroll",
            "members": true,
            "quantity": "1",
            "noted": false,
            "rarity": "1/5000",
            "drop_requirements": null
        },
        "11941": {
            "id": 11941,
            "name": "Looting bag",
            "members": true,
            "quantity": "1",
            "noted": false,
            "rarity": "1/30",
            "drop_requirements": null
        },
        "11942": {
            "id": 11942,
            "name": "Ecumenical key",
            "members": true,
            "quantity": "1",
            "noted": false,
            "rarity": "1/60",
            "drop_requirements": null
        },
        "13453": {
            "id": 13453,
            "name": "Ensouled imp head",
            "members": true,
            "quantity": "1",
            "noted": false,
            "rarity": "1/25",
            "drop_requirements": null
        }
    },
    "rare_drop_table": false
}