{
    "id": 3163,
    "name": "Wingman Skree",
    "incomplete": false,
    "members": true,
    "release_date": "2013-10-17",
    "combat_level": 143,
    "size": 2,
    "hitpoints": 121,
    "max_hit": 16,
    "attack_type": [
        "magic"
    ],
    "attack_speed": 5,
    "aggressive": true,
    "poisonous": false,
    "immune_poison": false,
    "immune_venom": false,
    "weakness": [
        "ranged"
    ],
    "slayer_monster": true,
    "slayer_level": 1,
    "slayer_xp": 124.0,
    "slayer_masters": [
        "chaeldar",
        "konar",
        "nieve",
        "duradel"
    ],
    "duplicate": false,
    "examine": "Graceful, bird-like creature.",
    "wiki_name": "Wingman Skree",
    "wiki_url": "https://oldschool.runescape.wiki/w/Wingman_Skree",
    "attack_level": 80,
    "strength_level": 50,
    "defence_level": 160,
    "magic_level": 150,
    "ranged_level": 100,
    "attack_stab": 0,
    "attack_slash": 0,
    "attack_crush": 0,
    "attack_magic": 0,
    "attack_ranged": 0,
    "defence_stab": 0,
    "defence_slash": 0,
    "defence_crush": 0,
    "defence_magic": 0,
    "defence_ranged": 0,
    "attack_accuracy": 45,
    "melee_strength": 25,
    "ranged_strength": 0,
    "magic_damage": 0,
    "drops": {
        "213": {
            "id": 213,
            "name": "Grimy kwuarm",
            "members": true,
            "quantity": "1",
            "noted": true,
            "rarity": "8/127",
            "drop_requirements": null
        },
        "314": {
            "id": 314,
            "name": "Feather",
            "members": true,
            "quantity": "1-11",
            "noted": false,
            "rarity": "1/1",
            "drop_requirements": null
        },
        "391": {
            "id": 391,
            "name": "Manta ray",
            "members": true,
            "quantity": "2",
            "noted": false,
            "rarity": "8/127",
            "drop_requirements": null
        },
        "526": {
            "id": 526,
            "name": "Bones",
            "members": true,
            "quantity": "1",
            "noted": false,
            "rarity": "1/1",
            "drop_requirements": null
        },
        "617": {
            "id": 617,
            "name": "Coins",
            "members": true,
            "quantity": "1000-1100",
            "noted": false,
            "rarity": "70/127",
            "drop_requirements": null
        },
        "808": {
            "id": 808,
            "name": "Steel dart",
            "members": true,
            "quantity": "91-101",
            "noted": false,
            "rarity": "8/127",
            "drop_requirements": null
        },
        "886": {
            "id": 886,
            "name": "Steel arrow",
            "members": true,
            "quantity": "91-101",
            "noted": false,
            "rarity": "7/127",
            "drop_requirements": null
        },
        "2722": {
            "id": 2722,
            "name": "Clue scroll (hard)",
            "members": true,
            "quantity": "1",
            "noted": false,
            "rarity": "1/128",
            "drop_requirements": null
        },
        "4697": {
            "id": 4697,
            "name": "Smoke rune",
            "members": true,
            "quantity": "10-15",
            "noted": false,
            "rarity": "8/127",
            "drop_requirements": null
        },
        "6693": {
            "id": 6693,
            "name": "Crushed nest",
            "members": true,
            "quantity": "2",
            "noted": true,
            "rarity": "8/127",
            "drop_requirements": null
        },
        "7058": {
            "id": 7058,
            "name": "Mushroom potato",
            "members": true,
            "quantity": "3",
            "noted": false,
            "rarity": "8/127",
            "drop_requirements": null
        },
        "11818": {
            "id": 11818,
            "name": "Godsword shard 1",
            "members": true,
            "quantity": "1",
            "noted": false,
            "rarity": "1/1524",
            "drop_requirements": null
        },
        "11820": {
            "id": 11820,
            "name": "Godsword shard 2",
            "members": true,
            "quantity": "1",
            "noted": false,
            "rarity": "1/1524",
            "drop_requirements": null
        },
        "11822": {
            "id": 11822,
            "name": "Godsword shard 3",
            "members": true,
            "quantity": "1",
            "noted": false,
            "rarity": "1/1524",
            "drop_requirements": null
        },
        "11826": {
            "id": 11826,
            "name": "Armadyl helmet",
            "members": true,
            "quantity": "1",
            "noted": false,
            "rarity": "1/16129",
            "drop_requirements": null
        },
        "11828": {
            "id": 11828,
            "name": "Armadyl chestplate",
            "members": true,
            "quantity": "1",
            "noted": false,
            "rarity": "1/16129",
            "drop_requirements": null
        },
        "11830": {
            "id": 11830,
            "name": "Armadyl chainskirt",
            "members": true,
            "quantity": "1",
            "noted": false,
            "rarity": "1/16129",
            "drop_requirements": null
        },
        "23083": {
            "id": 23083,
            "name": "Brimstone key",
            "members": true,
            "quantity": "1",
            "noted": false,
            "rarity": "1/91.4",
            "drop_requirements": null
        }
    },
    "rare_drop_table": false
}