{
    "id": 3280,
    "name": "Narf",
    "incomplete": true,
    "members": false,
    "release_date": "2006-02-20",
    "combat_level": 2,
    "size": 1,
    "hitpoints": 7,
    "max_hit": 1,
    "attack_type": [
        "crush"
    ],
    "attack_speed": 4,
    "aggressive": false,
    "poisonous": false,
    "immune_poison": false,
    "immune_venom": false,
    "weakness": [
        "earth spells"
    ],
    "slayer_monster": false,
    "slayer_level": null,
    "slayer_xp": null,
    "slayer_masters": [],
    "duplicate": false,
    "examine": "Looks unpleasant.",
    "wiki_name": "Narf",
    "wiki_url": "https://oldschool.runescape.wiki/w/Narf",
    "attack_level": 1,
    "strength_level": 1,
    "defence_level": 1,
    "magic_level": 1,
    "ranged_level": 1,
    "attack_stab": 0,
    "attack_slash": 0,
    "attack_crush": 0,
    "attack_magic": 0,
    "attack_ranged": 0,
    "defence_stab": -5,
    "defence_slash": -5,
    "defence_crush": -5,
    "defence_magic": -5,
    "defence_ranged": -5,
    "attack_accuracy": 0,
    "melee_strength": 0,
    "ranged_strength": 0,
    "magic_damage": 0,
    "drops": {
        "313": {
            "id": 313,
            "name": "Fishing bait",
            "members": false,
            "quantity": "1",
            "noted": false,
            "rarity": "5/128",
            "drop_requirements": null
        },
        "436": {
            "id": 436,
            "name": "Copper ore",
            "members": false,
            "quantity": "1",
            "noted": false,
            "rarity": "2/128",
            "drop_requirements": null
        },
        "526": {
            "id": 526,
            "name": "Bones",
            "members": false,
            "quantity": "1",
            "noted": false,
            "rarity": "1/1",
            "drop_requirements": null
        },
        "554": {
            "id": 554,
            "name": "Fire rune",
            "members": false,
            "quantity": "6",
            "noted": false,
            "rarity": "2/128",
            "drop_requirements": null
        },
        "557": {
            "id": 557,
            "name": "Earth rune",
            "members": false,
            "quantity": "4",
            "noted": false,
            "rarity": "2/128",
            "drop_requirements": null
        },
        "558": {
            "id": 558,
            "name": "Mind rune",
            "members": false,
            "quantity": "9",
            "noted": false,
            "rarity": "2/128",
            "drop_requirements": null
        },
        "562": {
            "id": 562,
            "name": "Chaos rune",
            "members": false,
            "quantity": "2",
            "noted": false,
            "rarity": "1/128",
            "drop_requirements": null
        },
        "617": {
            "id": 617,
            "name": "Coins",
            "members": true,
            "quantity": "3",
            "noted": false,
            "rarity": "1/1",
            "drop_requirements": null
        },
        "877": {
            "id": 877,
            "name": "Bronze bolts",
            "members": false,
            "quantity": "2-12",
            "noted": false,
            "rarity": "22/128",
            "drop_requirements": null
        },
        "882": {
            "id": 882,
            "name": "Bronze arrow",
            "members": false,
            "quantity": "7",
            "noted": false,
            "rarity": "3/128",
            "drop_requirements": null
        },
        "1139": {
            "id": 1139,
            "name": "Bronze med helm",
            "members": false,
            "quantity": "1",
            "noted": false,
            "rarity": "2/128",
            "drop_requirements": null
        },
        "1203": {
            "id": 1203,
            "name": "Iron dagger",
            "members": false,
            "quantity": "1",
            "noted": false,
            "rarity": "1/128",
            "drop_requirements": null
        },
        "1440": {
            "id": 1440,
            "name": "Earth talisman",
            "members": false,
            "quantity": "1",
            "noted": false,
            "rarity": "2/128",
            "drop_requirements": null
        },
        "1965": {
            "id": 1965,
            "name": "Cabbage",
            "members": false,
            "quantity": "1",
            "noted": false,
            "rarity": "1/128",
            "drop_requirements": null
        },
        "2677": {
            "id": 2677,
            "name": "Clue scroll (easy)",
            "members": true,
            "quantity": "1",
            "noted": false,
            "rarity": "1/128",
            "drop_requirements": null
        },
        "23182": {
            "id": 23182,
            "name": "Clue scroll (beginner)",
            "members": false,
            "quantity": "1",
            "noted": false,
            "rarity": "1/90",
            "drop_requirements": null
        }
    },
    "rare_drop_table": false
}