{
    "id": 3330,
    "name": "Ghoul Champion",
    "incomplete": true,
    "members": true,
    "release_date": "2005-12-12",
    "combat_level": 85,
    "size": 1,
    "hitpoints": 100,
    "max_hit": 9,
    "attack_type": [
        "melee",
        "ranged",
        "ranged"
    ],
    "attack_speed": 4,
    "aggressive": true,
    "poisonous": false,
    "immune_poison": false,
    "immune_venom": false,
    "weakness": [
        "melee"
    ],
    "slayer_monster": false,
    "slayer_level": null,
    "slayer_xp": null,
    "slayer_masters": [],
    "duplicate": false,
    "examine": "Champion of the Ghouls.",
    "wiki_name": "Ghoul Champion",
    "wiki_url": "https://oldschool.runescape.wiki/w/Ghoul_Champion",
    "attack_level": 0,
    "strength_level": 0,
    "defence_level": 0,
    "magic_level": 0,
    "ranged_level": 0,
    "attack_stab": 0,
    "attack_slash": 0,
    "attack_crush": 0,
    "attack_magic": 0,
    "attack_ranged": 0,
    "defence_stab": 0,
    "defence_slash": 0,
    "defence_crush": 0,
    "defence_magic": 0,
    "defence_ranged": 0,
    "attack_accuracy": 0,
    "melee_strength": 0,
    "ranged_strength": 0,
    "magic_damage": 0,
    "drops": {},
    "rare_drop_table": false
}