{
    "id": 3357,
    "name": "Lesser Demon Champion",
    "incomplete": true,
    "members": true,
    "release_date": "2005-12-12",
    "combat_level": 162,
    "size": 2,
    "hitpoints": 148,
    "max_hit": 0,
    "attack_type": [
        "slash",
        "magic"
    ],
    "attack_speed": 4,
    "aggressive": true,
    "poisonous": false,
    "immune_poison": false,
    "immune_venom": false,
    "weakness": [
        "magic"
    ],
    "slayer_monster": false,
    "slayer_level": null,
    "slayer_xp": null,
    "slayer_masters": [],
    "duplicate": false,
    "examine": "Champion of the lesser demons.",
    "wiki_name": "Lesser Demon Champion",
    "wiki_url": "https://oldschool.runescape.wiki/w/Lesser_Demon_Champion",
    "attack_level": 136,
    "strength_level": 140,
    "defence_level": 142,
    "magic_level": 136,
    "ranged_level": 1,
    "attack_stab": 0,
    "attack_slash": 0,
    "attack_crush": 0,
    "attack_magic": 0,
    "attack_ranged": 0,
    "defence_stab": 0,
    "defence_slash": 0,
    "defence_crush": 0,
    "defence_magic": 0,
    "defence_ranged": 0,
    "attack_accuracy": 0,
    "melee_strength": 0,
    "ranged_strength": 0,
    "magic_damage": 0,
    "drops": {},
    "rare_drop_table": false
}