{
    "id": 3429,
    "name": "Iorwerth Warrior",
    "incomplete": false,
    "members": true,
    "release_date": "2004-09-20",
    "combat_level": 108,
    "size": 1,
    "hitpoints": 105,
    "max_hit": 10,
    "attack_type": [
        "stab"
    ],
    "attack_speed": 4,
    "aggressive": false,
    "poisonous": false,
    "immune_poison": false,
    "immune_venom": false,
    "weakness": [
        "magic"
    ],
    "slayer_monster": true,
    "slayer_level": 1,
    "slayer_xp": 107.5,
    "slayer_masters": [
        "vannaka",
        "chaeldar",
        "nieve",
        "duradel"
    ],
    "duplicate": false,
    "examine": "I don't wanna be at the wrong end of that pike.",
    "wiki_name": "Iorwerth Warrior (Male)",
    "wiki_url": "https://oldschool.runescape.wiki/w/Iorwerth_Warrior#Male",
    "attack_level": 95,
    "strength_level": 95,
    "defence_level": 80,
    "magic_level": 1,
    "ranged_level": 0,
    "attack_stab": 0,
    "attack_slash": 0,
    "attack_crush": 0,
    "attack_magic": 0,
    "attack_ranged": 0,
    "defence_stab": 50,
    "defence_slash": 70,
    "defence_crush": 70,
    "defence_magic": 60,
    "defence_ranged": 50,
    "attack_accuracy": 0,
    "melee_strength": 0,
    "ranged_strength": 0,
    "magic_damage": 0,
    "drops": {
        "365": {
            "id": 365,
            "name": "Bass",
            "members": true,
            "quantity": "1",
            "noted": false,
            "rarity": "3/128",
            "drop_requirements": null
        },
        "385": {
            "id": 385,
            "name": "Shark",
            "members": true,
            "quantity": "1",
            "noted": false,
            "rarity": "3/128",
            "drop_requirements": null
        },
        "449": {
            "id": 449,
            "name": "Adamantite ore",
            "members": true,
            "quantity": "1",
            "noted": false,
            "rarity": "2/128",
            "drop_requirements": null
        },
        "526": {
            "id": 526,
            "name": "Bones",
            "members": true,
            "quantity": "1",
            "noted": false,
            "rarity": "1/1",
            "drop_requirements": null
        },
        "554": {
            "id": 554,
            "name": "Fire rune",
            "members": true,
            "quantity": "37",
            "noted": false,
            "rarity": "2/128",
            "drop_requirements": null
        },
        "555": {
            "id": 555,
            "name": "Water rune",
            "members": true,
            "quantity": "70",
            "noted": false,
            "rarity": "8/128",
            "drop_requirements": null
        },
        "561": {
            "id": 561,
            "name": "Nature rune",
            "members": true,
            "quantity": "12",
            "noted": false,
            "rarity": "5/128",
            "drop_requirements": null
        },
        "563": {
            "id": 563,
            "name": "Law rune",
            "members": true,
            "quantity": "2",
            "noted": false,
            "rarity": "3/128",
            "drop_requirements": null
        },
        "617": {
            "id": 617,
            "name": "Coins",
            "members": true,
            "quantity": "440",
            "noted": false,
            "rarity": "1/128",
            "drop_requirements": null
        },
        "1099": {
            "id": 1099,
            "name": "Green d'hide chaps",
            "members": true,
            "quantity": "1",
            "noted": false,
            "rarity": "3/128",
            "drop_requirements": null
        },
        "1135": {
            "id": 1135,
            "name": "Green d'hide body",
            "members": true,
            "quantity": "1",
            "noted": false,
            "rarity": "4/128",
            "drop_requirements": null
        },
        "1161": {
            "id": 1161,
            "name": "Adamant full helm",
            "members": true,
            "quantity": "1",
            "noted": false,
            "rarity": "1/128",
            "drop_requirements": null
        },
        "1197": {
            "id": 1197,
            "name": "Mithril kiteshield",
            "members": true,
            "quantity": "1",
            "noted": false,
            "rarity": "1/128",
            "drop_requirements": null
        },
        "1213": {
            "id": 1213,
            "name": "Rune dagger",
            "members": true,
            "quantity": "1",
            "noted": false,
            "rarity": "1/128",
            "drop_requirements": null
        },
        "1243": {
            "id": 1243,
            "name": "Mithril spear",
            "members": true,
            "quantity": "1",
            "noted": false,
            "rarity": "2/128",
            "drop_requirements": null
        },
        "2722": {
            "id": 2722,
            "name": "Clue scroll (hard)",
            "members": true,
            "quantity": "1",
            "noted": false,
            "rarity": "1/128",
            "drop_requirements": null
        },
        "6102": {
            "id": 6102,
            "name": "Teleport crystal (1)",
            "members": true,
            "quantity": "1",
            "noted": false,
            "rarity": "1/128",
            "drop_requirements": null
        },
        "13480": {
            "id": 13480,
            "name": "Ensouled elf head",
            "members": true,
            "quantity": "1",
            "noted": false,
            "rarity": "1/50",
            "drop_requirements": null
        }
    },
    "rare_drop_table": true
}