{
    "id": 3475,
    "name": "The Untouchable",
    "incomplete": true,
    "members": true,
    "release_date": "2007-05-15",
    "combat_level": 274,
    "size": 2,
    "hitpoints": 90,
    "max_hit": 26,
    "attack_type": [
        "crush"
    ],
    "attack_speed": 6,
    "aggressive": false,
    "poisonous": false,
    "immune_poison": false,
    "immune_venom": false,
    "weakness": [
        "magic"
    ],
    "slayer_monster": false,
    "slayer_level": null,
    "slayer_xp": null,
    "slayer_masters": [],
    "duplicate": false,
    "examine": "Can you bring yourself to hurt another?",
    "wiki_name": "The Untouchable (Normal)",
    "wiki_url": "https://oldschool.runescape.wiki/w/The_Untouchable#Normal",
    "attack_level": 187,
    "strength_level": 255,
    "defence_level": 434,
    "magic_level": 1,
    "ranged_level": 1,
    "attack_stab": 0,
    "attack_slash": 0,
    "attack_crush": 0,
    "attack_magic": 0,
    "attack_ranged": 0,
    "defence_stab": 0,
    "defence_slash": 0,
    "defence_crush": 0,
    "defence_magic": 0,
    "defence_ranged": 0,
    "attack_accuracy": 0,
    "melee_strength": 0,
    "ranged_strength": 0,
    "magic_damage": 0,
    "drops": {},
    "rare_drop_table": false
}