{
    "id": 3484,
    "name": "Monk of Zamorak",
    "incomplete": true,
    "members": false,
    "release_date": "2001-04-06",
    "combat_level": 22,
    "size": 1,
    "hitpoints": 20,
    "max_hit": 3,
    "attack_type": [
        "crush",
        "magic"
    ],
    "attack_speed": 4,
    "aggressive": true,
    "poisonous": false,
    "immune_poison": false,
    "immune_venom": false,
    "weakness": [
        "ranged"
    ],
    "slayer_monster": false,
    "slayer_level": null,
    "slayer_xp": null,
    "slayer_masters": [],
    "duplicate": false,
    "examine": "An evil human cleric.",
    "wiki_name": "Monk of Zamorak (Lv 22)",
    "wiki_url": "https://oldschool.runescape.wiki/w/Monk_of_Zamorak#Lv_22",
    "attack_level": 18,
    "strength_level": 18,
    "defence_level": 22,
    "magic_level": 25,
    "ranged_level": 1,
    "attack_stab": 0,
    "attack_slash": 0,
    "attack_crush": 0,
    "attack_magic": 0,
    "attack_ranged": 0,
    "defence_stab": 0,
    "defence_slash": 0,
    "defence_crush": 0,
    "defence_magic": 0,
    "defence_ranged": 0,
    "attack_accuracy": 0,
    "melee_strength": 0,
    "ranged_strength": 0,
    "magic_damage": 0,
    "drops": {
        "526": {
            "id": 526,
            "name": "Bones",
            "members": false,
            "quantity": "1",
            "noted": false,
            "rarity": "1/1",
            "drop_requirements": null
        },
        "1033": {
            "id": 1033,
            "name": "Zamorak monk bottom",
            "members": false,
            "quantity": "1",
            "noted": false,
            "rarity": "1/20",
            "drop_requirements": null
        },
        "1035": {
            "id": 1035,
            "name": "Zamorak monk top",
            "members": false,
            "quantity": "1",
            "noted": false,
            "rarity": "1/20",
            "drop_requirements": null
        },
        "2944": {
            "id": 2944,
            "name": "Golden key",
            "members": true,
            "quantity": "1",
            "noted": false,
            "rarity": "1/1",
            "drop_requirements": null
        },
        "11941": {
            "id": 11941,
            "name": "Looting bag",
            "members": true,
            "quantity": "1",
            "noted": false,
            "rarity": "1/13",
            "drop_requirements": null
        }
    },
    "rare_drop_table": false
}