{
    "id": 3609,
    "name": "Dungeon rat",
    "incomplete": false,
    "members": true,
    "release_date": "2002-06-17",
    "combat_level": 12,
    "size": 1,
    "hitpoints": 12,
    "max_hit": 2,
    "attack_type": [
        "stab"
    ],
    "attack_speed": 4,
    "aggressive": false,
    "poisonous": false,
    "immune_poison": false,
    "immune_venom": false,
    "weakness": [
        "magic"
    ],
    "slayer_monster": true,
    "slayer_level": 1,
    "slayer_xp": 12.0,
    "slayer_masters": [
        "turael"
    ],
    "duplicate": true,
    "examine": "A dirty rat.",
    "wiki_name": "Dungeon rat (Small)",
    "wiki_url": "https://oldschool.runescape.wiki/w/Dungeon_rat#Small",
    "attack_level": 10,
    "strength_level": 10,
    "defence_level": 10,
    "magic_level": 1,
    "ranged_level": 1,
    "attack_stab": 0,
    "attack_slash": 0,
    "attack_crush": 0,
    "attack_magic": 0,
    "attack_ranged": 0,
    "defence_stab": 0,
    "defence_slash": 0,
    "defence_crush": 0,
    "defence_magic": 0,
    "defence_ranged": 0,
    "attack_accuracy": 0,
    "melee_strength": 0,
    "ranged_strength": 0,
    "magic_damage": 0,
    "drops": {
        "526": {
            "id": 526,
            "name": "Bones",
            "members": true,
            "quantity": "1",
            "noted": false,
            "rarity": "1/1",
            "drop_requirements": null
        },
        "2134": {
            "id": 2134,
            "name": "Raw rat meat",
            "members": true,
            "quantity": "1",
            "noted": false,
            "rarity": "1/1",
            "drop_requirements": null
        },
        "7824": {
            "id": 7824,
            "name": "Giant rat bone",
            "members": true,
            "quantity": "1",
            "noted": false,
            "rarity": "1/1",
            "drop_requirements": null
        },
        "23182": {
            "id": 23182,
            "name": "Clue scroll (beginner)",
            "members": true,
            "quantity": "1",
            "noted": false,
            "rarity": "1/128",
            "drop_requirements": null
        }
    },
    "rare_drop_table": false
}