{
    "id": 3616,
    "name": "Treus Dayth",
    "incomplete": true,
    "members": true,
    "release_date": "2004-12-21",
    "combat_level": 95,
    "size": 1,
    "hitpoints": 100,
    "max_hit": 15,
    "attack_type": [
        "melee",
        "ranged",
        "ranged"
    ],
    "attack_speed": 4,
    "aggressive": true,
    "poisonous": false,
    "immune_poison": false,
    "immune_venom": false,
    "weakness": [
        "magic"
    ],
    "slayer_monster": true,
    "slayer_level": 1,
    "slayer_xp": 100.0,
    "slayer_masters": [],
    "duplicate": false,
    "examine": "Eek! A big ghost!",
    "wiki_name": "Treus Dayth (Normal)",
    "wiki_url": "https://oldschool.runescape.wiki/w/Treus_Dayth#Normal",
    "attack_level": 70,
    "strength_level": 70,
    "defence_level": 100,
    "magic_level": 1,
    "ranged_level": 1,
    "attack_stab": 0,
    "attack_slash": 0,
    "attack_crush": 0,
    "attack_magic": 0,
    "attack_ranged": 0,
    "defence_stab": 5,
    "defence_slash": 5,
    "defence_crush": 5,
    "defence_magic": -5,
    "defence_ranged": 5,
    "attack_accuracy": 0,
    "melee_strength": 0,
    "ranged_strength": 0,
    "magic_damage": 0,
    "drops": {},
    "rare_drop_table": false
}