{
    "id": 3693,
    "name": "Vampyre Juvenile",
    "incomplete": false,
    "members": true,
    "release_date": "2006-09-04",
    "combat_level": 45,
    "size": 1,
    "hitpoints": 60,
    "max_hit": 4,
    "attack_type": [
        "crush"
    ],
    "attack_speed": 4,
    "aggressive": false,
    "poisonous": false,
    "immune_poison": false,
    "immune_venom": false,
    "weakness": [
        "ranged",
        "magic"
    ],
    "slayer_monster": true,
    "slayer_level": 1,
    "slayer_xp": 60.0,
    "slayer_masters": [
        "mazchna",
        "vannaka"
    ],
    "duplicate": true,
    "examine": "A juvenile vampyre.",
    "wiki_name": "Vampyre Juvenile (Meiyerditch)",
    "wiki_url": "https://oldschool.runescape.wiki/w/Vampyre_Juvenile#Meiyerditch",
    "attack_level": 40,
    "strength_level": 30,
    "defence_level": 30,
    "magic_level": 1,
    "ranged_level": 1,
    "attack_stab": 0,
    "attack_slash": 0,
    "attack_crush": 0,
    "attack_magic": 0,
    "attack_ranged": 0,
    "defence_stab": 0,
    "defence_slash": 0,
    "defence_crush": 0,
    "defence_magic": 0,
    "defence_ranged": 0,
    "attack_accuracy": 0,
    "melee_strength": 0,
    "ranged_strength": 0,
    "magic_damage": 0,
    "drops": {
        "3325": {
            "id": 3325,
            "name": "Vampyre dust",
            "members": true,
            "quantity": "1",
            "noted": false,
            "rarity": "1/1",
            "drop_requirements": null
        }
    },
    "rare_drop_table": false
}