{
    "id": 3971,
    "name": "Zombie rat",
    "incomplete": false,
    "members": false,
    "release_date": "2001-09-23",
    "combat_level": 3,
    "size": 1,
    "hitpoints": 5,
    "max_hit": 1,
    "attack_type": [
        "stab"
    ],
    "attack_speed": 4,
    "aggressive": false,
    "poisonous": false,
    "immune_poison": false,
    "immune_venom": false,
    "weakness": [],
    "slayer_monster": true,
    "slayer_level": 1,
    "slayer_xp": 2.0,
    "slayer_masters": [
        "turael"
    ],
    "duplicate": false,
    "examine": "Overgrown undead vermin.",
    "wiki_name": "Zombie rat (3)",
    "wiki_url": "https://oldschool.runescape.wiki/w/Zombie_rat#3",
    "attack_level": 2,
    "strength_level": 3,
    "defence_level": 2,
    "magic_level": 1,
    "ranged_level": 1,
    "attack_stab": 0,
    "attack_slash": 0,
    "attack_crush": 0,
    "attack_magic": 0,
    "attack_ranged": 0,
    "defence_stab": 0,
    "defence_slash": 0,
    "defence_crush": 0,
    "defence_magic": 0,
    "defence_ranged": 0,
    "attack_accuracy": 0,
    "melee_strength": 0,
    "ranged_strength": 0,
    "magic_damage": 0,
    "drops": {
        "526": {
            "id": 526,
            "name": "Bones",
            "members": false,
            "quantity": "1",
            "noted": false,
            "rarity": "1/1",
            "drop_requirements": null
        }
    },
    "rare_drop_table": false
}