{
    "id": 3973,
    "name": "Skeleton",
    "incomplete": false,
    "members": false,
    "release_date": "2001-09-23",
    "combat_level": 22,
    "size": 1,
    "hitpoints": 29,
    "max_hit": 3,
    "attack_type": [
        "slash"
    ],
    "attack_speed": 4,
    "aggressive": true,
    "poisonous": false,
    "immune_poison": false,
    "immune_venom": false,
    "weakness": [
        "crush",
        "crumble undead"
    ],
    "slayer_monster": true,
    "slayer_level": 1,
    "slayer_xp": 29.0,
    "slayer_masters": [
        "turael",
        "mazchna"
    ],
    "duplicate": true,
    "examine": "Could do with gaining a few pounds.",
    "wiki_name": "Skeleton (Melzar's Maze)",
    "wiki_url": "https://oldschool.runescape.wiki/w/Skeleton_(Melzar's_Maze)",
    "attack_level": 15,
    "strength_level": 18,
    "defence_level": 17,
    "magic_level": 1,
    "ranged_level": 1,
    "attack_stab": 0,
    "attack_slash": 0,
    "attack_crush": 0,
    "attack_magic": 0,
    "attack_ranged": 0,
    "defence_stab": 9,
    "defence_slash": 11,
    "defence_crush": -2,
    "defence_magic": 1,
    "defence_ranged": 4,
    "attack_accuracy": 15,
    "melee_strength": 14,
    "ranged_strength": 0,
    "magic_damage": 0,
    "drops": {
        "526": {
            "id": 526,
            "name": "Bones",
            "members": false,
            "quantity": "1",
            "noted": false,
            "rarity": "1/1",
            "drop_requirements": null
        }
    },
    "rare_drop_table": false
}