{
    "id": 3998,
    "name": "Witch's experiment (third form)",
    "incomplete": true,
    "members": true,
    "release_date": "2002-02-27",
    "combat_level": 42,
    "size": 2,
    "hitpoints": 41,
    "max_hit": 4,
    "attack_type": [
        "slash"
    ],
    "attack_speed": 4,
    "aggressive": true,
    "poisonous": false,
    "immune_poison": false,
    "immune_venom": false,
    "weakness": [
        "magic"
    ],
    "slayer_monster": false,
    "slayer_level": null,
    "slayer_xp": null,
    "slayer_masters": [],
    "duplicate": false,
    "examine": "Looks unnatural.",
    "wiki_name": "Witch's experiment (Bear)",
    "wiki_url": "https://oldschool.runescape.wiki/w/Witch's_experiment#Bear",
    "attack_level": 38,
    "strength_level": 30,
    "defence_level": 39,
    "magic_level": 1,
    "ranged_level": 1,
    "attack_stab": 0,
    "attack_slash": 0,
    "attack_crush": 0,
    "attack_magic": 0,
    "attack_ranged": 0,
    "defence_stab": 0,
    "defence_slash": 0,
    "defence_crush": 0,
    "defence_magic": 0,
    "defence_ranged": 0,
    "attack_accuracy": 0,
    "melee_strength": 0,
    "ranged_strength": 0,
    "magic_damage": 0,
    "drops": {},
    "rare_drop_table": false
}