{
    "id": 4052,
    "name": "Pirate",
    "incomplete": true,
    "members": true,
    "release_date": "2006-02-07",
    "combat_level": 57,
    "size": 1,
    "hitpoints": 0,
    "max_hit": 0,
    "attack_type": [
        "slash"
    ],
    "attack_speed": 0,
    "aggressive": false,
    "poisonous": false,
    "immune_poison": false,
    "immune_venom": false,
    "weakness": [
        "magic"
    ],
    "slayer_monster": false,
    "slayer_level": null,
    "slayer_xp": null,
    "slayer_masters": [],
    "duplicate": true,
    "examine": "",
    "wiki_name": "Pirate (Cabin Fever)",
    "wiki_url": "https://oldschool.runescape.wiki/w/Pirate#Cabin_Fever",
    "attack_level": 0,
    "strength_level": 0,
    "defence_level": 0,
    "magic_level": 0,
    "ranged_level": 0,
    "attack_stab": 0,
    "attack_slash": 0,
    "attack_crush": 0,
    "attack_magic": 0,
    "attack_ranged": 0,
    "defence_stab": 0,
    "defence_slash": 0,
    "defence_crush": 0,
    "defence_magic": 0,
    "defence_ranged": 0,
    "attack_accuracy": 0,
    "melee_strength": 0,
    "ranged_strength": 0,
    "magic_damage": 0,
    "drops": {
        "526": {
            "id": 526,
            "name": "Bones",
            "members": true,
            "quantity": "1",
            "noted": false,
            "rarity": "1/1",
            "drop_requirements": null
        },
        "554": {
            "id": 554,
            "name": "Fire rune",
            "members": true,
            "quantity": "5",
            "noted": false,
            "rarity": "2/128",
            "drop_requirements": null
        },
        "556": {
            "id": 556,
            "name": "Air rune",
            "members": true,
            "quantity": "10",
            "noted": false,
            "rarity": "2/128",
            "drop_requirements": null
        },
        "557": {
            "id": 557,
            "name": "Earth rune",
            "members": true,
            "quantity": "9",
            "noted": false,
            "rarity": "2/128",
            "drop_requirements": null
        },
        "561": {
            "id": 561,
            "name": "Nature rune",
            "members": true,
            "quantity": "2",
            "noted": false,
            "rarity": "5/128",
            "drop_requirements": null
        },
        "562": {
            "id": 562,
            "name": "Chaos rune",
            "members": true,
            "quantity": "2",
            "noted": false,
            "rarity": "6/128",
            "drop_requirements": null
        },
        "563": {
            "id": 563,
            "name": "Law rune",
            "members": true,
            "quantity": "2",
            "noted": false,
            "rarity": "1/128",
            "drop_requirements": null
        },
        "617": {
            "id": 617,
            "name": "Coins",
            "members": true,
            "quantity": "55",
            "noted": false,
            "rarity": "1/128",
            "drop_requirements": null
        },
        "882": {
            "id": 882,
            "name": "Bronze arrow",
            "members": true,
            "quantity": "12",
            "noted": false,
            "rarity": "2/128",
            "drop_requirements": null
        },
        "1025": {
            "id": 1025,
            "name": "Right eye patch",
            "members": true,
            "quantity": "1",
            "noted": false,
            "rarity": "12/128",
            "drop_requirements": null
        },
        "1115": {
            "id": 1115,
            "name": "Iron platebody",
            "members": true,
            "quantity": "1",
            "noted": false,
            "rarity": "1/128",
            "drop_requirements": null
        },
        "1203": {
            "id": 1203,
            "name": "Iron dagger",
            "members": true,
            "quantity": "1",
            "noted": false,
            "rarity": "6/128",
            "drop_requirements": null
        },
        "1321": {
            "id": 1321,
            "name": "Bronze scimitar",
            "members": true,
            "quantity": "1",
            "noted": false,
            "rarity": "4/128",
            "drop_requirements": null
        },
        "1949": {
            "id": 1949,
            "name": "Chef's hat",
            "members": true,
            "quantity": "1",
            "noted": false,
            "rarity": "1/128",
            "drop_requirements": null
        },
        "2351": {
            "id": 2351,
            "name": "Iron bar",
            "members": true,
            "quantity": "1",
            "noted": false,
            "rarity": "1/128",
            "drop_requirements": null
        },
        "2832": {
            "id": 2832,
            "name": "Key (medium)",
            "members": true,
            "quantity": "1",
            "noted": false,
            "rarity": "1/1",
            "drop_requirements": null
        },
        "9140": {
            "id": 9140,
            "name": "Iron bolts",
            "members": true,
            "quantity": "2-12",
            "noted": false,
            "rarity": "10/128",
            "drop_requirements": null
        },
        "11941": {
            "id": 11941,
            "name": "Looting bag",
            "members": true,
            "quantity": "1",
            "noted": false,
            "rarity": "1/11",
            "drop_requirements": null
        }
    },
    "rare_drop_table": true
}