{
    "id": 411,
    "name": "Kurask",
    "incomplete": false,
    "members": true,
    "release_date": "2005-01-26",
    "combat_level": 106,
    "size": 3,
    "hitpoints": 97,
    "max_hit": 11,
    "attack_type": [
        "crush"
    ],
    "attack_speed": 4,
    "aggressive": true,
    "poisonous": false,
    "immune_poison": false,
    "immune_venom": false,
    "weakness": [
        "stab",
        "magic",
        "leaf-bladed",
        "broad-ammunition"
    ],
    "slayer_monster": true,
    "slayer_level": 70,
    "slayer_xp": 97.0,
    "slayer_masters": [
        "vannaka",
        "chaeldar",
        "konar",
        "nieve",
        "duradel"
    ],
    "duplicate": true,
    "examine": "Large, heavy, with sharp things attached to its head.",
    "wiki_name": "Kurask",
    "wiki_url": "https://oldschool.runescape.wiki/w/Kurask",
    "attack_level": 67,
    "strength_level": 105,
    "defence_level": 105,
    "magic_level": 1,
    "ranged_level": 1,
    "attack_stab": 0,
    "attack_slash": 0,
    "attack_crush": 0,
    "attack_magic": 0,
    "attack_ranged": 0,
    "defence_stab": 0,
    "defence_slash": 20,
    "defence_crush": 20,
    "defence_magic": 0,
    "defence_ranged": 0,
    "attack_accuracy": 0,
    "melee_strength": 0,
    "ranged_strength": 0,
    "magic_damage": 0,
    "drops": {
        "239": {
            "id": 239,
            "name": "White berries",
            "members": true,
            "quantity": "12",
            "noted": true,
            "rarity": "6/124",
            "drop_requirements": null
        },
        "526": {
            "id": 526,
            "name": "Bones",
            "members": true,
            "quantity": "1",
            "noted": false,
            "rarity": "1/1",
            "drop_requirements": null
        },
        "532": {
            "id": 532,
            "name": "Big bones",
            "members": true,
            "quantity": "20",
            "noted": true,
            "rarity": "5/124",
            "drop_requirements": null
        },
        "561": {
            "id": 561,
            "name": "Nature rune",
            "members": true,
            "quantity": "30",
            "noted": false,
            "rarity": "4/124",
            "drop_requirements": null
        },
        "617": {
            "id": 617,
            "name": "Coins",
            "members": true,
            "quantity": "10000",
            "noted": false,
            "rarity": "5/124",
            "drop_requirements": null
        },
        "1123": {
            "id": 1123,
            "name": "Adamant platebody",
            "members": true,
            "quantity": "1",
            "noted": false,
            "rarity": "3/124",
            "drop_requirements": null
        },
        "1197": {
            "id": 1197,
            "name": "Mithril kiteshield",
            "members": true,
            "quantity": "1",
            "noted": false,
            "rarity": "3/124",
            "drop_requirements": null
        },
        "1303": {
            "id": 1303,
            "name": "Rune longsword",
            "members": true,
            "quantity": "1",
            "noted": false,
            "rarity": "3/124",
            "drop_requirements": null
        },
        "1359": {
            "id": 1359,
            "name": "Rune axe",
            "members": true,
            "quantity": "1",
            "noted": false,
            "rarity": "3/124",
            "drop_requirements": null
        },
        "1779": {
            "id": 1779,
            "name": "Flax",
            "members": true,
            "quantity": "100",
            "noted": true,
            "rarity": "6/124",
            "drop_requirements": null
        },
        "2722": {
            "id": 2722,
            "name": "Clue scroll (hard)",
            "members": true,
            "quantity": "1",
            "noted": false,
            "rarity": "1/128",
            "drop_requirements": null
        },
        "4111": {
            "id": 4111,
            "name": "Mystic robe top (light)",
            "members": true,
            "quantity": "1",
            "noted": false,
            "rarity": "1/512",
            "drop_requirements": null
        },
        "5100": {
            "id": 5100,
            "name": "Limpwurt seed",
            "members": true,
            "quantity": "1",
            "noted": false,
            "rarity": "6/124",
            "drop_requirements": null
        },
        "5972": {
            "id": 5972,
            "name": "Papaya fruit",
            "members": true,
            "quantity": "10",
            "noted": true,
            "rarity": "4/124",
            "drop_requirements": null
        },
        "5974": {
            "id": 5974,
            "name": "Coconut",
            "members": true,
            "quantity": "10",
            "noted": true,
            "rarity": "4/124",
            "drop_requirements": null
        },
        "7978": {
            "id": 7978,
            "name": "Kurask head",
            "members": true,
            "quantity": "1",
            "noted": false,
            "rarity": "1/3000",
            "drop_requirements": null
        },
        "11902": {
            "id": 11902,
            "name": "Leaf-bladed sword",
            "members": true,
            "quantity": "1",
            "noted": false,
            "rarity": "1/384",
            "drop_requirements": null
        },
        "20727": {
            "id": 20727,
            "name": "Leaf-bladed battleaxe",
            "members": true,
            "quantity": "1",
            "noted": false,
            "rarity": "1/1026",
            "drop_requirements": null
        },
        "23083": {
            "id": 23083,
            "name": "Brimstone key",
            "members": true,
            "quantity": "1",
            "noted": false,
            "rarity": "1/98.8",
            "drop_requirements": null
        },
        "23962": {
            "id": 23962,
            "name": "Crystal shard",
            "members": true,
            "quantity": "1",
            "noted": false,
            "rarity": "1/8",
            "drop_requirements": null
        }
    },
    "rare_drop_table": true
}