{
    "id": 4186,
    "name": "Locust",
    "incomplete": true,
    "members": true,
    "release_date": "2005-04-26",
    "combat_level": 18,
    "size": 1,
    "hitpoints": 27,
    "max_hit": 3,
    "attack_type": [
        "crush"
    ],
    "attack_speed": 4,
    "aggressive": true,
    "poisonous": false,
    "immune_poison": false,
    "immune_venom": false,
    "weakness": [],
    "slayer_monster": false,
    "slayer_level": null,
    "slayer_xp": null,
    "slayer_masters": [],
    "duplicate": false,
    "examine": "Obnoxious, overgrown insect.",
    "wiki_name": "Locust",
    "wiki_url": "https://oldschool.runescape.wiki/w/Locust",
    "attack_level": 17,
    "strength_level": 18,
    "defence_level": 1,
    "magic_level": 1,
    "ranged_level": 1,
    "attack_stab": 0,
    "attack_slash": 0,
    "attack_crush": 0,
    "attack_magic": 0,
    "attack_ranged": 0,
    "defence_stab": 0,
    "defence_slash": 0,
    "defence_crush": 0,
    "defence_magic": 0,
    "defence_ranged": 0,
    "attack_accuracy": 0,
    "melee_strength": 0,
    "ranged_strength": 0,
    "magic_damage": 0,
    "drops": {
        "9052": {
            "id": 9052,
            "name": "Locust meat",
            "members": true,
            "quantity": "1",
            "noted": false,
            "rarity": "1/1",
            "drop_requirements": null
        }
    },
    "rare_drop_table": false
}