{
    "id": 4192,
    "name": "Scarab swarm",
    "incomplete": false,
    "members": true,
    "release_date": "2005-04-26",
    "combat_level": 98,
    "size": 1,
    "hitpoints": 25,
    "max_hit": 1,
    "attack_type": [
        "slash"
    ],
    "attack_speed": 1,
    "aggressive": true,
    "poisonous": false,
    "immune_poison": false,
    "immune_venom": false,
    "weakness": [
        "crush",
        "keris"
    ],
    "slayer_monster": true,
    "slayer_level": 1,
    "slayer_xp": 1.0,
    "slayer_masters": [
        "nieve"
    ],
    "duplicate": true,
    "examine": "I think they're some kind of beetle...",
    "wiki_name": "Scarab swarm",
    "wiki_url": "https://oldschool.runescape.wiki/w/Scarab_swarm",
    "attack_level": 255,
    "strength_level": 5,
    "defence_level": 30,
    "magic_level": 1,
    "ranged_level": 1,
    "attack_stab": 0,
    "attack_slash": 0,
    "attack_crush": 0,
    "attack_magic": 0,
    "attack_ranged": 0,
    "defence_stab": 90,
    "defence_slash": 90,
    "defence_crush": 5,
    "defence_magic": 90,
    "defence_ranged": 90,
    "attack_accuracy": 0,
    "melee_strength": 0,
    "ranged_strength": 0,
    "magic_damage": 0,
    "drops": {},
    "rare_drop_table": false
}