{
    "id": 4195,
    "name": "Het",
    "incomplete": true,
    "members": true,
    "release_date": "2005-04-26",
    "combat_level": 81,
    "size": 1,
    "hitpoints": 0,
    "max_hit": 9,
    "attack_type": [
        "slash",
        "magic"
    ],
    "attack_speed": 4,
    "aggressive": true,
    "poisonous": false,
    "immune_poison": false,
    "immune_venom": false,
    "weakness": [
        "melee"
    ],
    "slayer_monster": false,
    "slayer_level": null,
    "slayer_xp": null,
    "slayer_masters": [],
    "duplicate": false,
    "examine": "Guardian of the liver. Guess he doesn't drink.",
    "wiki_name": "Het (monster)",
    "wiki_url": "https://oldschool.runescape.wiki/w/Het_(monster)",
    "attack_level": 0,
    "strength_level": 0,
    "defence_level": 0,
    "magic_level": 0,
    "ranged_level": 0,
    "attack_stab": 0,
    "attack_slash": 0,
    "attack_crush": 0,
    "attack_magic": 0,
    "attack_ranged": 0,
    "defence_stab": 0,
    "defence_slash": 0,
    "defence_crush": 0,
    "defence_magic": 0,
    "defence_ranged": 0,
    "attack_accuracy": 0,
    "melee_strength": 0,
    "ranged_strength": 0,
    "magic_damage": 0,
    "drops": {
        "526": {
            "id": 526,
            "name": "Bones",
            "members": true,
            "quantity": "1",
            "noted": false,
            "rarity": "1/1",
            "drop_requirements": null
        }
    },
    "rare_drop_table": false
}