{
    "id": 4278,
    "name": "Jail guard",
    "incomplete": true,
    "members": false,
    "release_date": "2001-02-28",
    "combat_level": 26,
    "size": 1,
    "hitpoints": 32,
    "max_hit": 3,
    "attack_type": [
        "crush"
    ],
    "attack_speed": 5,
    "aggressive": true,
    "poisonous": false,
    "immune_poison": false,
    "immune_venom": false,
    "weakness": [
        "magic"
    ],
    "slayer_monster": false,
    "slayer_level": null,
    "slayer_xp": null,
    "slayer_masters": [],
    "duplicate": true,
    "examine": "I wonder who he's guarding?",
    "wiki_name": "Jail guard",
    "wiki_url": "https://oldschool.runescape.wiki/w/Jail_guard",
    "attack_level": 19,
    "strength_level": 23,
    "defence_level": 21,
    "magic_level": 1,
    "ranged_level": 1,
    "attack_stab": 0,
    "attack_slash": 0,
    "attack_crush": 0,
    "attack_magic": 0,
    "attack_ranged": 0,
    "defence_stab": 8,
    "defence_slash": 9,
    "defence_crush": 10,
    "defence_magic": 4,
    "defence_ranged": 9,
    "attack_accuracy": 9,
    "melee_strength": 5,
    "ranged_strength": 0,
    "magic_damage": 0,
    "drops": {
        "526": {
            "id": 526,
            "name": "Bones",
            "members": false,
            "quantity": "1",
            "noted": false,
            "rarity": "1/1",
            "drop_requirements": null
        }
    },
    "rare_drop_table": false
}