{
    "id": 431,
    "name": "Turoth",
    "incomplete": false,
    "members": true,
    "release_date": "2005-01-26",
    "combat_level": 88,
    "size": 2,
    "hitpoints": 76,
    "max_hit": 10,
    "attack_type": [
        "melee"
    ],
    "attack_speed": 4,
    "aggressive": false,
    "poisonous": false,
    "immune_poison": false,
    "immune_venom": false,
    "weakness": [
        "magic",
        "leaf-bladed",
        "broad-ammunition"
    ],
    "slayer_monster": true,
    "slayer_level": 55,
    "slayer_xp": 76.0,
    "slayer_masters": [
        "vannaka",
        "chaeldar",
        "konar",
        "nieve"
    ],
    "duplicate": false,
    "examine": "It's one small leg short!",
    "wiki_name": "Turoth (Level 83)",
    "wiki_url": "https://oldschool.runescape.wiki/w/Turoth#Level_83",
    "attack_level": 53,
    "strength_level": 83,
    "defence_level": 83,
    "magic_level": 1,
    "ranged_level": 1,
    "attack_stab": 0,
    "attack_slash": 0,
    "attack_crush": 0,
    "attack_magic": 0,
    "attack_ranged": 0,
    "defence_stab": 0,
    "defence_slash": 20,
    "defence_crush": 20,
    "defence_magic": 0,
    "defence_ranged": 0,
    "attack_accuracy": 0,
    "melee_strength": 0,
    "ranged_strength": 0,
    "magic_damage": 0,
    "drops": {
        "225": {
            "id": 225,
            "name": "Limpwurt root",
            "members": true,
            "quantity": "1",
            "noted": false,
            "rarity": "7/128",
            "drop_requirements": null
        },
        "526": {
            "id": 526,
            "name": "Bones",
            "members": true,
            "quantity": "1",
            "noted": false,
            "rarity": "1/1",
            "drop_requirements": null
        },
        "561": {
            "id": 561,
            "name": "Nature rune",
            "members": true,
            "quantity": "37",
            "noted": false,
            "rarity": "1/128",
            "drop_requirements": null
        },
        "563": {
            "id": 563,
            "name": "Law rune",
            "members": true,
            "quantity": "3",
            "noted": false,
            "rarity": "6/128",
            "drop_requirements": null
        },
        "617": {
            "id": 617,
            "name": "Coins",
            "members": true,
            "quantity": "440",
            "noted": false,
            "rarity": "1/128",
            "drop_requirements": null
        },
        "1069": {
            "id": 1069,
            "name": "Steel platelegs",
            "members": true,
            "quantity": "1",
            "noted": false,
            "rarity": "7/128",
            "drop_requirements": null
        },
        "1161": {
            "id": 1161,
            "name": "Adamant full helm",
            "members": true,
            "quantity": "1",
            "noted": false,
            "rarity": "1/128",
            "drop_requirements": null
        },
        "1197": {
            "id": 1197,
            "name": "Mithril kiteshield",
            "members": true,
            "quantity": "1",
            "noted": false,
            "rarity": "1/128",
            "drop_requirements": null
        },
        "1213": {
            "id": 1213,
            "name": "Rune dagger",
            "members": true,
            "quantity": "1",
            "noted": false,
            "rarity": "1/128",
            "drop_requirements": null
        },
        "1355": {
            "id": 1355,
            "name": "Mithril axe",
            "members": true,
            "quantity": "1",
            "noted": false,
            "rarity": "3/128",
            "drop_requirements": null
        },
        "2722": {
            "id": 2722,
            "name": "Clue scroll (hard)",
            "members": true,
            "quantity": "1",
            "noted": false,
            "rarity": "1/128",
            "drop_requirements": null
        },
        "4113": {
            "id": 4113,
            "name": "Mystic robe bottom (light)",
            "members": true,
            "quantity": "1",
            "noted": false,
            "rarity": "1/512",
            "drop_requirements": null
        },
        "11902": {
            "id": 11902,
            "name": "Leaf-bladed sword",
            "members": true,
            "quantity": "1",
            "noted": false,
            "rarity": "1/500",
            "drop_requirements": null
        },
        "23083": {
            "id": 23083,
            "name": "Brimstone key",
            "members": true,
            "quantity": "1",
            "noted": false,
            "rarity": "1/124.2",
            "drop_requirements": null
        }
    },
    "rare_drop_table": false
}