{
    "id": 4315,
    "name": "Sea Troll Queen",
    "incomplete": true,
    "members": true,
    "release_date": "2006-05-02",
    "combat_level": 170,
    "size": 5,
    "hitpoints": 200,
    "max_hit": 0,
    "attack_type": [
        "crush",
        "magic"
    ],
    "attack_speed": 4,
    "aggressive": true,
    "poisonous": false,
    "immune_poison": false,
    "immune_venom": false,
    "weakness": [
        "stab",
        "ranged"
    ],
    "slayer_monster": false,
    "slayer_level": null,
    "slayer_xp": null,
    "slayer_masters": [],
    "duplicate": false,
    "examine": "The mother of all sea trolls!",
    "wiki_name": "Sea Troll Queen",
    "wiki_url": "https://oldschool.runescape.wiki/w/Sea_Troll_Queen",
    "attack_level": 100,
    "strength_level": 70,
    "defence_level": 100,
    "magic_level": 150,
    "ranged_level": 1,
    "attack_stab": 0,
    "attack_slash": 0,
    "attack_crush": 0,
    "attack_magic": 0,
    "attack_ranged": 0,
    "defence_stab": 20,
    "defence_slash": 40,
    "defence_crush": 40,
    "defence_magic": 40,
    "defence_ranged": 0,
    "attack_accuracy": 100,
    "melee_strength": 40,
    "ranged_strength": 0,
    "magic_damage": 0,
    "drops": {},
    "rare_drop_table": false
}