{
    "id": 4504,
    "name": "Giant bat",
    "incomplete": false,
    "members": true,
    "release_date": "2002-02-27",
    "combat_level": 27,
    "size": 1,
    "hitpoints": 32,
    "max_hit": 3,
    "attack_type": [
        "melee"
    ],
    "attack_speed": 4,
    "aggressive": true,
    "poisonous": false,
    "immune_poison": false,
    "immune_venom": false,
    "weakness": [
        "stab",
        "ranged"
    ],
    "slayer_monster": true,
    "slayer_level": 1,
    "slayer_xp": 32.0,
    "slayer_masters": [
        "turael",
        "mazchna"
    ],
    "duplicate": true,
    "examine": "An annoying flappy thing.",
    "wiki_name": "Giant bat",
    "wiki_url": "https://oldschool.runescape.wiki/w/Giant_bat",
    "attack_level": 22,
    "strength_level": 22,
    "defence_level": 22,
    "magic_level": 1,
    "ranged_level": 1,
    "attack_stab": 0,
    "attack_slash": 0,
    "attack_crush": 0,
    "attack_magic": 0,
    "attack_ranged": 0,
    "defence_stab": 10,
    "defence_slash": 10,
    "defence_crush": 12,
    "defence_magic": 10,
    "defence_ranged": 8,
    "attack_accuracy": 0,
    "melee_strength": 0,
    "ranged_strength": 0,
    "magic_damage": 0,
    "drops": {
        "530": {
            "id": 530,
            "name": "Bat bones",
            "members": true,
            "quantity": "1",
            "noted": false,
            "rarity": "1/1",
            "drop_requirements": null
        },
        "7827": {
            "id": 7827,
            "name": "Giant bat wing",
            "members": true,
            "quantity": "1",
            "noted": false,
            "rarity": "1/1",
            "drop_requirements": null
        },
        "11941": {
            "id": 11941,
            "name": "Looting bag",
            "members": true,
            "quantity": "1",
            "noted": false,
            "rarity": "1/11",
            "drop_requirements": null
        }
    },
    "rare_drop_table": false
}