{
    "id": 4535,
    "name": "Blessed giant rat",
    "incomplete": false,
    "members": true,
    "release_date": "2003-03-03",
    "combat_level": 9,
    "size": 2,
    "hitpoints": 30,
    "max_hit": 1,
    "attack_type": [
        "stab"
    ],
    "attack_speed": 4,
    "aggressive": false,
    "poisonous": false,
    "immune_poison": false,
    "immune_venom": false,
    "weakness": [],
    "slayer_monster": true,
    "slayer_level": 1,
    "slayer_xp": 30.0,
    "slayer_masters": [
        "turael"
    ],
    "duplicate": true,
    "examine": "It's one of Iban's pet vermin.",
    "wiki_name": "Blessed giant rat",
    "wiki_url": "https://oldschool.runescape.wiki/w/Blessed_giant_rat",
    "attack_level": 5,
    "strength_level": 1,
    "defence_level": 1,
    "magic_level": 1,
    "ranged_level": 1,
    "attack_stab": 0,
    "attack_slash": 0,
    "attack_crush": 0,
    "attack_magic": 0,
    "attack_ranged": 0,
    "defence_stab": -24,
    "defence_slash": -24,
    "defence_crush": -24,
    "defence_magic": -24,
    "defence_ranged": -24,
    "attack_accuracy": 0,
    "melee_strength": -24,
    "ranged_strength": 0,
    "magic_damage": 0,
    "drops": {
        "526": {
            "id": 526,
            "name": "Bones",
            "members": true,
            "quantity": "1",
            "noted": false,
            "rarity": "1/1",
            "drop_requirements": null
        }
    },
    "rare_drop_table": false
}