{
    "id": 4594,
    "name": "Rat",
    "incomplete": false,
    "members": false,
    "release_date": "2001-01-04",
    "combat_level": 0,
    "size": 1,
    "hitpoints": 2,
    "max_hit": 1,
    "attack_type": [
        "melee"
    ],
    "attack_speed": 4,
    "aggressive": false,
    "poisonous": false,
    "immune_poison": false,
    "immune_venom": false,
    "weakness": [],
    "slayer_monster": true,
    "slayer_level": 1,
    "slayer_xp": 2.0,
    "slayer_masters": [
        "turael"
    ],
    "duplicate": false,
    "examine": "A popular dwarven delicacy.",
    "wiki_name": "Rat (Lv 1)",
    "wiki_url": "https://oldschool.runescape.wiki/w/Rat#Lv_1",
    "attack_level": 1,
    "strength_level": 0,
    "defence_level": 0,
    "magic_level": 0,
    "ranged_level": 0,
    "attack_stab": 0,
    "attack_slash": 0,
    "attack_crush": 0,
    "attack_magic": 0,
    "attack_ranged": 0,
    "defence_stab": 0,
    "defence_slash": 0,
    "defence_crush": 0,
    "defence_magic": 0,
    "defence_ranged": 0,
    "attack_accuracy": 0,
    "melee_strength": 0,
    "ranged_strength": 0,
    "magic_damage": 0,
    "drops": {
        "300": {
            "id": 300,
            "name": "Rat's tail",
            "members": false,
            "quantity": "1",
            "noted": false,
            "rarity": "1/1",
            "drop_requirements": null
        },
        "526": {
            "id": 526,
            "name": "Bones",
            "members": false,
            "quantity": "1",
            "noted": false,
            "rarity": "1/1",
            "drop_requirements": null
        },
        "7836": {
            "id": 7836,
            "name": "Rat bone",
            "members": true,
            "quantity": "1",
            "noted": false,
            "rarity": "1/4",
            "drop_requirements": null
        },
        "11941": {
            "id": 11941,
            "name": "Looting bag",
            "members": true,
            "quantity": "1",
            "noted": false,
            "rarity": "1/30",
            "drop_requirements": null
        }
    },
    "rare_drop_table": false
}