{
    "id": 460,
    "name": "Desert Lizard",
    "incomplete": false,
    "members": true,
    "release_date": "2005-10-24",
    "combat_level": 24,
    "size": 2,
    "hitpoints": 25,
    "max_hit": 3,
    "attack_type": [
        "crush"
    ],
    "attack_speed": 4,
    "aggressive": false,
    "poisonous": false,
    "immune_poison": false,
    "immune_venom": false,
    "weakness": [
        "stab",
        "ranged",
        "magic"
    ],
    "slayer_monster": true,
    "slayer_level": 22,
    "slayer_xp": 25.0,
    "slayer_masters": [
        "turael",
        "mazchna",
        "vannaka",
        "chaeldar"
    ],
    "duplicate": true,
    "examine": "A small cold-blooded creature, partial to warmth.",
    "wiki_name": "Desert Lizard",
    "wiki_url": "https://oldschool.runescape.wiki/w/Desert_Lizard",
    "attack_level": 20,
    "strength_level": 22,
    "defence_level": 20,
    "magic_level": 1,
    "ranged_level": 1,
    "attack_stab": 0,
    "attack_slash": 0,
    "attack_crush": 0,
    "attack_magic": 0,
    "attack_ranged": 0,
    "defence_stab": 5,
    "defence_slash": 15,
    "defence_crush": 15,
    "defence_magic": 0,
    "defence_ranged": 5,
    "attack_accuracy": 0,
    "melee_strength": 0,
    "ranged_strength": 0,
    "magic_damage": 0,
    "drops": {
        "199": {
            "id": 199,
            "name": "Grimy guam leaf",
            "members": true,
            "quantity": "1",
            "noted": false,
            "rarity": "1/8",
            "drop_requirements": null
        },
        "201": {
            "id": 201,
            "name": "Grimy marrentill",
            "members": true,
            "quantity": "1",
            "noted": false,
            "rarity": "1/8",
            "drop_requirements": null
        },
        "203": {
            "id": 203,
            "name": "Grimy tarromin",
            "members": true,
            "quantity": "1",
            "noted": false,
            "rarity": "1/8",
            "drop_requirements": null
        },
        "205": {
            "id": 205,
            "name": "Grimy harralander",
            "members": true,
            "quantity": "1",
            "noted": false,
            "rarity": "1/8",
            "drop_requirements": null
        },
        "207": {
            "id": 207,
            "name": "Grimy ranarr weed",
            "members": true,
            "quantity": "1",
            "noted": false,
            "rarity": "1/32",
            "drop_requirements": null
        },
        "209": {
            "id": 209,
            "name": "Grimy irit leaf",
            "members": true,
            "quantity": "1",
            "noted": false,
            "rarity": "1/32",
            "drop_requirements": null
        },
        "211": {
            "id": 211,
            "name": "Grimy avantoe",
            "members": true,
            "quantity": "1",
            "noted": false,
            "rarity": "1/32",
            "drop_requirements": null
        },
        "213": {
            "id": 213,
            "name": "Grimy kwuarm",
            "members": true,
            "quantity": "1",
            "noted": false,
            "rarity": "1/32",
            "drop_requirements": null
        },
        "215": {
            "id": 215,
            "name": "Grimy cadantine",
            "members": true,
            "quantity": "1",
            "noted": false,
            "rarity": "1/32",
            "drop_requirements": null
        },
        "217": {
            "id": 217,
            "name": "Grimy dwarf weed",
            "members": true,
            "quantity": "1",
            "noted": false,
            "rarity": "1/32",
            "drop_requirements": null
        },
        "436": {
            "id": 436,
            "name": "Copper ore",
            "members": true,
            "quantity": "1",
            "noted": false,
            "rarity": "1/8",
            "drop_requirements": null
        },
        "438": {
            "id": 438,
            "name": "Tin ore",
            "members": true,
            "quantity": "1",
            "noted": false,
            "rarity": "1/8",
            "drop_requirements": null
        },
        "440": {
            "id": 440,
            "name": "Iron ore",
            "members": true,
            "quantity": "1",
            "noted": false,
            "rarity": "1/8",
            "drop_requirements": null
        },
        "442": {
            "id": 442,
            "name": "Silver ore",
            "members": true,
            "quantity": "1",
            "noted": false,
            "rarity": "1/32",
            "drop_requirements": null
        },
        "447": {
            "id": 447,
            "name": "Mithril ore",
            "members": true,
            "quantity": "1",
            "noted": false,
            "rarity": "1/128",
            "drop_requirements": null
        },
        "453": {
            "id": 453,
            "name": "Coal",
            "members": true,
            "quantity": "1",
            "noted": false,
            "rarity": "1/8",
            "drop_requirements": null
        },
        "526": {
            "id": 526,
            "name": "Bones",
            "members": true,
            "quantity": "1",
            "noted": false,
            "rarity": "1/1",
            "drop_requirements": null
        },
        "554": {
            "id": 554,
            "name": "Fire rune",
            "members": true,
            "quantity": "5,42",
            "noted": false,
            "rarity": "1/8",
            "drop_requirements": null
        },
        "561": {
            "id": 561,
            "name": "Nature rune",
            "members": true,
            "quantity": "5",
            "noted": false,
            "rarity": "1/32",
            "drop_requirements": null
        },
        "1823": {
            "id": 1823,
            "name": "Waterskin(4)",
            "members": true,
            "quantity": "2",
            "noted": false,
            "rarity": "1/128",
            "drop_requirements": null
        },
        "1825": {
            "id": 1825,
            "name": "Waterskin(3)",
            "members": true,
            "quantity": "1",
            "noted": false,
            "rarity": "1/8",
            "drop_requirements": null
        },
        "1827": {
            "id": 1827,
            "name": "Waterskin(2)",
            "members": true,
            "quantity": "1",
            "noted": false,
            "rarity": "1/8",
            "drop_requirements": null
        },
        "1829": {
            "id": 1829,
            "name": "Waterskin(1)",
            "members": true,
            "quantity": "1-2",
            "noted": false,
            "rarity": "1/8",
            "drop_requirements": null
        },
        "1831": {
            "id": 1831,
            "name": "Waterskin(0)",
            "members": true,
            "quantity": "2",
            "noted": false,
            "rarity": "1/8",
            "drop_requirements": null
        },
        "1971": {
            "id": 1971,
            "name": "Kebab",
            "members": true,
            "quantity": "1",
            "noted": false,
            "rarity": "1/8",
            "drop_requirements": null
        },
        "2355": {
            "id": 2355,
            "name": "Silver bar",
            "members": true,
            "quantity": "1",
            "noted": false,
            "rarity": "1/128",
            "drop_requirements": null
        },
        "2485": {
            "id": 2485,
            "name": "Grimy lantadyme",
            "members": true,
            "quantity": "1",
            "noted": false,
            "rarity": "1/32",
            "drop_requirements": null
        },
        "4115": {
            "id": 4115,
            "name": "Mystic gloves (light)",
            "members": true,
            "quantity": "1",
            "noted": false,
            "rarity": "1/512",
            "drop_requirements": null
        },
        "5318": {
            "id": 5318,
            "name": "Potato seed",
            "members": true,
            "quantity": "4",
            "noted": false,
            "rarity": "1/8",
            "drop_requirements": null
        },
        "5319": {
            "id": 5319,
            "name": "Onion seed",
            "members": true,
            "quantity": "4",
            "noted": false,
            "rarity": "1/8",
            "drop_requirements": null
        },
        "5320": {
            "id": 5320,
            "name": "Sweetcorn seed",
            "members": true,
            "quantity": "1-3",
            "noted": false,
            "rarity": "1/128",
            "drop_requirements": null
        },
        "5321": {
            "id": 5321,
            "name": "Watermelon seed",
            "members": true,
            "quantity": "1-2",
            "noted": false,
            "rarity": "1/128",
            "drop_requirements": null
        },
        "5322": {
            "id": 5322,
            "name": "Tomato seed",
            "members": true,
            "quantity": "3",
            "noted": false,
            "rarity": "1/8",
            "drop_requirements": null
        },
        "5323": {
            "id": 5323,
            "name": "Strawberry seed",
            "members": true,
            "quantity": "2-3",
            "noted": false,
            "rarity": "1/32",
            "drop_requirements": null
        },
        "5324": {
            "id": 5324,
            "name": "Cabbage seed",
            "members": true,
            "quantity": "3-4",
            "noted": false,
            "rarity": "1/8",
            "drop_requirements": null
        },
        "7902": {
            "id": 7902,
            "name": "Desert lizard bone",
            "members": true,
            "quantity": "1",
            "noted": false,
            "rarity": "1/4",
            "drop_requirements": null
        },
        "10976": {
            "id": 10976,
            "name": "Long bone",
            "members": true,
            "quantity": "1",
            "noted": false,
            "rarity": "1/400",
            "drop_requirements": null
        },
        "10977": {
            "id": 10977,
            "name": "Curved bone",
            "members": true,
            "quantity": "1",
            "noted": false,
            "rarity": "1/5012.5",
            "drop_requirements": null
        },
        "22879": {
            "id": 22879,
            "name": "Snape grass seed",
            "members": true,
            "quantity": "1-2",
            "noted": false,
            "rarity": "1/128",
            "drop_requirements": null
        }
    },
    "rare_drop_table": true
}