{
    "id": 464,
    "name": "Harpie Bug Swarm",
    "incomplete": false,
    "members": true,
    "release_date": "2006-01-30",
    "combat_level": 46,
    "size": 1,
    "hitpoints": 25,
    "max_hit": 6,
    "attack_type": [
        "melee"
    ],
    "attack_speed": 4,
    "aggressive": true,
    "poisonous": false,
    "immune_poison": false,
    "immune_venom": false,
    "weakness": [
        "slash",
        "magic"
    ],
    "slayer_monster": true,
    "slayer_level": 33,
    "slayer_xp": 25.0,
    "slayer_masters": [
        "vannaka",
        "chaeldar"
    ],
    "duplicate": false,
    "examine": "A swarm of bugs.",
    "wiki_name": "Harpie Bug Swarm",
    "wiki_url": "https://oldschool.runescape.wiki/w/Harpie_Bug_Swarm",
    "attack_level": 54,
    "strength_level": 46,
    "defence_level": 32,
    "magic_level": 1,
    "ranged_level": 1,
    "attack_stab": 0,
    "attack_slash": 0,
    "attack_crush": 0,
    "attack_magic": 0,
    "attack_ranged": 0,
    "defence_stab": 10,
    "defence_slash": 5,
    "defence_crush": 10,
    "defence_magic": 5,
    "defence_ranged": 10,
    "attack_accuracy": 0,
    "melee_strength": 0,
    "ranged_strength": 0,
    "magic_damage": 0,
    "drops": {
        "444": {
            "id": 444,
            "name": "Gold ore",
            "members": true,
            "quantity": "1",
            "noted": false,
            "rarity": "8/128",
            "drop_requirements": null
        },
        "554": {
            "id": 554,
            "name": "Fire rune",
            "members": true,
            "quantity": "60",
            "noted": false,
            "rarity": "8/128",
            "drop_requirements": null
        },
        "560": {
            "id": 560,
            "name": "Death rune",
            "members": true,
            "quantity": "3",
            "noted": false,
            "rarity": "3/128",
            "drop_requirements": null
        },
        "562": {
            "id": 562,
            "name": "Chaos rune",
            "members": true,
            "quantity": "15",
            "noted": false,
            "rarity": "5/128",
            "drop_requirements": null
        },
        "617": {
            "id": 617,
            "name": "Coins",
            "members": true,
            "quantity": "490",
            "noted": false,
            "rarity": "2/128",
            "drop_requirements": null
        },
        "1109": {
            "id": 1109,
            "name": "Mithril chainbody",
            "members": true,
            "quantity": "1",
            "noted": false,
            "rarity": "2/128",
            "drop_requirements": null
        },
        "1145": {
            "id": 1145,
            "name": "Adamant med helm",
            "members": true,
            "quantity": "1",
            "noted": false,
            "rarity": "1/128",
            "drop_requirements": null
        },
        "1157": {
            "id": 1157,
            "name": "Steel full helm",
            "members": true,
            "quantity": "1",
            "noted": false,
            "rarity": "4/128",
            "drop_requirements": null
        },
        "1353": {
            "id": 1353,
            "name": "Steel axe",
            "members": true,
            "quantity": "1",
            "noted": false,
            "rarity": "4/128",
            "drop_requirements": null
        },
        "1387": {
            "id": 1387,
            "name": "Staff of fire",
            "members": true,
            "quantity": "1",
            "noted": false,
            "rarity": "3/128",
            "drop_requirements": null
        },
        "1993": {
            "id": 1993,
            "name": "Jug of wine",
            "members": true,
            "quantity": "1",
            "noted": false,
            "rarity": "2/128",
            "drop_requirements": null
        },
        "2801": {
            "id": 2801,
            "name": "Clue scroll (medium)",
            "members": true,
            "quantity": "1",
            "noted": false,
            "rarity": "1/128",
            "drop_requirements": null
        },
        "4123": {
            "id": 4123,
            "name": "Steel boots",
            "members": true,
            "quantity": "1",
            "noted": false,
            "rarity": "1/128",
            "drop_requirements": null
        }
    },
    "rare_drop_table": true
}