{
    "id": 466,
    "name": "Skeletal Wyvern",
    "incomplete": false,
    "members": true,
    "release_date": "2005-12-12",
    "combat_level": 140,
    "size": 3,
    "hitpoints": 210,
    "max_hit": 0,
    "attack_type": [
        "melee",
        "ranged",
        "ranged"
    ],
    "attack_speed": 6,
    "aggressive": true,
    "poisonous": false,
    "immune_poison": false,
    "immune_venom": false,
    "weakness": [
        "slash",
        "crush",
        "dragonbane"
    ],
    "slayer_monster": true,
    "slayer_level": 72,
    "slayer_xp": 210.0,
    "slayer_masters": [
        "chaeldar",
        "konar",
        "nieve",
        "duradel"
    ],
    "duplicate": false,
    "examine": "A very dangerous pile of animated Wyvern bones.",
    "wiki_name": "Skeletal Wyvern (3)",
    "wiki_url": "https://oldschool.runescape.wiki/w/Skeletal_Wyvern#3",
    "attack_level": 125,
    "strength_level": 116,
    "defence_level": 120,
    "magic_level": 125,
    "ranged_level": 120,
    "attack_stab": 0,
    "attack_slash": 0,
    "attack_crush": 0,
    "attack_magic": 0,
    "attack_ranged": 0,
    "defence_stab": 140,
    "defence_slash": 90,
    "defence_crush": 90,
    "defence_magic": 80,
    "defence_ranged": 140,
    "attack_accuracy": 0,
    "melee_strength": 0,
    "ranged_strength": 0,
    "magic_damage": 0,
    "drops": {
        "379": {
            "id": 379,
            "name": "Lobster",
            "members": true,
            "quantity": "6",
            "noted": false,
            "rarity": "8/128",
            "drop_requirements": null
        },
        "440": {
            "id": 440,
            "name": "Iron ore",
            "members": true,
            "quantity": "200",
            "noted": true,
            "rarity": "3/128",
            "drop_requirements": null
        },
        "555": {
            "id": 555,
            "name": "Water rune",
            "members": true,
            "quantity": "150",
            "noted": false,
            "rarity": "4/128",
            "drop_requirements": null
        },
        "556": {
            "id": 556,
            "name": "Air rune",
            "members": true,
            "quantity": "225",
            "noted": false,
            "rarity": "6/128",
            "drop_requirements": null
        },
        "560": {
            "id": 560,
            "name": "Death rune",
            "members": true,
            "quantity": "40",
            "noted": false,
            "rarity": "4/128",
            "drop_requirements": null
        },
        "562": {
            "id": 562,
            "name": "Chaos rune",
            "members": true,
            "quantity": "80",
            "noted": false,
            "rarity": "4/128",
            "drop_requirements": null
        },
        "563": {
            "id": 563,
            "name": "Law rune",
            "members": true,
            "quantity": "45",
            "noted": false,
            "rarity": "4/128",
            "drop_requirements": null
        },
        "565": {
            "id": 565,
            "name": "Blood rune",
            "members": true,
            "quantity": "25",
            "noted": false,
            "rarity": "4/128",
            "drop_requirements": null
        },
        "566": {
            "id": 566,
            "name": "Soul rune",
            "members": true,
            "quantity": "20",
            "noted": false,
            "rarity": "1/128",
            "drop_requirements": null
        },
        "567": {
            "id": 567,
            "name": "Unpowered orb",
            "members": true,
            "quantity": "75",
            "noted": true,
            "rarity": "2/128",
            "drop_requirements": null
        },
        "617": {
            "id": 617,
            "name": "Coins",
            "members": true,
            "quantity": "300",
            "noted": false,
            "rarity": "12/128",
            "drop_requirements": null
        },
        "892": {
            "id": 892,
            "name": "Rune arrow",
            "members": true,
            "quantity": "36",
            "noted": false,
            "rarity": "5/128",
            "drop_requirements": null
        },
        "1163": {
            "id": 1163,
            "name": "Rune full helm",
            "members": true,
            "quantity": "1",
            "noted": false,
            "rarity": "2/128",
            "drop_requirements": null
        },
        "1201": {
            "id": 1201,
            "name": "Rune kiteshield",
            "members": true,
            "quantity": "1",
            "noted": false,
            "rarity": "1/128",
            "drop_requirements": null
        },
        "1347": {
            "id": 1347,
            "name": "Rune warhammer",
            "members": true,
            "quantity": "1",
            "noted": false,
            "rarity": "2/128",
            "drop_requirements": null
        },
        "1359": {
            "id": 1359,
            "name": "Rune axe",
            "members": true,
            "quantity": "1",
            "noted": false,
            "rarity": "3/128",
            "drop_requirements": null
        },
        "1373": {
            "id": 1373,
            "name": "Rune battleaxe",
            "members": true,
            "quantity": "1",
            "noted": false,
            "rarity": "2/128",
            "drop_requirements": null
        },
        "1391": {
            "id": 1391,
            "name": "Battlestaff",
            "members": true,
            "quantity": "10",
            "noted": true,
            "rarity": "3/128",
            "drop_requirements": null
        },
        "1399": {
            "id": 1399,
            "name": "Earth battlestaff",
            "members": true,
            "quantity": "1",
            "noted": false,
            "rarity": "4/128",
            "drop_requirements": null
        },
        "1513": {
            "id": 1513,
            "name": "Magic logs",
            "members": true,
            "quantity": "35",
            "noted": true,
            "rarity": "6/128",
            "drop_requirements": null
        },
        "1617": {
            "id": 1617,
            "name": "Uncut diamond",
            "members": true,
            "quantity": "5",
            "noted": true,
            "rarity": "2/128",
            "drop_requirements": null
        },
        "1619": {
            "id": 1619,
            "name": "Uncut ruby",
            "members": true,
            "quantity": "10",
            "noted": true,
            "rarity": "2/128",
            "drop_requirements": null
        },
        "2361": {
            "id": 2361,
            "name": "Adamantite bar",
            "members": true,
            "quantity": "10",
            "noted": true,
            "rarity": "6/128",
            "drop_requirements": null
        },
        "2434": {
            "id": 2434,
            "name": "Prayer potion(4)",
            "members": true,
            "quantity": "2",
            "noted": false,
            "rarity": "7/128",
            "drop_requirements": null
        },
        "4087": {
            "id": 4087,
            "name": "Dragon platelegs",
            "members": true,
            "quantity": "1",
            "noted": false,
            "rarity": "1/512",
            "drop_requirements": null
        },
        "4585": {
            "id": 4585,
            "name": "Dragon plateskirt",
            "members": true,
            "quantity": "1",
            "noted": false,
            "rarity": "1/512",
            "drop_requirements": null
        },
        "5295": {
            "id": 5295,
            "name": "Ranarr seed",
            "members": true,
            "quantity": "3",
            "noted": false,
            "rarity": "2/128",
            "drop_requirements": null
        },
        "5300": {
            "id": 5300,
            "name": "Snapdragon seed",
            "members": true,
            "quantity": "1",
            "noted": false,
            "rarity": "2/128",
            "drop_requirements": null
        },
        "6809": {
            "id": 6809,
            "name": "Granite legs",
            "members": true,
            "quantity": "1",
            "noted": false,
            "rarity": "1/512",
            "drop_requirements": null
        },
        "6812": {
            "id": 6812,
            "name": "Wyvern bones",
            "members": true,
            "quantity": "1",
            "noted": false,
            "rarity": "1/1",
            "drop_requirements": null
        },
        "7936": {
            "id": 7936,
            "name": "Pure essence",
            "members": true,
            "quantity": "250",
            "noted": true,
            "rarity": "8/128",
            "drop_requirements": null
        },
        "9143": {
            "id": 9143,
            "name": "Adamant bolts",
            "members": true,
            "quantity": "75-99",
            "noted": false,
            "rarity": "3/128",
            "drop_requirements": null
        },
        "9144": {
            "id": 9144,
            "name": "Runite bolts",
            "members": true,
            "quantity": "35-44",
            "noted": false,
            "rarity": "3/128",
            "drop_requirements": null
        },
        "9465": {
            "id": 9465,
            "name": "Runite crossbow (u)",
            "members": true,
            "quantity": "1",
            "noted": false,
            "rarity": "2/128",
            "drop_requirements": null
        },
        "11286": {
            "id": 11286,
            "name": "Draconic visage",
            "members": true,
            "quantity": "1",
            "noted": false,
            "rarity": "1/10000",
            "drop_requirements": null
        },
        "12073": {
            "id": 12073,
            "name": "Clue scroll (elite)",
            "members": true,
            "quantity": "1",
            "noted": false,
            "rarity": "1/350",
            "drop_requirements": null
        },
        "23083": {
            "id": 23083,
            "name": "Brimstone key",
            "members": true,
            "quantity": "1",
            "noted": false,
            "rarity": "1/92",
            "drop_requirements": null
        }
    },
    "rare_drop_table": true
}