{
    "id": 4661,
    "name": "Guard",
    "incomplete": true,
    "members": true,
    "release_date": "2003-04-14",
    "combat_level": 45,
    "size": 1,
    "hitpoints": 60,
    "max_hit": 5,
    "attack_type": [
        "crush"
    ],
    "attack_speed": 4,
    "aggressive": false,
    "poisonous": false,
    "immune_poison": false,
    "immune_venom": false,
    "weakness": [
        "magic"
    ],
    "slayer_monster": false,
    "slayer_level": null,
    "slayer_xp": null,
    "slayer_masters": [],
    "duplicate": false,
    "examine": "He looks a bit aggressive.",
    "wiki_name": "Guard (Desert Mining Camp) (Bronze helm)",
    "wiki_url": "https://oldschool.runescape.wiki/w/Guard_(Desert_Mining_Camp)#Bronze_helm",
    "attack_level": 32,
    "strength_level": 32,
    "defence_level": 39,
    "magic_level": 0,
    "ranged_level": 0,
    "attack_stab": 0,
    "attack_slash": 0,
    "attack_crush": 0,
    "attack_magic": 0,
    "attack_ranged": 0,
    "defence_stab": 17,
    "defence_slash": 15,
    "defence_crush": 19,
    "defence_magic": -3,
    "defence_ranged": 19,
    "attack_accuracy": 9,
    "melee_strength": 14,
    "ranged_strength": 0,
    "magic_damage": 0,
    "drops": {},
    "rare_drop_table": false
}