{
    "id": 4695,
    "name": "Hopeless creature",
    "incomplete": true,
    "members": true,
    "release_date": "2006-04-03",
    "combat_level": 71,
    "size": 2,
    "hitpoints": 71,
    "max_hit": 7,
    "attack_type": [
        "slash"
    ],
    "attack_speed": 4,
    "aggressive": true,
    "poisonous": false,
    "immune_poison": false,
    "immune_venom": false,
    "weakness": [
        "magic"
    ],
    "slayer_monster": false,
    "slayer_level": null,
    "slayer_xp": null,
    "slayer_masters": [],
    "duplicate": false,
    "examine": "A hopeless poor creature.",
    "wiki_name": "Hopeless creature (Lv 71)",
    "wiki_url": "https://oldschool.runescape.wiki/w/Hopeless_creature#Lv_71",
    "attack_level": 59,
    "strength_level": 62,
    "defence_level": 59,
    "magic_level": 1,
    "ranged_level": 1,
    "attack_stab": 0,
    "attack_slash": 0,
    "attack_crush": 0,
    "attack_magic": 0,
    "attack_ranged": 0,
    "defence_stab": 0,
    "defence_slash": 0,
    "defence_crush": 0,
    "defence_magic": 0,
    "defence_ranged": 0,
    "attack_accuracy": 0,
    "melee_strength": 0,
    "ranged_strength": 0,
    "magic_damage": 0,
    "drops": {},
    "rare_drop_table": false
}