{
    "id": 4744,
    "name": "Grey golem",
    "incomplete": true,
    "members": true,
    "release_date": "2005-12-05",
    "combat_level": 75,
    "size": 1,
    "hitpoints": 80,
    "max_hit": 4,
    "attack_type": [
        "crush"
    ],
    "attack_speed": 4,
    "aggressive": true,
    "poisonous": false,
    "immune_poison": false,
    "immune_venom": false,
    "weakness": [
        "slash"
    ],
    "slayer_monster": false,
    "slayer_level": null,
    "slayer_xp": null,
    "slayer_masters": [],
    "duplicate": false,
    "examine": "An animated clay statue.",
    "wiki_name": "Grey golem",
    "wiki_url": "https://oldschool.runescape.wiki/w/Grey_golem",
    "attack_level": 80,
    "strength_level": 30,
    "defence_level": 80,
    "magic_level": 1,
    "ranged_level": 1,
    "attack_stab": 0,
    "attack_slash": 0,
    "attack_crush": 0,
    "attack_magic": 0,
    "attack_ranged": 0,
    "defence_stab": 300,
    "defence_slash": 1,
    "defence_crush": 300,
    "defence_magic": 300,
    "defence_ranged": 300,
    "attack_accuracy": 0,
    "melee_strength": 0,
    "ranged_strength": 0,
    "magic_damage": 0,
    "drops": {},
    "rare_drop_table": false
}