{
    "id": 478,
    "name": "Big frog",
    "incomplete": true,
    "members": true,
    "release_date": "2005-03-14",
    "combat_level": 24,
    "size": 1,
    "hitpoints": 25,
    "max_hit": 3,
    "attack_type": [
        "melee"
    ],
    "attack_speed": 4,
    "aggressive": false,
    "poisonous": false,
    "immune_poison": false,
    "immune_venom": false,
    "weakness": [
        "slash"
    ],
    "slayer_monster": false,
    "slayer_level": null,
    "slayer_xp": null,
    "slayer_masters": [],
    "duplicate": false,
    "examine": "It didn't get that big eating flies.",
    "wiki_name": "Big frog (Level 24)",
    "wiki_url": "https://oldschool.runescape.wiki/w/Big_frog#Level_24",
    "attack_level": 25,
    "strength_level": 20,
    "defence_level": 15,
    "magic_level": 1,
    "ranged_level": 1,
    "attack_stab": 0,
    "attack_slash": 0,
    "attack_crush": 0,
    "attack_magic": 0,
    "attack_ranged": 0,
    "defence_stab": 0,
    "defence_slash": 0,
    "defence_crush": 0,
    "defence_magic": 0,
    "defence_ranged": 0,
    "attack_accuracy": 0,
    "melee_strength": 0,
    "ranged_strength": 0,
    "magic_damage": 0,
    "drops": {
        "526": {
            "id": 526,
            "name": "Bones",
            "members": true,
            "quantity": "1",
            "noted": false,
            "rarity": "1/1",
            "drop_requirements": null
        },
        "555": {
            "id": 555,
            "name": "Water rune",
            "members": true,
            "quantity": "12",
            "noted": false,
            "rarity": "1/8",
            "drop_requirements": null
        },
        "557": {
            "id": 557,
            "name": "Earth rune",
            "members": true,
            "quantity": "12",
            "noted": false,
            "rarity": "1/8",
            "drop_requirements": null
        },
        "561": {
            "id": 561,
            "name": "Nature rune",
            "members": true,
            "quantity": "4",
            "noted": false,
            "rarity": "1/8",
            "drop_requirements": null
        },
        "564": {
            "id": 564,
            "name": "Cosmic rune",
            "members": true,
            "quantity": "2",
            "noted": false,
            "rarity": "1/32",
            "drop_requirements": null
        },
        "617": {
            "id": 617,
            "name": "Coins",
            "members": true,
            "quantity": "15",
            "noted": false,
            "rarity": "1/8",
            "drop_requirements": null
        },
        "1440": {
            "id": 1440,
            "name": "Earth talisman",
            "members": true,
            "quantity": "1",
            "noted": false,
            "rarity": "1/128",
            "drop_requirements": null
        },
        "1444": {
            "id": 1444,
            "name": "Water talisman",
            "members": true,
            "quantity": "1",
            "noted": false,
            "rarity": "1/128",
            "drop_requirements": null
        },
        "7908": {
            "id": 7908,
            "name": "Big frog leg",
            "members": true,
            "quantity": "1",
            "noted": false,
            "rarity": "1/1",
            "drop_requirements": null
        }
    },
    "rare_drop_table": false
}