{
    "id": 4926,
    "name": "Pirate Guard",
    "incomplete": true,
    "members": true,
    "release_date": "2002-02-27",
    "combat_level": 19,
    "size": 1,
    "hitpoints": 25,
    "max_hit": 3,
    "attack_type": [
        "slash"
    ],
    "attack_speed": 4,
    "aggressive": false,
    "poisonous": false,
    "immune_poison": false,
    "immune_venom": false,
    "weakness": [],
    "slayer_monster": false,
    "slayer_level": null,
    "slayer_xp": null,
    "slayer_masters": [],
    "duplicate": false,
    "examine": "A morally ambiguous guard.",
    "wiki_name": "Pirate Guard",
    "wiki_url": "https://oldschool.runescape.wiki/w/Pirate_Guard",
    "attack_level": 18,
    "strength_level": 16,
    "defence_level": 10,
    "magic_level": 1,
    "ranged_level": 1,
    "attack_stab": 0,
    "attack_slash": 0,
    "attack_crush": 0,
    "attack_magic": 0,
    "attack_ranged": 0,
    "defence_stab": 30,
    "defence_slash": 39,
    "defence_crush": 30,
    "defence_magic": 0,
    "defence_ranged": 0,
    "attack_accuracy": 20,
    "melee_strength": 16,
    "ranged_strength": 0,
    "magic_damage": 0,
    "drops": {
        "526": {
            "id": 526,
            "name": "Bones",
            "members": true,
            "quantity": "1",
            "noted": false,
            "rarity": "1/1",
            "drop_requirements": null
        }
    },
    "rare_drop_table": false
}