{
    "id": 4972,
    "name": "Khazard commander",
    "incomplete": true,
    "members": true,
    "release_date": "2002-07-23",
    "combat_level": 48,
    "size": 1,
    "hitpoints": 22,
    "max_hit": 5,
    "attack_type": [
        "stab"
    ],
    "attack_speed": 4,
    "aggressive": false,
    "poisonous": false,
    "immune_poison": false,
    "immune_venom": false,
    "weakness": [
        "magic"
    ],
    "slayer_monster": false,
    "slayer_level": null,
    "slayer_xp": null,
    "slayer_masters": [],
    "duplicate": false,
    "examine": "It is one of General Khazard's commanders.",
    "wiki_name": "Khazard commander",
    "wiki_url": "https://oldschool.runescape.wiki/w/Khazard_commander",
    "attack_level": 50,
    "strength_level": 45,
    "defence_level": 50,
    "magic_level": 1,
    "ranged_level": 1,
    "attack_stab": 0,
    "attack_slash": 0,
    "attack_crush": 0,
    "attack_magic": 0,
    "attack_ranged": 0,
    "defence_stab": 0,
    "defence_slash": 0,
    "defence_crush": 0,
    "defence_magic": 0,
    "defence_ranged": 0,
    "attack_accuracy": 0,
    "melee_strength": 0,
    "ranged_strength": 0,
    "magic_damage": 0,
    "drops": {
        "526": {
            "id": 526,
            "name": "Bones",
            "members": true,
            "quantity": "1",
            "noted": false,
            "rarity": "1/1",
            "drop_requirements": null
        },
        "587": {
            "id": 587,
            "name": "Orb of protection",
            "members": true,
            "quantity": "1",
            "noted": false,
            "rarity": "1/1",
            "drop_requirements": null
        }
    },
    "rare_drop_table": false
}