{
    "id": 505,
    "name": "Mugger",
    "incomplete": true,
    "members": false,
    "release_date": "2001-01-04",
    "combat_level": 6,
    "size": 1,
    "hitpoints": 8,
    "max_hit": 1,
    "attack_type": [
        "crush"
    ],
    "attack_speed": 4,
    "aggressive": true,
    "poisonous": false,
    "immune_poison": false,
    "immune_venom": false,
    "weakness": [
        "magic"
    ],
    "slayer_monster": false,
    "slayer_level": null,
    "slayer_xp": null,
    "slayer_masters": [],
    "duplicate": false,
    "examine": "He jumps out and attacks people.",
    "wiki_name": "Mugger",
    "wiki_url": "https://oldschool.runescape.wiki/w/Mugger",
    "attack_level": 5,
    "strength_level": 5,
    "defence_level": 5,
    "magic_level": 1,
    "ranged_level": 1,
    "attack_stab": 0,
    "attack_slash": 0,
    "attack_crush": 0,
    "attack_magic": 0,
    "attack_ranged": 0,
    "defence_stab": 0,
    "defence_slash": 0,
    "defence_crush": 0,
    "defence_magic": 0,
    "defence_ranged": 0,
    "attack_accuracy": 0,
    "melee_strength": -21,
    "ranged_strength": 0,
    "magic_damage": 0,
    "drops": {
        "313": {
            "id": 313,
            "name": "Fishing bait",
            "members": false,
            "quantity": "1",
            "noted": false,
            "rarity": "6/128",
            "drop_requirements": null
        },
        "436": {
            "id": 436,
            "name": "Copper ore",
            "members": false,
            "quantity": "1",
            "noted": false,
            "rarity": "2/128",
            "drop_requirements": null
        },
        "526": {
            "id": 526,
            "name": "Bones",
            "members": false,
            "quantity": "1",
            "noted": false,
            "rarity": "1/1",
            "drop_requirements": null
        },
        "555": {
            "id": 555,
            "name": "Water rune",
            "members": false,
            "quantity": "6",
            "noted": false,
            "rarity": "2/128",
            "drop_requirements": null
        },
        "557": {
            "id": 557,
            "name": "Earth rune",
            "members": false,
            "quantity": "5",
            "noted": false,
            "rarity": "2/128",
            "drop_requirements": null
        },
        "558": {
            "id": 558,
            "name": "Mind rune",
            "members": false,
            "quantity": "9",
            "noted": false,
            "rarity": "3/128",
            "drop_requirements": null
        },
        "617": {
            "id": 617,
            "name": "Coins",
            "members": true,
            "quantity": "25",
            "noted": false,
            "rarity": "1/128",
            "drop_requirements": null
        },
        "877": {
            "id": 877,
            "name": "Bronze bolts",
            "members": false,
            "quantity": "2-12",
            "noted": false,
            "rarity": "27/128",
            "drop_requirements": null
        },
        "946": {
            "id": 946,
            "name": "Knife",
            "members": false,
            "quantity": "1",
            "noted": false,
            "rarity": "1/128",
            "drop_requirements": null
        },
        "954": {
            "id": 954,
            "name": "Rope",
            "members": false,
            "quantity": "1",
            "noted": false,
            "rarity": "40/128",
            "drop_requirements": null
        },
        "1139": {
            "id": 1139,
            "name": "Bronze med helm",
            "members": false,
            "quantity": "1",
            "noted": false,
            "rarity": "2/128",
            "drop_requirements": null
        },
        "1965": {
            "id": 1965,
            "name": "Cabbage",
            "members": false,
            "quantity": "1",
            "noted": false,
            "rarity": "1/128",
            "drop_requirements": null
        },
        "2677": {
            "id": 2677,
            "name": "Clue scroll (easy)",
            "members": true,
            "quantity": "1",
            "noted": false,
            "rarity": "1/128",
            "drop_requirements": null
        },
        "23182": {
            "id": 23182,
            "name": "Clue scroll (beginner)",
            "members": false,
            "quantity": "1",
            "noted": false,
            "rarity": "1/80",
            "drop_requirements": null
        }
    },
    "rare_drop_table": false
}