{
    "id": 510,
    "name": "Highwayman",
    "incomplete": true,
    "members": false,
    "release_date": "2001-01-21",
    "combat_level": 5,
    "size": 1,
    "hitpoints": 13,
    "max_hit": 1,
    "attack_type": [
        "stab"
    ],
    "attack_speed": 4,
    "aggressive": true,
    "poisonous": false,
    "immune_poison": false,
    "immune_venom": false,
    "weakness": [
        "magic"
    ],
    "slayer_monster": false,
    "slayer_level": null,
    "slayer_xp": null,
    "slayer_masters": [],
    "duplicate": false,
    "examine": "He holds up passers by.",
    "wiki_name": "Highwayman",
    "wiki_url": "https://oldschool.runescape.wiki/w/Highwayman",
    "attack_level": 2,
    "strength_level": 2,
    "defence_level": 4,
    "magic_level": 1,
    "ranged_level": 1,
    "attack_stab": 0,
    "attack_slash": 0,
    "attack_crush": 0,
    "attack_magic": 0,
    "attack_ranged": 0,
    "defence_stab": 0,
    "defence_slash": 3,
    "defence_crush": 2,
    "defence_magic": 0,
    "defence_ranged": 2,
    "attack_accuracy": 6,
    "melee_strength": 7,
    "ranged_strength": 0,
    "magic_damage": 0,
    "drops": {
        "526": {
            "id": 526,
            "name": "Bones",
            "members": false,
            "quantity": "1",
            "noted": false,
            "rarity": "1/1",
            "drop_requirements": null
        },
        "1019": {
            "id": 1019,
            "name": "Black cape",
            "members": false,
            "quantity": "1",
            "noted": false,
            "rarity": "1/1",
            "drop_requirements": null
        },
        "9140": {
            "id": 9140,
            "name": "Iron bolts",
            "members": true,
            "quantity": "2-12",
            "noted": false,
            "rarity": "5/100",
            "drop_requirements": null
        }
    },
    "rare_drop_table": false
}