{
    "id": 512,
    "name": "Chaos druid",
    "incomplete": false,
    "members": true,
    "release_date": "2002-02-27",
    "combat_level": 13,
    "size": 1,
    "hitpoints": 20,
    "max_hit": 2,
    "attack_type": [
        "crush"
    ],
    "attack_speed": 4,
    "aggressive": true,
    "poisonous": false,
    "immune_poison": false,
    "immune_venom": false,
    "weakness": [
        "ranged"
    ],
    "slayer_monster": true,
    "slayer_level": 1,
    "slayer_xp": 20.0,
    "slayer_masters": [
        "krystilia"
    ],
    "duplicate": false,
    "examine": "A crazy, evil druid.",
    "wiki_name": "Chaos druid",
    "wiki_url": "https://oldschool.runescape.wiki/w/Chaos_druid",
    "attack_level": 8,
    "strength_level": 8,
    "defence_level": 12,
    "magic_level": 10,
    "ranged_level": 1,
    "attack_stab": 0,
    "attack_slash": 0,
    "attack_crush": 0,
    "attack_magic": 0,
    "attack_ranged": 0,
    "defence_stab": 0,
    "defence_slash": 0,
    "defence_crush": 0,
    "defence_magic": 0,
    "defence_ranged": 0,
    "attack_accuracy": 0,
    "melee_strength": 0,
    "ranged_strength": 0,
    "magic_damage": 0,
    "drops": {
        "227": {
            "id": 227,
            "name": "Vial of water",
            "members": true,
            "quantity": "1",
            "noted": false,
            "rarity": "10/128",
            "drop_requirements": null
        },
        "231": {
            "id": 231,
            "name": "Snape grass",
            "members": true,
            "quantity": "1",
            "noted": false,
            "rarity": "1/128",
            "drop_requirements": null
        },
        "526": {
            "id": 526,
            "name": "Bones",
            "members": true,
            "quantity": "1",
            "noted": false,
            "rarity": "1/1",
            "drop_requirements": null
        },
        "556": {
            "id": 556,
            "name": "Air rune",
            "members": true,
            "quantity": "36",
            "noted": false,
            "rarity": "3/128",
            "drop_requirements": null
        },
        "557": {
            "id": 557,
            "name": "Earth rune",
            "members": true,
            "quantity": "9",
            "noted": false,
            "rarity": "2/128",
            "drop_requirements": null
        },
        "558": {
            "id": 558,
            "name": "Mind rune",
            "members": true,
            "quantity": "12",
            "noted": false,
            "rarity": "2/128",
            "drop_requirements": null
        },
        "559": {
            "id": 559,
            "name": "Body rune",
            "members": true,
            "quantity": "9",
            "noted": false,
            "rarity": "2/128",
            "drop_requirements": null
        },
        "561": {
            "id": 561,
            "name": "Nature rune",
            "members": true,
            "quantity": "3",
            "noted": false,
            "rarity": "1/128",
            "drop_requirements": null
        },
        "563": {
            "id": 563,
            "name": "Law rune",
            "members": true,
            "quantity": "2",
            "noted": false,
            "rarity": "7/128",
            "drop_requirements": null
        },
        "617": {
            "id": 617,
            "name": "Coins",
            "members": true,
            "quantity": "35",
            "noted": false,
            "rarity": "1/128",
            "drop_requirements": null
        },
        "1291": {
            "id": 1291,
            "name": "Bronze longsword",
            "members": true,
            "quantity": "1",
            "noted": false,
            "rarity": "1/128",
            "drop_requirements": null
        },
        "1594": {
            "id": 1594,
            "name": "Unholy mould",
            "members": true,
            "quantity": "1",
            "noted": false,
            "rarity": "1/128",
            "drop_requirements": null
        },
        "9142": {
            "id": 9142,
            "name": "Mithril bolts",
            "members": true,
            "quantity": "2-12",
            "noted": false,
            "rarity": "4/128",
            "drop_requirements": null
        },
        "11941": {
            "id": 11941,
            "name": "Looting bag",
            "members": true,
            "quantity": "1",
            "noted": false,
            "rarity": "1/23",
            "drop_requirements": null
        },
        "13471": {
            "id": 13471,
            "name": "Ensouled chaos druid head",
            "members": true,
            "quantity": "1",
            "noted": false,
            "rarity": "1/35",
            "drop_requirements": null
        }
    },
    "rare_drop_table": true
}