{
    "id": 5127,
    "name": "Mouse",
    "incomplete": true,
    "members": true,
    "release_date": "2007-06-04",
    "combat_level": 95,
    "size": 4,
    "hitpoints": 70,
    "max_hit": 9,
    "attack_type": [
        "crush"
    ],
    "attack_speed": 4,
    "aggressive": true,
    "poisonous": false,
    "immune_poison": false,
    "immune_venom": false,
    "weakness": [
        "stab"
    ],
    "slayer_monster": false,
    "slayer_level": null,
    "slayer_xp": null,
    "slayer_masters": [],
    "duplicate": false,
    "examine": "A huge mouse. It looks hungry...",
    "wiki_name": "Mouse",
    "wiki_url": "https://oldschool.runescape.wiki/w/Mouse",
    "attack_level": 95,
    "strength_level": 80,
    "defence_level": 86,
    "magic_level": 1,
    "ranged_level": 1,
    "attack_stab": 0,
    "attack_slash": 0,
    "attack_crush": 0,
    "attack_magic": 0,
    "attack_ranged": 0,
    "defence_stab": 30,
    "defence_slash": 55,
    "defence_crush": 65,
    "defence_magic": 50,
    "defence_ranged": 60,
    "attack_accuracy": 0,
    "melee_strength": 0,
    "ranged_strength": 0,
    "magic_damage": 0,
    "drops": {
        "617": {
            "id": 617,
            "name": "Coins",
            "members": true,
            "quantity": "3-237",
            "noted": false,
            "rarity": "1/8",
            "drop_requirements": null
        },
        "1985": {
            "id": 1985,
            "name": "Cheese",
            "members": true,
            "quantity": "1",
            "noted": false,
            "rarity": "1/8",
            "drop_requirements": null
        }
    },
    "rare_drop_table": false
}