{
    "id": 5213,
    "name": "Jonny the beard",
    "incomplete": true,
    "members": false,
    "release_date": "2001-01-04",
    "combat_level": 2,
    "size": 1,
    "hitpoints": 8,
    "max_hit": 1,
    "attack_type": [
        "crush"
    ],
    "attack_speed": 4,
    "aggressive": false,
    "poisonous": false,
    "immune_poison": false,
    "immune_venom": false,
    "weakness": [],
    "slayer_monster": false,
    "slayer_level": null,
    "slayer_xp": null,
    "slayer_masters": [],
    "duplicate": false,
    "examine": "Looks kind of shifty...",
    "wiki_name": "Jonny the beard",
    "wiki_url": "https://oldschool.runescape.wiki/w/Jonny_the_beard",
    "attack_level": 1,
    "strength_level": 1,
    "defence_level": 1,
    "magic_level": 1,
    "ranged_level": 1,
    "attack_stab": 0,
    "attack_slash": 0,
    "attack_crush": 0,
    "attack_magic": 0,
    "attack_ranged": 0,
    "defence_stab": 0,
    "defence_slash": 0,
    "defence_crush": 0,
    "defence_magic": 0,
    "defence_ranged": 0,
    "attack_accuracy": 0,
    "melee_strength": 0,
    "ranged_strength": 0,
    "magic_damage": 0,
    "drops": {
        "526": {
            "id": 526,
            "name": "Bones",
            "members": false,
            "quantity": "1",
            "noted": false,
            "rarity": "1/1",
            "drop_requirements": null
        },
        "761": {
            "id": 761,
            "name": "Intel report",
            "members": false,
            "quantity": "1",
            "noted": false,
            "rarity": "1/1",
            "drop_requirements": null
        }
    },
    "rare_drop_table": false
}