{
    "id": 522,
    "name": "Tribesman",
    "incomplete": true,
    "members": true,
    "release_date": "2002-08-15",
    "combat_level": 32,
    "size": 1,
    "hitpoints": 39,
    "max_hit": 4,
    "attack_type": [
        "stab"
    ],
    "attack_speed": 4,
    "aggressive": true,
    "poisonous": true,
    "immune_poison": false,
    "immune_venom": false,
    "weakness": [
        "magic"
    ],
    "slayer_monster": false,
    "slayer_level": null,
    "slayer_xp": null,
    "slayer_masters": [],
    "duplicate": false,
    "examine": "A primitive warrior.",
    "wiki_name": "Tribesman",
    "wiki_url": "https://oldschool.runescape.wiki/w/Tribesman",
    "attack_level": 23,
    "strength_level": 27,
    "defence_level": 26,
    "magic_level": 1,
    "ranged_level": 1,
    "attack_stab": 0,
    "attack_slash": 0,
    "attack_crush": 0,
    "attack_magic": 0,
    "attack_ranged": 0,
    "defence_stab": 4,
    "defence_slash": 6,
    "defence_crush": 6,
    "defence_magic": 0,
    "defence_ranged": 0,
    "attack_accuracy": 8,
    "melee_strength": 5,
    "ranged_strength": 0,
    "magic_damage": 0,
    "drops": {
        "181": {
            "id": 181,
            "name": "Superantipoison(3)",
            "members": true,
            "quantity": "1",
            "noted": false,
            "rarity": "1/138",
            "drop_requirements": null
        },
        "183": {
            "id": 183,
            "name": "Superantipoison(2)",
            "members": true,
            "quantity": "1",
            "noted": false,
            "rarity": "3/138",
            "drop_requirements": null
        },
        "225": {
            "id": 225,
            "name": "Limpwurt root",
            "members": true,
            "quantity": "1",
            "noted": false,
            "rarity": "12/138",
            "drop_requirements": null
        },
        "231": {
            "id": 231,
            "name": "Snape grass",
            "members": true,
            "quantity": "1",
            "noted": false,
            "rarity": "20/138",
            "drop_requirements": null
        },
        "438": {
            "id": 438,
            "name": "Tin ore",
            "members": true,
            "quantity": "1",
            "noted": false,
            "rarity": "1/138",
            "drop_requirements": null
        },
        "444": {
            "id": 444,
            "name": "Gold ore",
            "members": true,
            "quantity": "1",
            "noted": false,
            "rarity": "5/138",
            "drop_requirements": null
        },
        "526": {
            "id": 526,
            "name": "Bones",
            "members": true,
            "quantity": "1",
            "noted": false,
            "rarity": "1/1",
            "drop_requirements": null
        },
        "561": {
            "id": 561,
            "name": "Nature rune",
            "members": true,
            "quantity": "3",
            "noted": false,
            "rarity": "8/138",
            "drop_requirements": null
        },
        "827": {
            "id": 827,
            "name": "Steel javelin",
            "members": true,
            "quantity": "10",
            "noted": false,
            "rarity": "3/138",
            "drop_requirements": null
        },
        "828": {
            "id": 828,
            "name": "Mithril javelin",
            "members": true,
            "quantity": "10",
            "noted": false,
            "rarity": "2/138",
            "drop_requirements": null
        },
        "878": {
            "id": 878,
            "name": "Bronze bolts (p)",
            "members": true,
            "quantity": "4",
            "noted": false,
            "rarity": "2/138",
            "drop_requirements": null
        },
        "887": {
            "id": 887,
            "name": "Steel arrow(p)",
            "members": true,
            "quantity": "5",
            "noted": false,
            "rarity": "2/138",
            "drop_requirements": null
        },
        "1237": {
            "id": 1237,
            "name": "Bronze spear",
            "members": true,
            "quantity": "1",
            "noted": false,
            "rarity": "7/138",
            "drop_requirements": null
        },
        "1239": {
            "id": 1239,
            "name": "Iron spear",
            "members": true,
            "quantity": "1",
            "noted": false,
            "rarity": "2/138",
            "drop_requirements": null
        },
        "1243": {
            "id": 1243,
            "name": "Mithril spear",
            "members": true,
            "quantity": "1",
            "noted": false,
            "rarity": "1/138",
            "drop_requirements": null
        },
        "1525": {
            "id": 1525,
            "name": "Grimy snake weed",
            "members": true,
            "quantity": "1",
            "noted": false,
            "rarity": "5/138",
            "drop_requirements": null
        },
        "1533": {
            "id": 1533,
            "name": "Grimy rogue's purse",
            "members": true,
            "quantity": "1",
            "noted": false,
            "rarity": "5/138",
            "drop_requirements": null
        },
        "1933": {
            "id": 1933,
            "name": "Pot of flour",
            "members": true,
            "quantity": "1",
            "noted": false,
            "rarity": "1/138",
            "drop_requirements": null
        },
        "2309": {
            "id": 2309,
            "name": "Bread",
            "members": true,
            "quantity": "1",
            "noted": false,
            "rarity": "1/138",
            "drop_requirements": null
        },
        "2801": {
            "id": 2801,
            "name": "Clue scroll (medium)",
            "members": true,
            "quantity": "1",
            "noted": false,
            "rarity": "1/138",
            "drop_requirements": null
        },
        "3188": {
            "id": 3188,
            "name": "Cleaning cloth",
            "members": true,
            "quantity": "1",
            "noted": false,
            "rarity": "12/138",
            "drop_requirements": null
        },
        "6306": {
            "id": 6306,
            "name": "Trading sticks",
            "members": true,
            "quantity": "62",
            "noted": false,
            "rarity": "5/138",
            "drop_requirements": null
        }
    },
    "rare_drop_table": true
}