{
    "id": 5281,
    "name": "Monkey Zombie",
    "incomplete": false,
    "members": true,
    "release_date": "2004-12-06",
    "combat_level": 98,
    "size": 1,
    "hitpoints": 60,
    "max_hit": 7,
    "attack_type": [
        "crush"
    ],
    "attack_speed": 4,
    "aggressive": true,
    "poisonous": false,
    "immune_poison": false,
    "immune_venom": false,
    "weakness": [
        "crumble undead"
    ],
    "slayer_monster": true,
    "slayer_level": 1,
    "slayer_xp": 90.0,
    "slayer_masters": [
        "turael"
    ],
    "duplicate": false,
    "examine": "A large and lumbering undead monkey.",
    "wiki_name": "Monkey Zombie (Lv 98)",
    "wiki_url": "https://oldschool.runescape.wiki/w/Monkey_Zombie#Lv_98",
    "attack_level": 150,
    "strength_level": 60,
    "defence_level": 60,
    "magic_level": 60,
    "ranged_level": 1,
    "attack_stab": 0,
    "attack_slash": 0,
    "attack_crush": 0,
    "attack_magic": 0,
    "attack_ranged": 0,
    "defence_stab": 0,
    "defence_slash": 0,
    "defence_crush": 0,
    "defence_magic": 0,
    "defence_ranged": 0,
    "attack_accuracy": 35,
    "melee_strength": 0,
    "ranged_strength": 0,
    "magic_damage": 0,
    "drops": {
        "3185": {
            "id": 3185,
            "name": "Monkey bones (small zombie)",
            "members": true,
            "quantity": "1",
            "noted": false,
            "rarity": "1/1",
            "drop_requirements": null
        },
        "3186": {
            "id": 3186,
            "name": "Monkey bones (large zombie)",
            "members": true,
            "quantity": "1",
            "noted": false,
            "rarity": "1/1",
            "drop_requirements": null
        },
        "7854": {
            "id": 7854,
            "name": "Monkey paw",
            "members": true,
            "quantity": "1",
            "noted": false,
            "rarity": "1/1",
            "drop_requirements": null
        }
    },
    "rare_drop_table": false
}