{
    "id": 5334,
    "name": "Cave goblin guard",
    "incomplete": false,
    "members": true,
    "release_date": "2005-05-31",
    "combat_level": 26,
    "size": 1,
    "hitpoints": 26,
    "max_hit": 3,
    "attack_type": [
        "crush"
    ],
    "attack_speed": 6,
    "aggressive": false,
    "poisonous": false,
    "immune_poison": false,
    "immune_venom": false,
    "weakness": [
        "magic"
    ],
    "slayer_monster": true,
    "slayer_level": 1,
    "slayer_xp": 26.0,
    "slayer_masters": [
        "turael"
    ],
    "duplicate": false,
    "examine": "He protects the miners.",
    "wiki_name": "Cave goblin guard (Level 26)",
    "wiki_url": "https://oldschool.runescape.wiki/w/Cave_goblin_guard#Level_26",
    "attack_level": 22,
    "strength_level": 16,
    "defence_level": 22,
    "magic_level": 1,
    "ranged_level": 1,
    "attack_stab": 0,
    "attack_slash": 0,
    "attack_crush": 0,
    "attack_magic": -4,
    "attack_ranged": 0,
    "defence_stab": 0,
    "defence_slash": 15,
    "defence_crush": 19,
    "defence_magic": -3,
    "defence_ranged": 12,
    "attack_accuracy": 0,
    "melee_strength": 0,
    "ranged_strength": 0,
    "magic_damage": 0,
    "drops": {
        "526": {
            "id": 526,
            "name": "Bones",
            "members": true,
            "quantity": "1",
            "noted": false,
            "rarity": "1/1",
            "drop_requirements": null
        },
        "590": {
            "id": 590,
            "name": "Tinderbox",
            "members": true,
            "quantity": "1",
            "noted": false,
            "rarity": "20/128",
            "drop_requirements": null
        },
        "617": {
            "id": 617,
            "name": "Coins",
            "members": true,
            "quantity": "12",
            "noted": false,
            "rarity": "20/128",
            "drop_requirements": null
        },
        "1101": {
            "id": 1101,
            "name": "Iron chainbody",
            "members": true,
            "quantity": "1",
            "noted": false,
            "rarity": "20/128",
            "drop_requirements": null
        },
        "4537": {
            "id": 4537,
            "name": "Oil lantern",
            "members": true,
            "quantity": "1",
            "noted": false,
            "rarity": "20/128",
            "drop_requirements": null
        },
        "5016": {
            "id": 5016,
            "name": "Bone spear",
            "members": true,
            "quantity": "1",
            "noted": false,
            "rarity": "20/128",
            "drop_requirements": null
        },
        "5018": {
            "id": 5018,
            "name": "Bone club",
            "members": true,
            "quantity": "1",
            "noted": false,
            "rarity": "20/128",
            "drop_requirements": null
        },
        "7905": {
            "id": 7905,
            "name": "Cave goblin skull",
            "members": true,
            "quantity": "1",
            "noted": false,
            "rarity": "1/4",
            "drop_requirements": null
        }
    },
    "rare_drop_table": false
}