{
    "id": 5351,
    "name": "Undead one",
    "incomplete": false,
    "members": true,
    "release_date": "2003-01-27",
    "combat_level": 73,
    "size": 1,
    "hitpoints": 59,
    "max_hit": 8,
    "attack_type": [
        "slash"
    ],
    "attack_speed": 4,
    "aggressive": true,
    "poisonous": false,
    "immune_poison": false,
    "immune_venom": false,
    "weakness": [
        "crumble undead"
    ],
    "slayer_monster": true,
    "slayer_level": 1,
    "slayer_xp": 59.0,
    "slayer_masters": [
        "turael",
        "mazchna"
    ],
    "duplicate": true,
    "examine": "The animated dead, one of Rashiliyia's minions.",
    "wiki_name": "Undead one (Lv 73)",
    "wiki_url": "https://oldschool.runescape.wiki/w/Undead_one#Lv_73",
    "attack_level": 65,
    "strength_level": 65,
    "defence_level": 65,
    "magic_level": 0,
    "ranged_level": 0,
    "attack_stab": 0,
    "attack_slash": 0,
    "attack_crush": 0,
    "attack_magic": 0,
    "attack_ranged": 0,
    "defence_stab": 0,
    "defence_slash": 0,
    "defence_crush": 0,
    "defence_magic": 0,
    "defence_ranged": 0,
    "attack_accuracy": 4,
    "melee_strength": 5,
    "ranged_strength": 0,
    "magic_damage": 0,
    "drops": {
        "526": {
            "id": 526,
            "name": "Bones",
            "members": true,
            "quantity": "1",
            "noted": false,
            "rarity": "1/1",
            "drop_requirements": null
        },
        "6806": {
            "id": 6806,
            "name": "Skeleton champion scroll",
            "members": true,
            "quantity": "1",
            "noted": false,
            "rarity": "1/512",
            "drop_requirements": null
        },
        "6807": {
            "id": 6807,
            "name": "Zombie champion scroll",
            "members": true,
            "quantity": "1",
            "noted": false,
            "rarity": "1/512",
            "drop_requirements": null
        }
    },
    "rare_drop_table": false
}