{
    "id": 5635,
    "name": "Vampyre Juvinate",
    "incomplete": true,
    "members": true,
    "release_date": "2006-03-28",
    "combat_level": 90,
    "size": 1,
    "hitpoints": 100,
    "max_hit": 6,
    "attack_type": [
        "slash"
    ],
    "attack_speed": 4,
    "aggressive": true,
    "poisonous": false,
    "immune_poison": false,
    "immune_venom": false,
    "weakness": [],
    "slayer_monster": false,
    "slayer_level": null,
    "slayer_xp": null,
    "slayer_masters": [],
    "duplicate": false,
    "examine": "A juvinate vampyre. It looks really hungry!",
    "wiki_name": "Vampyre Juvinate (Lv 90)",
    "wiki_url": "https://oldschool.runescape.wiki/w/Vampyre_Juvinate#Lv_90",
    "attack_level": 113,
    "strength_level": 46,
    "defence_level": 55,
    "magic_level": 50,
    "ranged_level": 50,
    "attack_stab": 0,
    "attack_slash": 0,
    "attack_crush": 0,
    "attack_magic": 0,
    "attack_ranged": 0,
    "defence_stab": 0,
    "defence_slash": 0,
    "defence_crush": 0,
    "defence_magic": 0,
    "defence_ranged": 0,
    "attack_accuracy": 0,
    "melee_strength": 0,
    "ranged_strength": 0,
    "magic_damage": 0,
    "drops": {
        "560": {
            "id": 560,
            "name": "Death rune",
            "members": true,
            "quantity": "10",
            "noted": false,
            "rarity": "1/128",
            "drop_requirements": null
        },
        "561": {
            "id": 561,
            "name": "Nature rune",
            "members": true,
            "quantity": "10",
            "noted": false,
            "rarity": "1/128",
            "drop_requirements": null
        },
        "1071": {
            "id": 1071,
            "name": "Mithril platelegs",
            "members": true,
            "quantity": "1",
            "noted": false,
            "rarity": "1/128",
            "drop_requirements": null
        },
        "1077": {
            "id": 1077,
            "name": "Black platelegs",
            "members": true,
            "quantity": "1",
            "noted": false,
            "rarity": "1/128",
            "drop_requirements": null
        },
        "1083": {
            "id": 1083,
            "name": "Steel plateskirt",
            "members": true,
            "quantity": "1",
            "noted": false,
            "rarity": "1/8",
            "drop_requirements": null
        },
        "1107": {
            "id": 1107,
            "name": "Black chainbody",
            "members": true,
            "quantity": "1",
            "noted": false,
            "rarity": "1/128",
            "drop_requirements": null
        },
        "1109": {
            "id": 1109,
            "name": "Mithril chainbody",
            "members": true,
            "quantity": "1",
            "noted": false,
            "rarity": "1/32",
            "drop_requirements": null
        },
        "1119": {
            "id": 1119,
            "name": "Steel platebody",
            "members": true,
            "quantity": "1",
            "noted": false,
            "rarity": "1/8",
            "drop_requirements": null
        },
        "1145": {
            "id": 1145,
            "name": "Adamant med helm",
            "members": true,
            "quantity": "1",
            "noted": false,
            "rarity": "1/128",
            "drop_requirements": null
        },
        "1159": {
            "id": 1159,
            "name": "Mithril full helm",
            "members": true,
            "quantity": "1",
            "noted": false,
            "rarity": "1/32",
            "drop_requirements": null
        },
        "1165": {
            "id": 1165,
            "name": "Black full helm",
            "members": true,
            "quantity": "1",
            "noted": false,
            "rarity": "1/32",
            "drop_requirements": null
        },
        "1179": {
            "id": 1179,
            "name": "Black sq shield",
            "members": true,
            "quantity": "1",
            "noted": false,
            "rarity": "1/32",
            "drop_requirements": null
        },
        "1181": {
            "id": 1181,
            "name": "Mithril sq shield",
            "members": true,
            "quantity": "1",
            "noted": false,
            "rarity": "1/128",
            "drop_requirements": null
        },
        "1195": {
            "id": 1195,
            "name": "Black kiteshield",
            "members": true,
            "quantity": "1",
            "noted": false,
            "rarity": "1/32",
            "drop_requirements": null
        },
        "1287": {
            "id": 1287,
            "name": "Adamant sword",
            "members": true,
            "quantity": "1",
            "noted": false,
            "rarity": "1/128",
            "drop_requirements": null
        },
        "1299": {
            "id": 1299,
            "name": "Mithril longsword",
            "members": true,
            "quantity": "1",
            "noted": false,
            "rarity": "1/32",
            "drop_requirements": null
        },
        "1313": {
            "id": 1313,
            "name": "Black 2h sword",
            "members": true,
            "quantity": "1",
            "noted": false,
            "rarity": "1/128",
            "drop_requirements": null
        },
        "1315": {
            "id": 1315,
            "name": "Mithril 2h sword",
            "members": true,
            "quantity": "1",
            "noted": false,
            "rarity": "1/128",
            "drop_requirements": null
        },
        "1329": {
            "id": 1329,
            "name": "Mithril scimitar",
            "members": true,
            "quantity": "1",
            "noted": false,
            "rarity": "1/32",
            "drop_requirements": null
        },
        "1331": {
            "id": 1331,
            "name": "Adamant scimitar",
            "members": true,
            "quantity": "1",
            "noted": false,
            "rarity": "1/128",
            "drop_requirements": null
        },
        "1343": {
            "id": 1343,
            "name": "Mithril warhammer",
            "members": true,
            "quantity": "1",
            "noted": false,
            "rarity": "1/128",
            "drop_requirements": null
        },
        "1357": {
            "id": 1357,
            "name": "Adamant axe",
            "members": true,
            "quantity": "1",
            "noted": false,
            "rarity": "1/32",
            "drop_requirements": null
        },
        "1367": {
            "id": 1367,
            "name": "Black battleaxe",
            "members": true,
            "quantity": "1",
            "noted": false,
            "rarity": "1/32",
            "drop_requirements": null
        },
        "1369": {
            "id": 1369,
            "name": "Mithril battleaxe",
            "members": true,
            "quantity": "1",
            "noted": false,
            "rarity": "1/32",
            "drop_requirements": null
        },
        "1381": {
            "id": 1381,
            "name": "Staff of air",
            "members": true,
            "quantity": "1",
            "noted": false,
            "rarity": "1/128",
            "drop_requirements": null
        },
        "1387": {
            "id": 1387,
            "name": "Staff of fire",
            "members": true,
            "quantity": "1",
            "noted": false,
            "rarity": "1/128",
            "drop_requirements": null
        },
        "1430": {
            "id": 1430,
            "name": "Adamant mace",
            "members": true,
            "quantity": "1",
            "noted": false,
            "rarity": "1/128",
            "drop_requirements": null
        },
        "1515": {
            "id": 1515,
            "name": "Yew logs",
            "members": true,
            "quantity": "5",
            "noted": false,
            "rarity": "1/32",
            "drop_requirements": null
        },
        "1519": {
            "id": 1519,
            "name": "Willow logs",
            "members": true,
            "quantity": "5",
            "noted": false,
            "rarity": "1/32",
            "drop_requirements": null
        },
        "1641": {
            "id": 1641,
            "name": "Ruby ring",
            "members": true,
            "quantity": "1",
            "noted": false,
            "rarity": "1/32",
            "drop_requirements": null
        },
        "2801": {
            "id": 2801,
            "name": "Clue scroll (medium)",
            "members": true,
            "quantity": "1",
            "noted": false,
            "rarity": "1/128",
            "drop_requirements": null
        },
        "4580": {
            "id": 4580,
            "name": "Black spear",
            "members": true,
            "quantity": "1",
            "noted": false,
            "rarity": "1/128",
            "drop_requirements": null
        }
    },
    "rare_drop_table": false
}