{
    "id": 5658,
    "name": "Undead Lumberjack",
    "incomplete": true,
    "members": true,
    "release_date": "2007-03-13",
    "combat_level": 35,
    "size": 1,
    "hitpoints": 12,
    "max_hit": 0,
    "attack_type": [
        "crush"
    ],
    "attack_speed": 4,
    "aggressive": true,
    "poisonous": false,
    "immune_poison": false,
    "immune_venom": false,
    "weakness": [
        "crumble undead"
    ],
    "slayer_monster": false,
    "slayer_level": null,
    "slayer_xp": null,
    "slayer_masters": [],
    "duplicate": true,
    "examine": "He is one, but he's not alright.",
    "wiki_name": "Undead Lumberjack (Lv 35)",
    "wiki_url": "https://oldschool.runescape.wiki/w/Undead_Lumberjack#Lv_35",
    "attack_level": 0,
    "strength_level": 0,
    "defence_level": 0,
    "magic_level": 1,
    "ranged_level": 1,
    "attack_stab": 0,
    "attack_slash": 0,
    "attack_crush": 0,
    "attack_magic": 0,
    "attack_ranged": 0,
    "defence_stab": 0,
    "defence_slash": 0,
    "defence_crush": 0,
    "defence_magic": 0,
    "defence_ranged": 0,
    "attack_accuracy": 0,
    "melee_strength": 0,
    "ranged_strength": 0,
    "magic_damage": 0,
    "drops": {
        "526": {
            "id": 526,
            "name": "Bones",
            "members": true,
            "quantity": "1",
            "noted": false,
            "rarity": "1/1",
            "drop_requirements": null
        },
        "558": {
            "id": 558,
            "name": "Mind rune",
            "members": true,
            "quantity": "5",
            "noted": false,
            "rarity": "1/32",
            "drop_requirements": null
        },
        "884": {
            "id": 884,
            "name": "Iron arrow",
            "members": true,
            "quantity": "5",
            "noted": false,
            "rarity": "1/32",
            "drop_requirements": null
        },
        "886": {
            "id": 886,
            "name": "Steel arrow",
            "members": true,
            "quantity": "5",
            "noted": false,
            "rarity": "1/32",
            "drop_requirements": null
        },
        "960": {
            "id": 960,
            "name": "Plank",
            "members": true,
            "quantity": "1",
            "noted": false,
            "rarity": "1/1",
            "drop_requirements": null
        },
        "1139": {
            "id": 1139,
            "name": "Bronze med helm",
            "members": true,
            "quantity": "1",
            "noted": false,
            "rarity": "1/32",
            "drop_requirements": null
        },
        "1291": {
            "id": 1291,
            "name": "Bronze longsword",
            "members": true,
            "quantity": "1",
            "noted": false,
            "rarity": "1/32",
            "drop_requirements": null
        },
        "3363": {
            "id": 3363,
            "name": "Thin snail",
            "members": true,
            "quantity": "1",
            "noted": false,
            "rarity": "1/32",
            "drop_requirements": null
        },
        "3365": {
            "id": 3365,
            "name": "Lean snail",
            "members": true,
            "quantity": "1",
            "noted": false,
            "rarity": "1/32",
            "drop_requirements": null
        },
        "3367": {
            "id": 3367,
            "name": "Fat snail",
            "members": true,
            "quantity": "3",
            "noted": false,
            "rarity": "1/32",
            "drop_requirements": null
        },
        "6807": {
            "id": 6807,
            "name": "Zombie champion scroll",
            "members": true,
            "quantity": "1",
            "noted": false,
            "rarity": "1/512",
            "drop_requirements": null
        },
        "7666": {
            "id": 7666,
            "name": "Guthix balance(1)",
            "members": true,
            "quantity": "1",
            "noted": false,
            "rarity": "1/32",
            "drop_requirements": null
        },
        "7863": {
            "id": 7863,
            "name": "Zombie bone",
            "members": true,
            "quantity": "1",
            "noted": false,
            "rarity": "1/8",
            "drop_requirements": null
        },
        "10933": {
            "id": 10933,
            "name": "Lumberjack boots",
            "members": true,
            "quantity": "1",
            "noted": false,
            "rarity": "1/8",
            "drop_requirements": null
        },
        "10939": {
            "id": 10939,
            "name": "Lumberjack top",
            "members": true,
            "quantity": "1",
            "noted": false,
            "rarity": "1/8",
            "drop_requirements": null
        },
        "10940": {
            "id": 10940,
            "name": "Lumberjack legs",
            "members": true,
            "quantity": "1",
            "noted": false,
            "rarity": "1/8",
            "drop_requirements": null
        },
        "10941": {
            "id": 10941,
            "name": "Lumberjack hat",
            "members": true,
            "quantity": "1",
            "noted": false,
            "rarity": "1/8",
            "drop_requirements": null
        }
    },
    "rare_drop_table": false
}