{
    "id": 5764,
    "name": "Penance Ranger",
    "incomplete": true,
    "members": true,
    "release_date": "2007-01-04",
    "combat_level": 64,
    "size": 1,
    "hitpoints": 55,
    "max_hit": 8,
    "attack_type": [
        "ranged",
        "ranged"
    ],
    "attack_speed": 4,
    "aggressive": true,
    "poisonous": false,
    "immune_poison": false,
    "immune_venom": false,
    "weakness": [],
    "slayer_monster": false,
    "slayer_level": null,
    "slayer_xp": null,
    "slayer_masters": [],
    "duplicate": false,
    "examine": "Shooty-shooty.",
    "wiki_name": "Penance Ranger (Wave 8)",
    "wiki_url": "https://oldschool.runescape.wiki/w/Penance_Ranger#Wave_8",
    "attack_level": 0,
    "strength_level": 0,
    "defence_level": 0,
    "magic_level": 0,
    "ranged_level": 0,
    "attack_stab": 0,
    "attack_slash": 0,
    "attack_crush": 0,
    "attack_magic": 0,
    "attack_ranged": 0,
    "defence_stab": 0,
    "defence_slash": 0,
    "defence_crush": 0,
    "defence_magic": 0,
    "defence_ranged": 0,
    "attack_accuracy": 0,
    "melee_strength": 0,
    "ranged_strength": 0,
    "magic_damage": 0,
    "drops": {
        "10531": {
            "id": 10531,
            "name": "Green egg",
            "members": true,
            "quantity": "2",
            "noted": false,
            "rarity": "1/1",
            "drop_requirements": null
        },
        "10532": {
            "id": 10532,
            "name": "Red egg",
            "members": true,
            "quantity": "2",
            "noted": false,
            "rarity": "1/1",
            "drop_requirements": null
        },
        "10533": {
            "id": 10533,
            "name": "Blue egg",
            "members": true,
            "quantity": "2",
            "noted": false,
            "rarity": "1/1",
            "drop_requirements": null
        }
    },
    "rare_drop_table": false
}