{
    "id": 5853,
    "name": "Baby tanglefoot",
    "incomplete": true,
    "members": true,
    "release_date": "2006-02-27",
    "combat_level": 45,
    "size": 1,
    "hitpoints": 40,
    "max_hit": 5,
    "attack_type": [
        "slash"
    ],
    "attack_speed": 4,
    "aggressive": false,
    "poisonous": false,
    "immune_poison": false,
    "immune_venom": false,
    "weakness": [
        "magic"
    ],
    "slayer_monster": false,
    "slayer_level": null,
    "slayer_xp": null,
    "slayer_masters": [],
    "duplicate": false,
    "examine": "An animated shrub.",
    "wiki_name": "Baby tanglefoot (Tan)",
    "wiki_url": "https://oldschool.runescape.wiki/w/Baby_tanglefoot#Tan",
    "attack_level": 40,
    "strength_level": 38,
    "defence_level": 40,
    "magic_level": 1,
    "ranged_level": 1,
    "attack_stab": 0,
    "attack_slash": 0,
    "attack_crush": 0,
    "attack_magic": 0,
    "attack_ranged": 0,
    "defence_stab": 0,
    "defence_slash": 0,
    "defence_crush": 0,
    "defence_magic": 0,
    "defence_ranged": 0,
    "attack_accuracy": 0,
    "melee_strength": 0,
    "ranged_strength": 0,
    "magic_damage": 0,
    "drops": {
        "6020": {
            "id": 6020,
            "name": "Leaves",
            "members": true,
            "quantity": "1",
            "noted": false,
            "rarity": "1/1",
            "drop_requirements": null
        }
    },
    "rare_drop_table": false
}