{
    "id": 5873,
    "name": "Baby dragon",
    "incomplete": false,
    "members": true,
    "release_date": "2015-09-10",
    "combat_level": 48,
    "size": 2,
    "hitpoints": 50,
    "max_hit": 5,
    "attack_type": [
        "slash"
    ],
    "attack_speed": 4,
    "aggressive": true,
    "poisonous": false,
    "immune_poison": false,
    "immune_venom": false,
    "weakness": [
        "stab",
        "ranged",
        "dragonbane"
    ],
    "slayer_monster": true,
    "slayer_level": 1,
    "slayer_xp": 50.0,
    "slayer_masters": [
        "vannaka",
        "chaeldar"
    ],
    "duplicate": false,
    "examine": "Young but still dangerous.",
    "wiki_name": "Baby dragon (green) (3)",
    "wiki_url": "https://oldschool.runescape.wiki/w/Baby_dragon_(green)#3",
    "attack_level": 40,
    "strength_level": 40,
    "defence_level": 40,
    "magic_level": 1,
    "ranged_level": 1,
    "attack_stab": 0,
    "attack_slash": 0,
    "attack_crush": 0,
    "attack_magic": 0,
    "attack_ranged": 0,
    "defence_stab": 30,
    "defence_slash": 50,
    "defence_crush": 50,
    "defence_magic": 40,
    "defence_ranged": 30,
    "attack_accuracy": 0,
    "melee_strength": 0,
    "ranged_strength": 0,
    "magic_damage": 0,
    "drops": {
        "534": {
            "id": 534,
            "name": "Babydragon bones",
            "members": true,
            "quantity": "1",
            "noted": false,
            "rarity": "1/1",
            "drop_requirements": null
        }
    },
    "rare_drop_table": false
}