{
    "id": 5887,
    "name": "Abyssal Sire",
    "incomplete": false,
    "members": true,
    "release_date": "2015-10-01",
    "combat_level": 350,
    "size": 6,
    "hitpoints": 400,
    "max_hit": 66,
    "attack_type": [
        "melee"
    ],
    "attack_speed": 7,
    "aggressive": false,
    "poisonous": true,
    "immune_poison": false,
    "immune_venom": false,
    "weakness": [
        "stab",
        "magic",
        "demonbane"
    ],
    "slayer_monster": true,
    "slayer_level": 85,
    "slayer_xp": 450.0,
    "slayer_masters": [
        "vannaka",
        "chaeldar",
        "konar",
        "nieve",
        "duradel"
    ],
    "duplicate": true,
    "examine": "A higher order of abyssal demon.",
    "wiki_name": "Abyssal Sire (Phase 1)",
    "wiki_url": "https://oldschool.runescape.wiki/w/Abyssal_Sire#Phase_1",
    "attack_level": 180,
    "strength_level": 136,
    "defence_level": 250,
    "magic_level": 200,
    "ranged_level": 1,
    "attack_stab": 0,
    "attack_slash": 0,
    "attack_crush": 0,
    "attack_magic": 0,
    "attack_ranged": 0,
    "defence_stab": 40,
    "defence_slash": 60,
    "defence_crush": 50,
    "defence_magic": 20,
    "defence_ranged": 60,
    "attack_accuracy": 65,
    "melee_strength": 0,
    "ranged_strength": 0,
    "magic_damage": 0,
    "drops": {
        "2": {
            "id": 2,
            "name": "Cannonball",
            "members": true,
            "quantity": "300",
            "noted": false,
            "rarity": "4/139",
            "drop_requirements": null
        },
        "213": {
            "id": 213,
            "name": "Grimy kwuarm",
            "members": true,
            "quantity": "25",
            "noted": true,
            "rarity": "1/97.3",
            "drop_requirements": null
        },
        "215": {
            "id": 215,
            "name": "Grimy cadantine",
            "members": true,
            "quantity": "25",
            "noted": true,
            "rarity": "1/108.1",
            "drop_requirements": null
        },
        "217": {
            "id": 217,
            "name": "Grimy dwarf weed",
            "members": true,
            "quantity": "25",
            "noted": true,
            "rarity": "1/108.1",
            "drop_requirements": null
        },
        "451": {
            "id": 451,
            "name": "Runite ore",
            "members": true,
            "quantity": "6",
            "noted": true,
            "rarity": "4/139",
            "drop_requirements": null
        },
        "453": {
            "id": 453,
            "name": "Coal",
            "members": true,
            "quantity": "380-420",
            "noted": true,
            "rarity": "6/139",
            "drop_requirements": null
        },
        "560": {
            "id": 560,
            "name": "Death rune",
            "members": true,
            "quantity": "330-370",
            "noted": false,
            "rarity": "5/139",
            "drop_requirements": null
        },
        "563": {
            "id": 563,
            "name": "Law rune",
            "members": true,
            "quantity": "250",
            "noted": false,
            "rarity": "5/139",
            "drop_requirements": null
        },
        "564": {
            "id": 564,
            "name": "Cosmic rune",
            "members": true,
            "quantity": "350",
            "noted": false,
            "rarity": "4/139",
            "drop_requirements": null
        },
        "565": {
            "id": 565,
            "name": "Blood rune",
            "members": true,
            "quantity": "190-210",
            "noted": false,
            "rarity": "5/139",
            "drop_requirements": null
        },
        "566": {
            "id": 566,
            "name": "Soul rune",
            "members": true,
            "quantity": "225-275",
            "noted": false,
            "rarity": "5/139",
            "drop_requirements": null
        },
        "575": {
            "id": 575,
            "name": "Earth orb",
            "members": true,
            "quantity": "47-53",
            "noted": true,
            "rarity": "5/139",
            "drop_requirements": null
        },
        "592": {
            "id": 592,
            "name": "Ashes",
            "members": true,
            "quantity": "1",
            "noted": false,
            "rarity": "1/1",
            "drop_requirements": null
        },
        "617": {
            "id": 617,
            "name": "Coins",
            "members": true,
            "quantity": "48000-52000",
            "noted": false,
            "rarity": "11/139",
            "drop_requirements": null
        },
        "1127": {
            "id": 1127,
            "name": "Rune platebody",
            "members": true,
            "quantity": "2",
            "noted": true,
            "rarity": "4/139",
            "drop_requirements": null
        },
        "1163": {
            "id": 1163,
            "name": "Rune full helm",
            "members": true,
            "quantity": "3",
            "noted": true,
            "rarity": "4/139",
            "drop_requirements": null
        },
        "1201": {
            "id": 1201,
            "name": "Rune kiteshield",
            "members": true,
            "quantity": "2",
            "noted": true,
            "rarity": "3/139",
            "drop_requirements": null
        },
        "1289": {
            "id": 1289,
            "name": "Rune sword",
            "members": true,
            "quantity": "3",
            "noted": true,
            "rarity": "4/139",
            "drop_requirements": null
        },
        "1391": {
            "id": 1391,
            "name": "Battlestaff",
            "members": true,
            "quantity": "10",
            "noted": true,
            "rarity": "6/139",
            "drop_requirements": null
        },
        "1397": {
            "id": 1397,
            "name": "Air battlestaff",
            "members": true,
            "quantity": "6",
            "noted": true,
            "rarity": "2/139",
            "drop_requirements": null
        },
        "1405": {
            "id": 1405,
            "name": "Mystic air staff",
            "members": true,
            "quantity": "2",
            "noted": true,
            "rarity": "2/139",
            "drop_requirements": null
        },
        "1513": {
            "id": 1513,
            "name": "Magic logs",
            "members": true,
            "quantity": "50-70",
            "noted": true,
            "rarity": "5/139",
            "drop_requirements": null
        },
        "1617": {
            "id": 1617,
            "name": "Uncut diamond",
            "members": true,
            "quantity": "15",
            "noted": true,
            "rarity": "5/139",
            "drop_requirements": null
        },
        "1937": {
            "id": 1937,
            "name": "Jug of water",
            "members": true,
            "quantity": "250-350",
            "noted": true,
            "rarity": "2/139",
            "drop_requirements": null
        },
        "2363": {
            "id": 2363,
            "name": "Runite bar",
            "members": true,
            "quantity": "5",
            "noted": true,
            "rarity": "2/139",
            "drop_requirements": null
        },
        "2485": {
            "id": 2485,
            "name": "Grimy lantadyme",
            "members": true,
            "quantity": "25",
            "noted": true,
            "rarity": "1/139",
            "drop_requirements": null
        },
        "3024": {
            "id": 3024,
            "name": "Super restore(4)",
            "members": true,
            "quantity": "4",
            "noted": false,
            "rarity": "5/139",
            "drop_requirements": null
        },
        "3054": {
            "id": 3054,
            "name": "Mystic lava staff",
            "members": true,
            "quantity": "2",
            "noted": true,
            "rarity": "4/139",
            "drop_requirements": null
        },
        "5521": {
            "id": 5521,
            "name": "Binding necklace",
            "members": true,
            "quantity": "25",
            "noted": true,
            "rarity": "4/139",
            "drop_requirements": null
        },
        "6687": {
            "id": 6687,
            "name": "Saradomin brew(3)",
            "members": true,
            "quantity": "6",
            "noted": false,
            "rarity": "2/139",
            "drop_requirements": null
        },
        "7054": {
            "id": 7054,
            "name": "Chilli potato",
            "members": true,
            "quantity": "10",
            "noted": false,
            "rarity": "7/139",
            "drop_requirements": null
        },
        "7936": {
            "id": 7936,
            "name": "Pure essence",
            "members": true,
            "quantity": "600",
            "noted": true,
            "rarity": "5/139",
            "drop_requirements": null
        },
        "9194": {
            "id": 9194,
            "name": "Onyx bolt tips",
            "members": true,
            "quantity": "10",
            "noted": false,
            "rarity": "3/139",
            "drop_requirements": null
        },
        "12073": {
            "id": 12073,
            "name": "Clue scroll (elite)",
            "members": true,
            "quantity": "1",
            "noted": false,
            "rarity": "1/180",
            "drop_requirements": null
        },
        "13273": {
            "id": 13273,
            "name": "Unsired",
            "members": true,
            "quantity": "1",
            "noted": false,
            "rarity": "1/100",
            "drop_requirements": null
        },
        "23083": {
            "id": 23083,
            "name": "Brimstone key",
            "members": true,
            "quantity": "1",
            "noted": false,
            "rarity": "1/50",
            "drop_requirements": null
        }
    },
    "rare_drop_table": true
}