{
    "id": 593,
    "name": "Zombie pirate",
    "incomplete": false,
    "members": true,
    "release_date": "2005-10-31",
    "combat_level": 57,
    "size": 1,
    "hitpoints": 52,
    "max_hit": 6,
    "attack_type": [
        "crush"
    ],
    "attack_speed": 3,
    "aggressive": true,
    "poisonous": false,
    "immune_poison": false,
    "immune_venom": false,
    "weakness": [
        "slash"
    ],
    "slayer_monster": true,
    "slayer_level": 1,
    "slayer_xp": 52.0,
    "slayer_masters": [
        "turael",
        "mazchna"
    ],
    "duplicate": true,
    "examine": "An undead sea scoundrel.",
    "wiki_name": "Zombie pirate",
    "wiki_url": "https://oldschool.runescape.wiki/w/Zombie_pirate",
    "attack_level": 49,
    "strength_level": 50,
    "defence_level": 50,
    "magic_level": 1,
    "ranged_level": 1,
    "attack_stab": 0,
    "attack_slash": 0,
    "attack_crush": 0,
    "attack_magic": 0,
    "attack_ranged": 0,
    "defence_stab": 0,
    "defence_slash": 0,
    "defence_crush": 0,
    "defence_magic": 0,
    "defence_ranged": 0,
    "attack_accuracy": 0,
    "melee_strength": 0,
    "ranged_strength": 0,
    "magic_damage": 0,
    "drops": {
        "313": {
            "id": 313,
            "name": "Fishing bait",
            "members": true,
            "quantity": "10",
            "noted": false,
            "rarity": "5/128",
            "drop_requirements": null
        },
        "440": {
            "id": 440,
            "name": "Iron ore",
            "members": true,
            "quantity": "1",
            "noted": false,
            "rarity": "1/128",
            "drop_requirements": null
        },
        "526": {
            "id": 526,
            "name": "Bones",
            "members": true,
            "quantity": "1",
            "noted": false,
            "rarity": "1/1",
            "drop_requirements": null
        },
        "555": {
            "id": 555,
            "name": "Water rune",
            "members": true,
            "quantity": "17",
            "noted": false,
            "rarity": "1/128",
            "drop_requirements": null
        },
        "556": {
            "id": 556,
            "name": "Air rune",
            "members": true,
            "quantity": "3",
            "noted": false,
            "rarity": "3/128",
            "drop_requirements": null
        },
        "559": {
            "id": 559,
            "name": "Body rune",
            "members": true,
            "quantity": "3",
            "noted": false,
            "rarity": "2/128",
            "drop_requirements": null
        },
        "562": {
            "id": 562,
            "name": "Chaos rune",
            "members": true,
            "quantity": "4",
            "noted": false,
            "rarity": "1/128",
            "drop_requirements": null
        },
        "564": {
            "id": 564,
            "name": "Cosmic rune",
            "members": true,
            "quantity": "2",
            "noted": false,
            "rarity": "3/128",
            "drop_requirements": null
        },
        "617": {
            "id": 617,
            "name": "Coins",
            "members": true,
            "quantity": "40",
            "noted": false,
            "rarity": "2/128",
            "drop_requirements": null
        },
        "877": {
            "id": 877,
            "name": "Bronze bolts",
            "members": true,
            "quantity": "2-12",
            "noted": false,
            "rarity": "3/128",
            "drop_requirements": null
        },
        "1025": {
            "id": 1025,
            "name": "Right eye patch",
            "members": true,
            "quantity": "1",
            "noted": false,
            "rarity": "1/128",
            "drop_requirements": null
        },
        "1203": {
            "id": 1203,
            "name": "Iron dagger",
            "members": true,
            "quantity": "1",
            "noted": false,
            "rarity": "2/128",
            "drop_requirements": null
        },
        "1325": {
            "id": 1325,
            "name": "Steel scimitar",
            "members": true,
            "quantity": "1",
            "noted": false,
            "rarity": "3/128",
            "drop_requirements": null
        },
        "6716": {
            "id": 6716,
            "name": "Karamthulhu",
            "members": true,
            "quantity": "1",
            "noted": false,
            "rarity": "3/128",
            "drop_requirements": null
        },
        "6721": {
            "id": 6721,
            "name": "Rusty scimitar",
            "members": true,
            "quantity": "1",
            "noted": false,
            "rarity": "1/128",
            "drop_requirements": null
        },
        "6807": {
            "id": 6807,
            "name": "Zombie champion scroll",
            "members": true,
            "quantity": "1",
            "noted": false,
            "rarity": "1/5000",
            "drop_requirements": null
        },
        "7863": {
            "id": 7863,
            "name": "Zombie bone",
            "members": true,
            "quantity": "1",
            "noted": false,
            "rarity": "1/4",
            "drop_requirements": null
        }
    },
    "rare_drop_table": true
}