{
    "id": 6049,
    "name": "Black Guard",
    "incomplete": false,
    "members": false,
    "release_date": "2005-05-31",
    "combat_level": 48,
    "size": 1,
    "hitpoints": 40,
    "max_hit": 8,
    "attack_type": [
        "crush"
    ],
    "attack_speed": 3,
    "aggressive": false,
    "poisonous": false,
    "immune_poison": false,
    "immune_venom": false,
    "weakness": [
        "magic"
    ],
    "slayer_monster": true,
    "slayer_level": 1,
    "slayer_xp": 40.0,
    "slayer_masters": [
        "turael"
    ],
    "duplicate": true,
    "examine": "A member of the Black Guard, a special division of the dwarven army.",
    "wiki_name": "Black Guard (Level 48)",
    "wiki_url": "https://oldschool.runescape.wiki/w/Black_Guard#Level_48",
    "attack_level": 40,
    "strength_level": 45,
    "defence_level": 45,
    "magic_level": 1,
    "ranged_level": 1,
    "attack_stab": 0,
    "attack_slash": 0,
    "attack_crush": 0,
    "attack_magic": 0,
    "attack_ranged": 0,
    "defence_stab": 40,
    "defence_slash": 40,
    "defence_crush": 40,
    "defence_magic": 0,
    "defence_ranged": 40,
    "attack_accuracy": 30,
    "melee_strength": 30,
    "ranged_strength": 0,
    "magic_damage": 0,
    "drops": {
        "436": {
            "id": 436,
            "name": "Copper ore",
            "members": false,
            "quantity": "1",
            "noted": false,
            "rarity": "1/32",
            "drop_requirements": null
        },
        "453": {
            "id": 453,
            "name": "Coal",
            "members": false,
            "quantity": "1",
            "noted": false,
            "rarity": "1/32",
            "drop_requirements": null
        },
        "526": {
            "id": 526,
            "name": "Bones",
            "members": false,
            "quantity": "1",
            "noted": false,
            "rarity": "1/1",
            "drop_requirements": null
        },
        "561": {
            "id": 561,
            "name": "Nature rune",
            "members": false,
            "quantity": "2",
            "noted": false,
            "rarity": "1/32",
            "drop_requirements": null
        },
        "562": {
            "id": 562,
            "name": "Chaos rune",
            "members": false,
            "quantity": "2",
            "noted": false,
            "rarity": "1/32",
            "drop_requirements": null
        },
        "617": {
            "id": 617,
            "name": "Coins",
            "members": true,
            "quantity": "4-42",
            "noted": false,
            "rarity": "1/8",
            "drop_requirements": null
        },
        "877": {
            "id": 877,
            "name": "Bronze bolts",
            "members": false,
            "quantity": "6",
            "noted": false,
            "rarity": "1/32",
            "drop_requirements": null
        },
        "1139": {
            "id": 1139,
            "name": "Bronze med helm",
            "members": false,
            "quantity": "1",
            "noted": false,
            "rarity": "1/8",
            "drop_requirements": null
        },
        "1265": {
            "id": 1265,
            "name": "Bronze pickaxe",
            "members": false,
            "quantity": "1",
            "noted": false,
            "rarity": "1/32",
            "drop_requirements": null
        },
        "1337": {
            "id": 1337,
            "name": "Bronze warhammer",
            "members": false,
            "quantity": "1",
            "noted": false,
            "rarity": "1/32",
            "drop_requirements": null
        },
        "1341": {
            "id": 1341,
            "name": "Black warhammer",
            "members": false,
            "quantity": "1",
            "noted": false,
            "rarity": "1/32",
            "drop_requirements": null
        },
        "1363": {
            "id": 1363,
            "name": "Iron battleaxe",
            "members": false,
            "quantity": "1",
            "noted": false,
            "rarity": "1/32",
            "drop_requirements": null
        },
        "1375": {
            "id": 1375,
            "name": "Bronze battleaxe",
            "members": false,
            "quantity": "1",
            "noted": false,
            "rarity": "1/32",
            "drop_requirements": null
        },
        "1592": {
            "id": 1592,
            "name": "Ring mould",
            "members": false,
            "quantity": null,
            "noted": false,
            "rarity": "1/32",
            "drop_requirements": null
        },
        "1929": {
            "id": 1929,
            "name": "Bucket of water",
            "members": false,
            "quantity": null,
            "noted": false,
            "rarity": "1/32",
            "drop_requirements": null
        },
        "2347": {
            "id": 2347,
            "name": "Hammer",
            "members": false,
            "quantity": "1",
            "noted": false,
            "rarity": "1/32",
            "drop_requirements": null
        },
        "2349": {
            "id": 2349,
            "name": "Bronze bar",
            "members": false,
            "quantity": "1",
            "noted": false,
            "rarity": "1/32",
            "drop_requirements": null
        },
        "2351": {
            "id": 2351,
            "name": "Iron bar",
            "members": false,
            "quantity": "1",
            "noted": false,
            "rarity": "1/32",
            "drop_requirements": null
        },
        "2801": {
            "id": 2801,
            "name": "Clue scroll (medium)",
            "members": true,
            "quantity": "1",
            "noted": false,
            "rarity": "1/128",
            "drop_requirements": null
        },
        "3711": {
            "id": 3711,
            "name": "Keg of beer",
            "members": true,
            "quantity": "1",
            "noted": false,
            "rarity": "1/32",
            "drop_requirements": null
        }
    },
    "rare_drop_table": true
}