{
    "id": 6079,
    "name": "Gnome child",
    "incomplete": true,
    "members": true,
    "release_date": "2002-12-12",
    "combat_level": 1,
    "size": 1,
    "hitpoints": 2,
    "max_hit": 1,
    "attack_type": [
        "crush"
    ],
    "attack_speed": 4,
    "aggressive": false,
    "poisonous": false,
    "immune_poison": false,
    "immune_venom": false,
    "weakness": [],
    "slayer_monster": false,
    "slayer_level": null,
    "slayer_xp": null,
    "slayer_masters": [],
    "duplicate": false,
    "examine": "Small, even by gnome standards.",
    "wiki_name": "Gnome child (Green)",
    "wiki_url": "https://oldschool.runescape.wiki/w/Gnome_child#Green",
    "attack_level": 1,
    "strength_level": 1,
    "defence_level": 1,
    "magic_level": 1,
    "ranged_level": 1,
    "attack_stab": 0,
    "attack_slash": 0,
    "attack_crush": 0,
    "attack_magic": 0,
    "attack_ranged": 0,
    "defence_stab": -42,
    "defence_slash": -42,
    "defence_crush": -42,
    "defence_magic": -42,
    "defence_ranged": -42,
    "attack_accuracy": 0,
    "melee_strength": 0,
    "ranged_strength": 0,
    "magic_damage": 0,
    "drops": {
        "444": {
            "id": 444,
            "name": "Gold ore",
            "members": true,
            "quantity": "1",
            "noted": false,
            "rarity": "1/8",
            "drop_requirements": null
        },
        "526": {
            "id": 526,
            "name": "Bones",
            "members": true,
            "quantity": "1",
            "noted": false,
            "rarity": "1/1",
            "drop_requirements": null
        },
        "557": {
            "id": 557,
            "name": "Earth rune",
            "members": true,
            "quantity": "1",
            "noted": false,
            "rarity": "1/8",
            "drop_requirements": null
        },
        "569": {
            "id": 569,
            "name": "Fire orb",
            "members": true,
            "quantity": "1",
            "noted": false,
            "rarity": "1/32",
            "drop_requirements": null
        },
        "617": {
            "id": 617,
            "name": "Coins",
            "members": true,
            "quantity": "300",
            "noted": false,
            "rarity": "1/8",
            "drop_requirements": null
        },
        "2025": {
            "id": 2025,
            "name": "Cocktail shaker",
            "members": true,
            "quantity": "1",
            "noted": false,
            "rarity": "1/8",
            "drop_requirements": null
        },
        "2102": {
            "id": 2102,
            "name": "Lemon",
            "members": true,
            "quantity": "1",
            "noted": false,
            "rarity": "1/8",
            "drop_requirements": null
        },
        "2120": {
            "id": 2120,
            "name": "Lime",
            "members": true,
            "quantity": "1",
            "noted": false,
            "rarity": "1/8",
            "drop_requirements": null
        },
        "2128": {
            "id": 2128,
            "name": "Equa leaves",
            "members": true,
            "quantity": "1",
            "noted": false,
            "rarity": "1/8",
            "drop_requirements": null
        },
        "2150": {
            "id": 2150,
            "name": "Swamp toad",
            "members": true,
            "quantity": "1",
            "noted": false,
            "rarity": "1/8",
            "drop_requirements": null
        },
        "2162": {
            "id": 2162,
            "name": "King worm",
            "members": true,
            "quantity": "1",
            "noted": false,
            "rarity": "1/8",
            "drop_requirements": null
        },
        "2164": {
            "id": 2164,
            "name": "Batta tin",
            "members": true,
            "quantity": "1",
            "noted": false,
            "rarity": "1/8",
            "drop_requirements": null
        },
        "2166": {
            "id": 2166,
            "name": "Gnomebowl mould",
            "members": true,
            "quantity": "1",
            "noted": false,
            "rarity": "1/8",
            "drop_requirements": null
        },
        "2169": {
            "id": 2169,
            "name": "Gnome spice",
            "members": true,
            "quantity": "1",
            "noted": false,
            "rarity": "1/8",
            "drop_requirements": null
        },
        "2171": {
            "id": 2171,
            "name": "Gianne dough",
            "members": true,
            "quantity": "1",
            "noted": false,
            "rarity": "1/8",
            "drop_requirements": null
        }
    },
    "rare_drop_table": false
}