{
    "id": 6102,
    "name": "Bush snake",
    "incomplete": true,
    "members": true,
    "release_date": "2005-08-09",
    "combat_level": 35,
    "size": 1,
    "hitpoints": 25,
    "max_hit": 3,
    "attack_type": [
        "stab"
    ],
    "attack_speed": 3,
    "aggressive": true,
    "poisonous": true,
    "immune_poison": false,
    "immune_venom": false,
    "weakness": [
        "magic"
    ],
    "slayer_monster": false,
    "slayer_level": null,
    "slayer_xp": null,
    "slayer_masters": [],
    "duplicate": false,
    "examine": "A slithering serpent that likes to hide in the bush.",
    "wiki_name": "Bush snake",
    "wiki_url": "https://oldschool.runescape.wiki/w/Bush_snake",
    "attack_level": 25,
    "strength_level": 25,
    "defence_level": 50,
    "magic_level": 1,
    "ranged_level": 1,
    "attack_stab": 0,
    "attack_slash": 0,
    "attack_crush": 0,
    "attack_magic": 0,
    "attack_ranged": 0,
    "defence_stab": 0,
    "defence_slash": 0,
    "defence_crush": 0,
    "defence_magic": 0,
    "defence_ranged": 0,
    "attack_accuracy": 0,
    "melee_strength": 0,
    "ranged_strength": 0,
    "magic_damage": 0,
    "drops": {
        "6287": {
            "id": 6287,
            "name": "Snake hide",
            "members": true,
            "quantity": "1",
            "noted": false,
            "rarity": "1/1",
            "drop_requirements": null
        },
        "7860": {
            "id": 7860,
            "name": "Snake spine",
            "members": true,
            "quantity": "1",
            "noted": false,
            "rarity": "1/4",
            "drop_requirements": null
        }
    },
    "rare_drop_table": false
}