{
    "id": 6314,
    "name": "Gelatinnoth Mother (hard)",
    "incomplete": true,
    "members": true,
    "release_date": "2013-09-05",
    "combat_level": 201,
    "size": 3,
    "hitpoints": 240,
    "max_hit": 0,
    "attack_type": [
        "melee",
        "ranged",
        "ranged",
        "magic"
    ],
    "attack_speed": 4,
    "aggressive": true,
    "poisonous": false,
    "immune_poison": true,
    "immune_venom": true,
    "weakness": [],
    "slayer_monster": false,
    "slayer_level": null,
    "slayer_xp": null,
    "slayer_masters": [],
    "duplicate": true,
    "examine": "Deadly AND fruity!",
    "wiki_name": "Gelatinnoth Mother (Hard)",
    "wiki_url": "https://oldschool.runescape.wiki/w/Gelatinnoth_Mother#Hard",
    "attack_level": 186,
    "strength_level": 186,
    "defence_level": 81,
    "magic_level": 1,
    "ranged_level": 120,
    "attack_stab": 0,
    "attack_slash": 0,
    "attack_crush": 0,
    "attack_magic": 0,
    "attack_ranged": 0,
    "defence_stab": 150,
    "defence_slash": 150,
    "defence_crush": 150,
    "defence_magic": 50,
    "defence_ranged": 50,
    "attack_accuracy": 0,
    "melee_strength": 0,
    "ranged_strength": 0,
    "magic_damage": 0,
    "drops": {},
    "rare_drop_table": false
}