{
    "id": 6319,
    "name": "Tree spirit (hard)",
    "incomplete": false,
    "members": true,
    "release_date": "2013-09-05",
    "combat_level": 199,
    "size": 1,
    "hitpoints": 187,
    "max_hit": 22,
    "attack_type": [
        "crush"
    ],
    "attack_speed": 4,
    "aggressive": true,
    "poisonous": false,
    "immune_poison": false,
    "immune_venom": false,
    "weakness": [
        "magic"
    ],
    "slayer_monster": true,
    "slayer_level": 1,
    "slayer_xp": 200.0,
    "slayer_masters": [
        "turael",
        "mazchna"
    ],
    "duplicate": false,
    "examine": "Guardian of the Dramen tree.",
    "wiki_name": "Tree spirit (Lost City) (Hard)",
    "wiki_url": "https://oldschool.runescape.wiki/w/Tree_spirit_(Lost_City)#Hard",
    "attack_level": 200,
    "strength_level": 209,
    "defence_level": 80,
    "magic_level": 1,
    "ranged_level": 1,
    "attack_stab": 0,
    "attack_slash": 0,
    "attack_crush": 0,
    "attack_magic": 0,
    "attack_ranged": 0,
    "defence_stab": 0,
    "defence_slash": 0,
    "defence_crush": 0,
    "defence_magic": 0,
    "defence_ranged": 0,
    "attack_accuracy": 0,
    "melee_strength": 0,
    "ranged_strength": 0,
    "magic_damage": 0,
    "drops": {},
    "rare_drop_table": false
}