{
    "id": 6327,
    "name": "Agrith Naar (hard)",
    "incomplete": true,
    "members": true,
    "release_date": "2013-09-05",
    "combat_level": 196,
    "size": 3,
    "hitpoints": 209,
    "max_hit": 23,
    "attack_type": [
        "crush",
        "magic"
    ],
    "attack_speed": 4,
    "aggressive": true,
    "poisonous": false,
    "immune_poison": false,
    "immune_venom": false,
    "weakness": [
        "melee",
        "ranged"
    ],
    "slayer_monster": false,
    "slayer_level": null,
    "slayer_xp": null,
    "slayer_masters": [],
    "duplicate": false,
    "examine": "A summoned demon.",
    "wiki_name": "Agrith Naar (Hard)",
    "wiki_url": "https://oldschool.runescape.wiki/w/Agrith_Naar#Hard",
    "attack_level": 182,
    "strength_level": 198,
    "defence_level": 82,
    "magic_level": 220,
    "ranged_level": 220,
    "attack_stab": 0,
    "attack_slash": 0,
    "attack_crush": 0,
    "attack_magic": 0,
    "attack_ranged": 0,
    "defence_stab": 0,
    "defence_slash": 0,
    "defence_crush": 0,
    "defence_magic": 0,
    "defence_ranged": 0,
    "attack_accuracy": 0,
    "melee_strength": 0,
    "ranged_strength": 0,
    "magic_damage": 0,
    "drops": {
        "592": {
            "id": 592,
            "name": "Ashes",
            "members": true,
            "quantity": "1",
            "noted": false,
            "rarity": "1/1",
            "drop_requirements": null
        }
    },
    "rare_drop_table": false
}