{
    "id": 6349,
    "name": "Elvarg",
    "incomplete": false,
    "members": false,
    "release_date": "2001-09-23",
    "combat_level": 83,
    "size": 4,
    "hitpoints": 80,
    "max_hit": 0,
    "attack_type": [
        "melee",
        "dragonfire"
    ],
    "attack_speed": 4,
    "aggressive": true,
    "poisonous": false,
    "immune_poison": false,
    "immune_venom": false,
    "weakness": [
        "stab",
        "ranged"
    ],
    "slayer_monster": true,
    "slayer_level": 1,
    "slayer_xp": 80.0,
    "slayer_masters": [
        "vannaka"
    ],
    "duplicate": false,
    "examine": "Roar! A dragon!",
    "wiki_name": "Elvarg (Normal)",
    "wiki_url": "https://oldschool.runescape.wiki/w/Elvarg#Normal",
    "attack_level": 70,
    "strength_level": 70,
    "defence_level": 70,
    "magic_level": 70,
    "ranged_level": 1,
    "attack_stab": 0,
    "attack_slash": 0,
    "attack_crush": 0,
    "attack_magic": 0,
    "attack_ranged": 0,
    "defence_stab": 20,
    "defence_slash": 40,
    "defence_crush": 40,
    "defence_magic": 30,
    "defence_ranged": 20,
    "attack_accuracy": 0,
    "melee_strength": 0,
    "ranged_strength": 0,
    "magic_damage": 0,
    "drops": {
        "536": {
            "id": 536,
            "name": "Dragon bones",
            "members": true,
            "quantity": "1",
            "noted": false,
            "rarity": "1/1",
            "drop_requirements": null
        }
    },
    "rare_drop_table": false
}