{
    "id": 6354,
    "name": "Chronozon",
    "incomplete": true,
    "members": true,
    "release_date": "2002-04-09",
    "combat_level": 170,
    "size": 3,
    "hitpoints": 60,
    "max_hit": 18,
    "attack_type": [
        "slash"
    ],
    "attack_speed": 4,
    "aggressive": true,
    "poisonous": false,
    "immune_poison": false,
    "immune_venom": false,
    "weakness": [
        "demonbane"
    ],
    "slayer_monster": false,
    "slayer_level": null,
    "slayer_xp": null,
    "slayer_masters": [],
    "duplicate": true,
    "examine": "Chronozon the blood demon.",
    "wiki_name": "Chronozon (Normal)",
    "wiki_url": "https://oldschool.runescape.wiki/w/Chronozon#Normal",
    "attack_level": 173,
    "strength_level": 172,
    "defence_level": 173,
    "magic_level": 1,
    "ranged_level": 1,
    "attack_stab": 0,
    "attack_slash": 0,
    "attack_crush": 0,
    "attack_magic": 0,
    "attack_ranged": 0,
    "defence_stab": 0,
    "defence_slash": 0,
    "defence_crush": 0,
    "defence_magic": 0,
    "defence_ranged": 0,
    "attack_accuracy": 0,
    "melee_strength": 0,
    "ranged_strength": 0,
    "magic_damage": 0,
    "drops": {
        "592": {
            "id": 592,
            "name": "Ashes",
            "members": true,
            "quantity": "1",
            "noted": false,
            "rarity": "1/1",
            "drop_requirements": null
        },
        "781": {
            "id": 781,
            "name": "Crest part (Johnathon)",
            "members": true,
            "quantity": "1",
            "noted": false,
            "rarity": "1/1",
            "drop_requirements": null
        },
        "11941": {
            "id": 11941,
            "name": "Looting bag",
            "members": true,
            "quantity": "1",
            "noted": false,
            "rarity": "1/3",
            "drop_requirements": null
        }
    },
    "rare_drop_table": false
}