{
    "id": 6361,
    "name": "Dagannoth mother",
    "incomplete": true,
    "members": true,
    "release_date": "2004-11-17",
    "combat_level": 100,
    "size": 3,
    "hitpoints": 120,
    "max_hit": 0,
    "attack_type": [
        "melee",
        "ranged",
        "ranged"
    ],
    "attack_speed": 4,
    "aggressive": true,
    "poisonous": false,
    "immune_poison": true,
    "immune_venom": true,
    "weakness": [],
    "slayer_monster": false,
    "slayer_level": null,
    "slayer_xp": null,
    "slayer_masters": [],
    "duplicate": true,
    "examine": "A horror from the ocean depths.",
    "wiki_name": "Dagannoth mother (Normal)",
    "wiki_url": "https://oldschool.runescape.wiki/w/Dagannoth_mother#Normal",
    "attack_level": 78,
    "strength_level": 78,
    "defence_level": 81,
    "magic_level": 1,
    "ranged_level": 50,
    "attack_stab": 0,
    "attack_slash": 0,
    "attack_crush": 0,
    "attack_magic": 0,
    "attack_ranged": 0,
    "defence_stab": 150,
    "defence_slash": 150,
    "defence_crush": 150,
    "defence_magic": 50,
    "defence_ranged": 50,
    "attack_accuracy": 0,
    "melee_strength": 0,
    "ranged_strength": 0,
    "magic_damage": 0,
    "drops": {
        "526": {
            "id": 526,
            "name": "Bones",
            "members": true,
            "quantity": "1",
            "noted": false,
            "rarity": "1/1",
            "drop_requirements": null
        },
        "3849": {
            "id": 3849,
            "name": "Rusty casket",
            "members": true,
            "quantity": "1",
            "noted": false,
            "rarity": "1/1",
            "drop_requirements": null
        }
    },
    "rare_drop_table": false
}