{
    "id": 6371,
    "name": "Karamel",
    "incomplete": true,
    "members": true,
    "release_date": "2006-03-15",
    "combat_level": 136,
    "size": 1,
    "hitpoints": 250,
    "max_hit": 0,
    "attack_type": [
        "ranged",
        "ranged",
        "magic"
    ],
    "attack_speed": 3,
    "aggressive": true,
    "poisonous": false,
    "immune_poison": true,
    "immune_venom": true,
    "weakness": [
        "magic",
        "fire spells"
    ],
    "slayer_monster": false,
    "slayer_level": null,
    "slayer_xp": null,
    "slayer_masters": [],
    "duplicate": true,
    "examine": "Pure evil lightly whipped with a juicy cherry on top.",
    "wiki_name": "Karamel (Normal)",
    "wiki_url": "https://oldschool.runescape.wiki/w/Karamel#Normal",
    "attack_level": 1,
    "strength_level": 1,
    "defence_level": 100,
    "magic_level": 1,
    "ranged_level": 100,
    "attack_stab": 50,
    "attack_slash": 50,
    "attack_crush": 50,
    "attack_magic": 0,
    "attack_ranged": 134,
    "defence_stab": 150,
    "defence_slash": 150,
    "defence_crush": 150,
    "defence_magic": 150,
    "defence_ranged": 150,
    "attack_accuracy": 0,
    "melee_strength": 0,
    "ranged_strength": 55,
    "magic_damage": 0,
    "drops": {
        "6794": {
            "id": 6794,
            "name": "Choc-ice",
            "members": true,
            "quantity": "1",
            "noted": false,
            "rarity": "1/1",
            "drop_requirements": null
        }
    },
    "rare_drop_table": false
}