{
    "id": 6372,
    "name": "Dessourt",
    "incomplete": true,
    "members": true,
    "release_date": "2006-03-15",
    "combat_level": 121,
    "size": 1,
    "hitpoints": 130,
    "max_hit": 19,
    "attack_type": [
        "crush",
        "ranged",
        "magic"
    ],
    "attack_speed": 3,
    "aggressive": true,
    "poisonous": false,
    "immune_poison": false,
    "immune_venom": false,
    "weakness": [
        "magic"
    ],
    "slayer_monster": false,
    "slayer_level": null,
    "slayer_xp": null,
    "slayer_masters": [],
    "duplicate": true,
    "examine": "Bad for your teeth... and the rest of your body too.",
    "wiki_name": "Dessourt (Normal)",
    "wiki_url": "https://oldschool.runescape.wiki/w/Dessourt#Normal",
    "attack_level": 99,
    "strength_level": 99,
    "defence_level": 99,
    "magic_level": 1,
    "ranged_level": 1,
    "attack_stab": 0,
    "attack_slash": 0,
    "attack_crush": 0,
    "attack_magic": 0,
    "attack_ranged": 0,
    "defence_stab": 10,
    "defence_slash": 150,
    "defence_crush": 150,
    "defence_magic": 0,
    "defence_ranged": 0,
    "attack_accuracy": 50,
    "melee_strength": 50,
    "ranged_strength": 0,
    "magic_damage": 0,
    "drops": {
        "1975": {
            "id": 1975,
            "name": "Chocolate dust",
            "members": true,
            "quantity": "1",
            "noted": false,
            "rarity": "1/1",
            "drop_requirements": null
        }
    },
    "rare_drop_table": false
}