{
    "id": 6389,
    "name": "King Roald",
    "incomplete": true,
    "members": true,
    "release_date": "2007-03-27",
    "combat_level": 47,
    "size": 1,
    "hitpoints": 75,
    "max_hit": 3,
    "attack_type": [
        "melee"
    ],
    "attack_speed": 4,
    "aggressive": true,
    "poisonous": false,
    "immune_poison": true,
    "immune_venom": true,
    "weakness": [
        "magic"
    ],
    "slayer_monster": false,
    "slayer_level": null,
    "slayer_xp": null,
    "slayer_masters": [],
    "duplicate": true,
    "examine": "Varrock's resident monarch. He looks strangely evil!",
    "wiki_name": "King Roald",
    "wiki_url": "https://oldschool.runescape.wiki/w/King_Roald",
    "attack_level": 35,
    "strength_level": 30,
    "defence_level": 30,
    "magic_level": 1,
    "ranged_level": 1,
    "attack_stab": 0,
    "attack_slash": 0,
    "attack_crush": 0,
    "attack_magic": 0,
    "attack_ranged": 0,
    "defence_stab": 0,
    "defence_slash": 0,
    "defence_crush": 0,
    "defence_magic": 0,
    "defence_ranged": 0,
    "attack_accuracy": 0,
    "melee_strength": 0,
    "ranged_strength": 0,
    "magic_damage": 0,
    "drops": {
        "526": {
            "id": 526,
            "name": "Bones",
            "members": true,
            "quantity": "1",
            "noted": false,
            "rarity": "1/1",
            "drop_requirements": null
        }
    },
    "rare_drop_table": false
}