{
    "id": 64,
    "name": "Zombie",
    "incomplete": false,
    "members": false,
    "release_date": "2001-01-04",
    "combat_level": 25,
    "size": 1,
    "hitpoints": 30,
    "max_hit": 3,
    "attack_type": [
        "crush"
    ],
    "attack_speed": 4,
    "aggressive": true,
    "poisonous": false,
    "immune_poison": false,
    "immune_venom": false,
    "weakness": [
        "crumble undead"
    ],
    "slayer_monster": true,
    "slayer_level": 1,
    "slayer_xp": 30.0,
    "slayer_masters": [
        "turael",
        "mazchna"
    ],
    "duplicate": false,
    "examine": "Dead man walking.",
    "wiki_name": "Zombie (Lv 25)",
    "wiki_url": "https://oldschool.runescape.wiki/w/Zombie#Lv_25",
    "attack_level": 0,
    "strength_level": 0,
    "defence_level": 0,
    "magic_level": 1,
    "ranged_level": 1,
    "attack_stab": 0,
    "attack_slash": 0,
    "attack_crush": 0,
    "attack_magic": 0,
    "attack_ranged": 0,
    "defence_stab": 9,
    "defence_slash": 8,
    "defence_crush": 12,
    "defence_magic": 10,
    "defence_ranged": 11,
    "attack_accuracy": 5,
    "melee_strength": 7,
    "ranged_strength": 0,
    "magic_damage": 0,
    "drops": {
        "221": {
            "id": 221,
            "name": "Eye of newt",
            "members": false,
            "quantity": "1",
            "noted": false,
            "rarity": "2/128",
            "drop_requirements": null
        },
        "313": {
            "id": 313,
            "name": "Fishing bait",
            "members": false,
            "quantity": "7",
            "noted": false,
            "rarity": "3/128",
            "drop_requirements": null
        },
        "436": {
            "id": 436,
            "name": "Copper ore",
            "members": false,
            "quantity": "1",
            "noted": false,
            "rarity": "2/128",
            "drop_requirements": null
        },
        "438": {
            "id": 438,
            "name": "Tin ore",
            "members": false,
            "quantity": "1",
            "noted": false,
            "rarity": "1/128",
            "drop_requirements": null
        },
        "526": {
            "id": 526,
            "name": "Bones",
            "members": false,
            "quantity": "1",
            "noted": false,
            "rarity": "1/1",
            "drop_requirements": null
        },
        "554": {
            "id": 554,
            "name": "Fire rune",
            "members": false,
            "quantity": "7",
            "noted": false,
            "rarity": "1/128",
            "drop_requirements": null
        },
        "556": {
            "id": 556,
            "name": "Air rune",
            "members": false,
            "quantity": "3",
            "noted": false,
            "rarity": "3/128",
            "drop_requirements": null
        },
        "558": {
            "id": 558,
            "name": "Mind rune",
            "members": false,
            "quantity": "5",
            "noted": false,
            "rarity": "5/128",
            "drop_requirements": null
        },
        "559": {
            "id": 559,
            "name": "Body rune",
            "members": false,
            "quantity": "3",
            "noted": false,
            "rarity": "3/128",
            "drop_requirements": null
        },
        "561": {
            "id": 561,
            "name": "Nature rune",
            "members": false,
            "quantity": "6",
            "noted": false,
            "rarity": "1/128",
            "drop_requirements": null
        },
        "562": {
            "id": 562,
            "name": "Chaos rune",
            "members": false,
            "quantity": "4",
            "noted": false,
            "rarity": "5/128",
            "drop_requirements": null
        },
        "564": {
            "id": 564,
            "name": "Cosmic rune",
            "members": false,
            "quantity": "2",
            "noted": false,
            "rarity": "6/128",
            "drop_requirements": null
        },
        "590": {
            "id": 590,
            "name": "Tinderbox",
            "members": false,
            "quantity": "1",
            "noted": false,
            "rarity": "1/128",
            "drop_requirements": null
        },
        "617": {
            "id": 617,
            "name": "Coins",
            "members": true,
            "quantity": "18",
            "noted": false,
            "rarity": "1/128",
            "drop_requirements": null
        },
        "882": {
            "id": 882,
            "name": "Bronze arrow",
            "members": false,
            "quantity": "8",
            "noted": false,
            "rarity": "4/128",
            "drop_requirements": null
        },
        "884": {
            "id": 884,
            "name": "Iron arrow",
            "members": false,
            "quantity": "8",
            "noted": false,
            "rarity": "4/128",
            "drop_requirements": null
        },
        "886": {
            "id": 886,
            "name": "Steel arrow",
            "members": false,
            "quantity": "5",
            "noted": false,
            "rarity": "2/128",
            "drop_requirements": null
        },
        "888": {
            "id": 888,
            "name": "Mithril arrow",
            "members": false,
            "quantity": "1",
            "noted": false,
            "rarity": "3/128",
            "drop_requirements": null
        },
        "1139": {
            "id": 1139,
            "name": "Bronze med helm",
            "members": false,
            "quantity": "1",
            "noted": false,
            "rarity": "4/128",
            "drop_requirements": null
        },
        "1189": {
            "id": 1189,
            "name": "Bronze kiteshield",
            "members": false,
            "quantity": "1",
            "noted": false,
            "rarity": "2/128",
            "drop_requirements": null
        },
        "1203": {
            "id": 1203,
            "name": "Iron dagger",
            "members": false,
            "quantity": "1",
            "noted": false,
            "rarity": "2/128",
            "drop_requirements": null
        },
        "1291": {
            "id": 1291,
            "name": "Bronze longsword",
            "members": false,
            "quantity": "1",
            "noted": false,
            "rarity": "1/128",
            "drop_requirements": null
        },
        "1349": {
            "id": 1349,
            "name": "Iron axe",
            "members": false,
            "quantity": "1",
            "noted": false,
            "rarity": "1/128",
            "drop_requirements": null
        },
        "1351": {
            "id": 1351,
            "name": "Bronze axe",
            "members": false,
            "quantity": "1",
            "noted": false,
            "rarity": "50/128",
            "drop_requirements": null
        },
        "1420": {
            "id": 1420,
            "name": "Iron mace",
            "members": false,
            "quantity": "1",
            "noted": false,
            "rarity": "1/128",
            "drop_requirements": null
        },
        "6807": {
            "id": 6807,
            "name": "Zombie champion scroll",
            "members": true,
            "quantity": "1",
            "noted": false,
            "rarity": "1/5000",
            "drop_requirements": null
        },
        "7863": {
            "id": 7863,
            "name": "Zombie bone",
            "members": true,
            "quantity": "1",
            "noted": false,
            "rarity": "1/4",
            "drop_requirements": null
        },
        "11940": {
            "id": 11940,
            "name": "Dark fishing bait",
            "members": true,
            "quantity": "7",
            "noted": false,
            "rarity": "3/128",
            "drop_requirements": null
        }
    },
    "rare_drop_table": true
}