{
    "id": 6459,
    "name": "Zombie",
    "incomplete": true,
    "members": true,
    "release_date": "2007-01-22",
    "combat_level": 80,
    "size": 1,
    "hitpoints": 73,
    "max_hit": 9,
    "attack_type": [
        "crush"
    ],
    "attack_speed": 4,
    "aggressive": true,
    "poisonous": false,
    "immune_poison": false,
    "immune_venom": false,
    "weakness": [
        "crush",
        "crumble undead"
    ],
    "slayer_monster": false,
    "slayer_level": null,
    "slayer_xp": null,
    "slayer_masters": [],
    "duplicate": false,
    "examine": "A shambling pile of rotten flesh. A rotten one",
    "wiki_name": "Zombie (Tarn's Lair) (Level 80)",
    "wiki_url": "https://oldschool.runescape.wiki/w/Zombie_(Tarn's_Lair)#Level_80",
    "attack_level": 72,
    "strength_level": 73,
    "defence_level": 62,
    "magic_level": 1,
    "ranged_level": 1,
    "attack_stab": 0,
    "attack_slash": 0,
    "attack_crush": 0,
    "attack_magic": 0,
    "attack_ranged": 0,
    "defence_stab": 20,
    "defence_slash": 20,
    "defence_crush": 0,
    "defence_magic": 0,
    "defence_ranged": 10,
    "attack_accuracy": 0,
    "melee_strength": 10,
    "ranged_strength": 0,
    "magic_damage": 0,
    "drops": {
        "2": {
            "id": 2,
            "name": "Cannonball",
            "members": true,
            "quantity": "3",
            "noted": false,
            "rarity": "3/128",
            "drop_requirements": null
        },
        "155": {
            "id": 155,
            "name": "Fishing potion(1)",
            "members": true,
            "quantity": "1",
            "noted": false,
            "rarity": "5/128",
            "drop_requirements": null
        },
        "169": {
            "id": 169,
            "name": "Ranging potion(3)",
            "members": true,
            "quantity": "1",
            "noted": false,
            "rarity": "5/128",
            "drop_requirements": null
        },
        "233": {
            "id": 233,
            "name": "Pestle and mortar",
            "members": true,
            "quantity": "1",
            "noted": false,
            "rarity": "2/128",
            "drop_requirements": null
        },
        "239": {
            "id": 239,
            "name": "White berries",
            "members": true,
            "quantity": "1",
            "noted": false,
            "rarity": "2/128",
            "drop_requirements": null
        },
        "313": {
            "id": 313,
            "name": "Fishing bait",
            "members": true,
            "quantity": "7",
            "noted": false,
            "rarity": "3/128",
            "drop_requirements": null
        },
        "440": {
            "id": 440,
            "name": "Iron ore",
            "members": true,
            "quantity": "2",
            "noted": false,
            "rarity": "3/128",
            "drop_requirements": null
        },
        "444": {
            "id": 444,
            "name": "Gold ore",
            "members": true,
            "quantity": "3",
            "noted": false,
            "rarity": "2/128",
            "drop_requirements": null
        },
        "526": {
            "id": 526,
            "name": "Bones",
            "members": true,
            "quantity": "1",
            "noted": false,
            "rarity": "1/1",
            "drop_requirements": null
        },
        "554": {
            "id": 554,
            "name": "Fire rune",
            "members": true,
            "quantity": "12",
            "noted": false,
            "rarity": "3/128",
            "drop_requirements": null
        },
        "555": {
            "id": 555,
            "name": "Water rune",
            "members": true,
            "quantity": "4",
            "noted": false,
            "rarity": "5/128",
            "drop_requirements": null
        },
        "557": {
            "id": 557,
            "name": "Earth rune",
            "members": true,
            "quantity": "8",
            "noted": false,
            "rarity": "2/128",
            "drop_requirements": null
        },
        "558": {
            "id": 558,
            "name": "Mind rune",
            "members": true,
            "quantity": "10",
            "noted": false,
            "rarity": "2/128",
            "drop_requirements": null
        },
        "560": {
            "id": 560,
            "name": "Death rune",
            "members": true,
            "quantity": "4",
            "noted": false,
            "rarity": "3/128",
            "drop_requirements": null
        },
        "561": {
            "id": 561,
            "name": "Nature rune",
            "members": true,
            "quantity": "7",
            "noted": false,
            "rarity": "3/128",
            "drop_requirements": null
        },
        "562": {
            "id": 562,
            "name": "Chaos rune",
            "members": true,
            "quantity": "6",
            "noted": false,
            "rarity": "2/128",
            "drop_requirements": null
        },
        "563": {
            "id": 563,
            "name": "Law rune",
            "members": true,
            "quantity": "6",
            "noted": false,
            "rarity": "2/128",
            "drop_requirements": null
        },
        "564": {
            "id": 564,
            "name": "Cosmic rune",
            "members": true,
            "quantity": "2",
            "noted": false,
            "rarity": "2/128",
            "drop_requirements": null
        },
        "569": {
            "id": 569,
            "name": "Fire orb",
            "members": true,
            "quantity": "1",
            "noted": false,
            "rarity": "3/128",
            "drop_requirements": null
        },
        "575": {
            "id": 575,
            "name": "Earth orb",
            "members": true,
            "quantity": "1",
            "noted": false,
            "rarity": "1/128",
            "drop_requirements": null
        },
        "590": {
            "id": 590,
            "name": "Tinderbox",
            "members": true,
            "quantity": "1",
            "noted": false,
            "rarity": "2/128",
            "drop_requirements": null
        },
        "617": {
            "id": 617,
            "name": "Coins",
            "members": true,
            "quantity": "410",
            "noted": false,
            "rarity": "1/128",
            "drop_requirements": null
        },
        "712": {
            "id": 712,
            "name": "Cup of tea",
            "members": true,
            "quantity": "1",
            "noted": false,
            "rarity": "5/128",
            "drop_requirements": null
        },
        "800": {
            "id": 800,
            "name": "Bronze thrownaxe",
            "members": true,
            "quantity": "1",
            "noted": false,
            "rarity": "3/128",
            "drop_requirements": null
        },
        "808": {
            "id": 808,
            "name": "Steel dart",
            "members": true,
            "quantity": "3",
            "noted": false,
            "rarity": "3/128",
            "drop_requirements": null
        },
        "825": {
            "id": 825,
            "name": "Bronze javelin",
            "members": true,
            "quantity": "4",
            "noted": false,
            "rarity": "3/128",
            "drop_requirements": null
        },
        "849": {
            "id": 849,
            "name": "Willow shortbow",
            "members": true,
            "quantity": "1",
            "noted": false,
            "rarity": "3/128",
            "drop_requirements": null
        },
        "865": {
            "id": 865,
            "name": "Steel knife",
            "members": true,
            "quantity": "1",
            "noted": false,
            "rarity": "5/128",
            "drop_requirements": null
        },
        "886": {
            "id": 886,
            "name": "Steel arrow",
            "members": true,
            "quantity": "11",
            "noted": false,
            "rarity": "3/128",
            "drop_requirements": null
        },
        "946": {
            "id": 946,
            "name": "Knife",
            "members": true,
            "quantity": "1",
            "noted": false,
            "rarity": "10/128",
            "drop_requirements": null
        },
        "966": {
            "id": 966,
            "name": "Tile",
            "members": true,
            "quantity": "1",
            "noted": false,
            "rarity": "2/128",
            "drop_requirements": null
        },
        "1059": {
            "id": 1059,
            "name": "Leather gloves",
            "members": true,
            "quantity": "1",
            "noted": false,
            "rarity": "2/128",
            "drop_requirements": null
        },
        "1061": {
            "id": 1061,
            "name": "Leather boots",
            "members": true,
            "quantity": "1",
            "noted": false,
            "rarity": "2/128",
            "drop_requirements": null
        },
        "1069": {
            "id": 1069,
            "name": "Steel platelegs",
            "members": true,
            "quantity": "1",
            "noted": false,
            "rarity": "8/128",
            "drop_requirements": null
        },
        "1091": {
            "id": 1091,
            "name": "Adamant plateskirt",
            "members": true,
            "quantity": "1",
            "noted": false,
            "rarity": "1/128",
            "drop_requirements": null
        },
        "1103": {
            "id": 1103,
            "name": "Bronze chainbody",
            "members": true,
            "quantity": "1",
            "noted": false,
            "rarity": "1/128",
            "drop_requirements": null
        },
        "1105": {
            "id": 1105,
            "name": "Steel chainbody",
            "members": true,
            "quantity": "1",
            "noted": false,
            "rarity": "2/128",
            "drop_requirements": null
        },
        "1107": {
            "id": 1107,
            "name": "Black chainbody",
            "members": true,
            "quantity": "1",
            "noted": false,
            "rarity": "1/128",
            "drop_requirements": null
        },
        "1159": {
            "id": 1159,
            "name": "Mithril full helm",
            "members": true,
            "quantity": "1",
            "noted": false,
            "rarity": "1/128",
            "drop_requirements": null
        },
        "1177": {
            "id": 1177,
            "name": "Steel sq shield",
            "members": true,
            "quantity": "1",
            "noted": false,
            "rarity": "1/128",
            "drop_requirements": null
        },
        "1179": {
            "id": 1179,
            "name": "Black sq shield",
            "members": true,
            "quantity": "1",
            "noted": false,
            "rarity": "1/128",
            "drop_requirements": null
        },
        "1197": {
            "id": 1197,
            "name": "Mithril kiteshield",
            "members": true,
            "quantity": "1",
            "noted": false,
            "rarity": "1/128",
            "drop_requirements": null
        },
        "1209": {
            "id": 1209,
            "name": "Mithril dagger",
            "members": true,
            "quantity": "1",
            "noted": false,
            "rarity": "2/128",
            "drop_requirements": null
        },
        "1245": {
            "id": 1245,
            "name": "Adamant spear",
            "members": true,
            "quantity": "1",
            "noted": false,
            "rarity": "5/128",
            "drop_requirements": null
        },
        "1273": {
            "id": 1273,
            "name": "Mithril pickaxe",
            "members": true,
            "quantity": "1",
            "noted": false,
            "rarity": "3/128",
            "drop_requirements": null
        },
        "1285": {
            "id": 1285,
            "name": "Mithril sword",
            "members": true,
            "quantity": "1",
            "noted": false,
            "rarity": "1/128",
            "drop_requirements": null
        },
        "1287": {
            "id": 1287,
            "name": "Adamant sword",
            "members": true,
            "quantity": "1",
            "noted": false,
            "rarity": "1/128",
            "drop_requirements": null
        },
        "1295": {
            "id": 1295,
            "name": "Steel longsword",
            "members": true,
            "quantity": "1",
            "noted": false,
            "rarity": "2/128",
            "drop_requirements": null
        },
        "1307": {
            "id": 1307,
            "name": "Bronze 2h sword",
            "members": true,
            "quantity": "1",
            "noted": false,
            "rarity": "3/128",
            "drop_requirements": null
        },
        "1315": {
            "id": 1315,
            "name": "Mithril 2h sword",
            "members": true,
            "quantity": "1",
            "noted": false,
            "rarity": "3/128",
            "drop_requirements": null
        },
        "1331": {
            "id": 1331,
            "name": "Adamant scimitar",
            "members": true,
            "quantity": "1",
            "noted": false,
            "rarity": "2/128",
            "drop_requirements": null
        },
        "1335": {
            "id": 1335,
            "name": "Iron warhammer",
            "members": true,
            "quantity": "1",
            "noted": false,
            "rarity": "2/128",
            "drop_requirements": null
        },
        "1339": {
            "id": 1339,
            "name": "Steel warhammer",
            "members": true,
            "quantity": "1",
            "noted": false,
            "rarity": "5/128",
            "drop_requirements": null
        },
        "1347": {
            "id": 1347,
            "name": "Rune warhammer",
            "members": true,
            "quantity": "1",
            "noted": false,
            "rarity": "1/128",
            "drop_requirements": null
        },
        "1361": {
            "id": 1361,
            "name": "Black axe",
            "members": true,
            "quantity": "1",
            "noted": false,
            "rarity": "1/128",
            "drop_requirements": null
        },
        "1373": {
            "id": 1373,
            "name": "Rune battleaxe",
            "members": true,
            "quantity": "1",
            "noted": false,
            "rarity": "1/128",
            "drop_requirements": null
        },
        "1375": {
            "id": 1375,
            "name": "Bronze battleaxe",
            "members": true,
            "quantity": "1",
            "noted": false,
            "rarity": "3/128",
            "drop_requirements": null
        },
        "1381": {
            "id": 1381,
            "name": "Staff of air",
            "members": true,
            "quantity": "1",
            "noted": false,
            "rarity": "3/128",
            "drop_requirements": null
        },
        "1424": {
            "id": 1424,
            "name": "Steel mace",
            "members": true,
            "quantity": "1",
            "noted": false,
            "rarity": "2/128",
            "drop_requirements": null
        },
        "1513": {
            "id": 1513,
            "name": "Magic logs",
            "members": true,
            "quantity": "1",
            "noted": false,
            "rarity": "2/128",
            "drop_requirements": null
        },
        "1539": {
            "id": 1539,
            "name": "Steel nails",
            "members": true,
            "quantity": "1",
            "noted": false,
            "rarity": "5/128",
            "drop_requirements": null
        },
        "1550": {
            "id": 1550,
            "name": "Garlic",
            "members": true,
            "quantity": "1",
            "noted": false,
            "rarity": "1/128",
            "drop_requirements": null
        },
        "1594": {
            "id": 1594,
            "name": "Unholy mould",
            "members": true,
            "quantity": "1",
            "noted": false,
            "rarity": "2/128",
            "drop_requirements": null
        },
        "1599": {
            "id": 1599,
            "name": "Holy mould",
            "members": true,
            "quantity": "1",
            "noted": false,
            "rarity": "3/128",
            "drop_requirements": null
        },
        "1654": {
            "id": 1654,
            "name": "Gold necklace",
            "members": true,
            "quantity": "1",
            "noted": false,
            "rarity": "3/128",
            "drop_requirements": null
        },
        "1743": {
            "id": 1743,
            "name": "Hard leather",
            "members": true,
            "quantity": "2",
            "noted": true,
            "rarity": "5/128",
            "drop_requirements": null
        },
        "1921": {
            "id": 1921,
            "name": "Bowl of water",
            "members": true,
            "quantity": "1",
            "noted": false,
            "rarity": "5/128",
            "drop_requirements": null
        },
        "1933": {
            "id": 1933,
            "name": "Pot of flour",
            "members": true,
            "quantity": "1",
            "noted": false,
            "rarity": "5/128",
            "drop_requirements": null
        },
        "2126": {
            "id": 2126,
            "name": "Dwellberries",
            "members": true,
            "quantity": "4",
            "noted": true,
            "rarity": "2/128",
            "drop_requirements": null
        },
        "2130": {
            "id": 2130,
            "name": "Pot of cream",
            "members": true,
            "quantity": "1",
            "noted": false,
            "rarity": "1/128",
            "drop_requirements": null
        },
        "2359": {
            "id": 2359,
            "name": "Mithril bar",
            "members": true,
            "quantity": "1",
            "noted": false,
            "rarity": "2/128",
            "drop_requirements": null
        },
        "2361": {
            "id": 2361,
            "name": "Adamantite bar",
            "members": true,
            "quantity": "1",
            "noted": false,
            "rarity": "1/128",
            "drop_requirements": null
        },
        "2562": {
            "id": 2562,
            "name": "Ring of dueling(3)",
            "members": true,
            "quantity": "1",
            "noted": false,
            "rarity": "2/128",
            "drop_requirements": null
        },
        "3420": {
            "id": 3420,
            "name": "Limestone brick",
            "members": true,
            "quantity": "2",
            "noted": false,
            "rarity": "3/128",
            "drop_requirements": null
        },
        "4440": {
            "id": 4440,
            "name": "Pot lid",
            "members": true,
            "quantity": "1",
            "noted": false,
            "rarity": "5/128",
            "drop_requirements": null
        },
        "4695": {
            "id": 4695,
            "name": "Mist rune",
            "members": true,
            "quantity": "3",
            "noted": false,
            "rarity": "2/128",
            "drop_requirements": null
        },
        "4698": {
            "id": 4698,
            "name": "Mud rune",
            "members": true,
            "quantity": "3",
            "noted": false,
            "rarity": "5/128",
            "drop_requirements": null
        },
        "4699": {
            "id": 4699,
            "name": "Lava rune",
            "members": true,
            "quantity": "8",
            "noted": false,
            "rarity": "2/128",
            "drop_requirements": null
        },
        "4821": {
            "id": 4821,
            "name": "Black nails",
            "members": true,
            "quantity": "8",
            "noted": false,
            "rarity": "5/128",
            "drop_requirements": null
        },
        "4824": {
            "id": 4824,
            "name": "Rune nails",
            "members": true,
            "quantity": "3",
            "noted": false,
            "rarity": "5/128",
            "drop_requirements": null
        },
        "5350": {
            "id": 5350,
            "name": "Empty plant pot",
            "members": true,
            "quantity": "1",
            "noted": false,
            "rarity": "3/128",
            "drop_requirements": null
        },
        "5620": {
            "id": 5620,
            "name": "Adamant arrow(p+)",
            "members": true,
            "quantity": "3",
            "noted": false,
            "rarity": "3/128",
            "drop_requirements": null
        },
        "5722": {
            "id": 5722,
            "name": "Steel spear(p++)",
            "members": true,
            "quantity": "1",
            "noted": false,
            "rarity": "1/128",
            "drop_requirements": null
        },
        "6807": {
            "id": 6807,
            "name": "Zombie champion scroll",
            "members": true,
            "quantity": "1",
            "noted": false,
            "rarity": "1/5000",
            "drop_requirements": null
        },
        "7863": {
            "id": 7863,
            "name": "Zombie bone",
            "members": true,
            "quantity": "1",
            "noted": false,
            "rarity": "1/4",
            "drop_requirements": null
        },
        "7936": {
            "id": 7936,
            "name": "Pure essence",
            "members": true,
            "quantity": "14",
            "noted": true,
            "rarity": "5/128",
            "drop_requirements": null
        },
        "8778": {
            "id": 8778,
            "name": "Oak plank",
            "members": true,
            "quantity": "1",
            "noted": false,
            "rarity": "2/128",
            "drop_requirements": null
        },
        "9143": {
            "id": 9143,
            "name": "Adamant bolts",
            "members": true,
            "quantity": "7",
            "noted": false,
            "rarity": "1/128",
            "drop_requirements": null
        }
    },
    "rare_drop_table": true
}