{
    "id": 6470,
    "name": "Animated spade",
    "incomplete": true,
    "members": true,
    "release_date": "2004-12-21",
    "combat_level": 50,
    "size": 1,
    "hitpoints": 40,
    "max_hit": 6,
    "attack_type": [
        "stab"
    ],
    "attack_speed": 4,
    "aggressive": false,
    "poisonous": false,
    "immune_poison": false,
    "immune_venom": false,
    "weakness": [
        "crush",
        "magic"
    ],
    "slayer_monster": false,
    "slayer_level": null,
    "slayer_xp": null,
    "slayer_masters": [],
    "duplicate": false,
    "examine": "How does it move of its own accord?",
    "wiki_name": "Animated spade",
    "wiki_url": "https://oldschool.runescape.wiki/w/Animated_spade",
    "attack_level": 40,
    "strength_level": 55,
    "defence_level": 40,
    "magic_level": 1,
    "ranged_level": 1,
    "attack_stab": 0,
    "attack_slash": 0,
    "attack_crush": 0,
    "attack_magic": 0,
    "attack_ranged": 0,
    "defence_stab": 15,
    "defence_slash": 10,
    "defence_crush": 5,
    "defence_magic": 5,
    "defence_ranged": 10,
    "attack_accuracy": 0,
    "melee_strength": 0,
    "ranged_strength": 0,
    "magic_damage": 0,
    "drops": {
        "952": {
            "id": 952,
            "name": "Spade",
            "members": true,
            "quantity": "1",
            "noted": false,
            "rarity": "1/1",
            "drop_requirements": null
        }
    },
    "rare_drop_table": false
}