{
    "id": 6493,
    "name": "Commander Zilyana",
    "incomplete": false,
    "members": true,
    "release_date": "2013-10-17",
    "combat_level": 596,
    "size": 2,
    "hitpoints": 255,
    "max_hit": 0,
    "attack_type": [
        "crush",
        "magic"
    ],
    "attack_speed": 2,
    "aggressive": true,
    "poisonous": false,
    "immune_poison": false,
    "immune_venom": false,
    "weakness": [],
    "slayer_monster": true,
    "slayer_level": 1,
    "slayer_xp": 350.0,
    "slayer_masters": [
        "konar",
        "nieve",
        "duradel"
    ],
    "duplicate": true,
    "examine": "Commander of Saradomin's forces.",
    "wiki_name": "Commander Zilyana",
    "wiki_url": "https://oldschool.runescape.wiki/w/Commander_Zilyana",
    "attack_level": 280,
    "strength_level": 196,
    "defence_level": 300,
    "magic_level": 300,
    "ranged_level": 250,
    "attack_stab": 0,
    "attack_slash": 0,
    "attack_crush": 0,
    "attack_magic": 200,
    "attack_ranged": 0,
    "defence_stab": 100,
    "defence_slash": 100,
    "defence_crush": 100,
    "defence_magic": 100,
    "defence_ranged": 100,
    "attack_accuracy": 195,
    "melee_strength": 20,
    "ranged_strength": 0,
    "magic_damage": 0,
    "drops": {
        "163": {
            "id": 163,
            "name": "Super defence(3)",
            "members": true,
            "quantity": "3",
            "noted": false,
            "rarity": "8/127",
            "drop_requirements": null
        },
        "207": {
            "id": 207,
            "name": "Grimy ranarr weed",
            "members": true,
            "quantity": "5",
            "noted": true,
            "rarity": "8/127",
            "drop_requirements": null
        },
        "526": {
            "id": 526,
            "name": "Bones",
            "members": true,
            "quantity": "1",
            "noted": false,
            "rarity": "1/1",
            "drop_requirements": null
        },
        "563": {
            "id": 563,
            "name": "Law rune",
            "members": true,
            "quantity": "95-100",
            "noted": false,
            "rarity": "8/127",
            "drop_requirements": null
        },
        "617": {
            "id": 617,
            "name": "Coins",
            "members": true,
            "quantity": "19500-20000",
            "noted": false,
            "rarity": "31.2/127",
            "drop_requirements": null
        },
        "811": {
            "id": 811,
            "name": "Rune dart",
            "members": true,
            "quantity": "35-40",
            "noted": false,
            "rarity": "8/127",
            "drop_requirements": null
        },
        "1093": {
            "id": 1093,
            "name": "Rune plateskirt",
            "members": true,
            "quantity": "1",
            "noted": false,
            "rarity": "8/127",
            "drop_requirements": null
        },
        "1123": {
            "id": 1123,
            "name": "Adamant platebody",
            "members": true,
            "quantity": "1",
            "noted": false,
            "rarity": "8/127",
            "drop_requirements": null
        },
        "1201": {
            "id": 1201,
            "name": "Rune kiteshield",
            "members": true,
            "quantity": "1",
            "noted": false,
            "rarity": "8/127",
            "drop_requirements": null
        },
        "1601": {
            "id": 1601,
            "name": "Diamond",
            "members": true,
            "quantity": "6",
            "noted": true,
            "rarity": "8/127",
            "drop_requirements": null
        },
        "2434": {
            "id": 2434,
            "name": "Prayer potion(4)",
            "members": true,
            "quantity": "3",
            "noted": false,
            "rarity": "8/127",
            "drop_requirements": null
        },
        "3024": {
            "id": 3024,
            "name": "Super restore(4)",
            "members": true,
            "quantity": "3",
            "noted": false,
            "rarity": "6/127",
            "drop_requirements": null
        },
        "3042": {
            "id": 3042,
            "name": "Magic potion(3)",
            "members": true,
            "quantity": "3",
            "noted": false,
            "rarity": "8/127",
            "drop_requirements": null
        },
        "5295": {
            "id": 5295,
            "name": "Ranarr seed",
            "members": true,
            "quantity": "2",
            "noted": false,
            "rarity": "8/127",
            "drop_requirements": null
        },
        "5316": {
            "id": 5316,
            "name": "Magic seed",
            "members": true,
            "quantity": "1",
            "noted": false,
            "rarity": "1/127",
            "drop_requirements": null
        },
        "6687": {
            "id": 6687,
            "name": "Saradomin brew(3)",
            "members": true,
            "quantity": "3",
            "noted": false,
            "rarity": "6/127",
            "drop_requirements": null
        },
        "11785": {
            "id": 11785,
            "name": "Armadyl crossbow",
            "members": true,
            "quantity": "1",
            "noted": false,
            "rarity": "1/508",
            "drop_requirements": null
        },
        "11814": {
            "id": 11814,
            "name": "Saradomin hilt",
            "members": true,
            "quantity": "1",
            "noted": false,
            "rarity": "1/508",
            "drop_requirements": null
        },
        "11818": {
            "id": 11818,
            "name": "Godsword shard 1",
            "members": true,
            "quantity": "1",
            "noted": false,
            "rarity": "1/762",
            "drop_requirements": null
        },
        "11820": {
            "id": 11820,
            "name": "Godsword shard 2",
            "members": true,
            "quantity": "1",
            "noted": false,
            "rarity": "1/762",
            "drop_requirements": null
        },
        "11822": {
            "id": 11822,
            "name": "Godsword shard 3",
            "members": true,
            "quantity": "1",
            "noted": false,
            "rarity": "1/762",
            "drop_requirements": null
        },
        "11838": {
            "id": 11838,
            "name": "Saradomin sword",
            "members": true,
            "quantity": "1",
            "noted": false,
            "rarity": "1/127",
            "drop_requirements": null
        },
        "12073": {
            "id": 12073,
            "name": "Clue scroll (elite)",
            "members": true,
            "quantity": "1",
            "noted": false,
            "rarity": "1/250",
            "drop_requirements": null
        },
        "12651": {
            "id": 12651,
            "name": "Pet zilyana",
            "members": true,
            "quantity": "1",
            "noted": false,
            "rarity": "1/5000",
            "drop_requirements": null
        },
        "13256": {
            "id": 13256,
            "name": "Saradomin's light",
            "members": true,
            "quantity": "1",
            "noted": false,
            "rarity": "1/254",
            "drop_requirements": null
        },
        "23083": {
            "id": 23083,
            "name": "Brimstone key",
            "members": true,
            "quantity": "1",
            "noted": false,
            "rarity": "1/50",
            "drop_requirements": null
        }
    },
    "rare_drop_table": false
}