{
    "id": 6496,
    "name": "Dagannoth Supreme",
    "incomplete": false,
    "members": true,
    "release_date": "2005-11-07",
    "combat_level": 303,
    "size": 3,
    "hitpoints": 255,
    "max_hit": 30,
    "attack_type": [
        "ranged",
        "ranged"
    ],
    "attack_speed": 4,
    "aggressive": true,
    "poisonous": true,
    "immune_poison": false,
    "immune_venom": false,
    "weakness": [
        "melee"
    ],
    "slayer_monster": true,
    "slayer_level": 1,
    "slayer_xp": 255.0,
    "slayer_masters": [
        "vannaka",
        "chaeldar",
        "konar",
        "nieve",
        "duradel"
    ],
    "duplicate": true,
    "examine": "The dagannoth king responsible for the death of the Bukalla.",
    "wiki_name": "Dagannoth Supreme",
    "wiki_url": "https://oldschool.runescape.wiki/w/Dagannoth_Supreme",
    "attack_level": 255,
    "strength_level": 255,
    "defence_level": 128,
    "magic_level": 255,
    "ranged_level": 255,
    "attack_stab": 0,
    "attack_slash": 0,
    "attack_crush": 0,
    "attack_magic": 0,
    "attack_ranged": 0,
    "defence_stab": 10,
    "defence_slash": 10,
    "defence_crush": 10,
    "defence_magic": 255,
    "defence_ranged": 550,
    "attack_accuracy": 0,
    "melee_strength": 0,
    "ranged_strength": 0,
    "magic_damage": 0,
    "drops": {
        "45": {
            "id": 45,
            "name": "Opal bolt tips",
            "members": true,
            "quantity": "10-30",
            "noted": false,
            "rarity": "5/128",
            "drop_requirements": null
        },
        "207": {
            "id": 207,
            "name": "Grimy ranarr weed",
            "members": true,
            "quantity": "1",
            "noted": false,
            "rarity": "5/128",
            "drop_requirements": null
        },
        "314": {
            "id": 314,
            "name": "Feather",
            "members": true,
            "quantity": "250-500",
            "noted": false,
            "rarity": "1/128",
            "drop_requirements": null
        },
        "385": {
            "id": 385,
            "name": "Shark",
            "members": true,
            "quantity": "5",
            "noted": false,
            "rarity": "5/128",
            "drop_requirements": null
        },
        "413": {
            "id": 413,
            "name": "Oyster pearls",
            "members": true,
            "quantity": "1",
            "noted": false,
            "rarity": "6/128",
            "drop_requirements": null
        },
        "617": {
            "id": 617,
            "name": "Coins",
            "members": true,
            "quantity": "500-1109",
            "noted": false,
            "rarity": "10/128",
            "drop_requirements": null
        },
        "805": {
            "id": 805,
            "name": "Rune thrownaxe",
            "members": true,
            "quantity": "5-10",
            "noted": false,
            "rarity": "5/128",
            "drop_requirements": null
        },
        "810": {
            "id": 810,
            "name": "Adamant dart",
            "members": true,
            "quantity": "10-25",
            "noted": false,
            "rarity": "5/128",
            "drop_requirements": null
        },
        "863": {
            "id": 863,
            "name": "Iron knife",
            "members": true,
            "quantity": "200-500",
            "noted": false,
            "rarity": "5/128",
            "drop_requirements": null
        },
        "865": {
            "id": 865,
            "name": "Steel knife",
            "members": true,
            "quantity": "50-150",
            "noted": false,
            "rarity": "5/128",
            "drop_requirements": null
        },
        "866": {
            "id": 866,
            "name": "Mithril knife",
            "members": true,
            "quantity": "25-50",
            "noted": false,
            "rarity": "10/128",
            "drop_requirements": null
        },
        "884": {
            "id": 884,
            "name": "Iron arrow",
            "members": true,
            "quantity": "200-700",
            "noted": false,
            "rarity": "4/128",
            "drop_requirements": null
        },
        "886": {
            "id": 886,
            "name": "Steel arrow",
            "members": true,
            "quantity": "50-250",
            "noted": false,
            "rarity": "5/128",
            "drop_requirements": null
        },
        "1515": {
            "id": 1515,
            "name": "Yew logs",
            "members": true,
            "quantity": "50-150",
            "noted": true,
            "rarity": "5/128",
            "drop_requirements": null
        },
        "1517": {
            "id": 1517,
            "name": "Maple logs",
            "members": true,
            "quantity": "15-65",
            "noted": true,
            "rarity": "3/128",
            "drop_requirements": null
        },
        "2489": {
            "id": 2489,
            "name": "Red d'hide vamb",
            "members": true,
            "quantity": "1",
            "noted": false,
            "rarity": "7/128",
            "drop_requirements": null
        },
        "2722": {
            "id": 2722,
            "name": "Clue scroll (hard)",
            "members": true,
            "quantity": "1",
            "noted": false,
            "rarity": "1/42",
            "drop_requirements": null
        },
        "3748": {
            "id": 3748,
            "name": "Fremennik helm",
            "members": true,
            "quantity": "1",
            "noted": false,
            "rarity": "1/128",
            "drop_requirements": null
        },
        "3749": {
            "id": 3749,
            "name": "Archer helm",
            "members": true,
            "quantity": "1",
            "noted": false,
            "rarity": "1/128",
            "drop_requirements": null
        },
        "3757": {
            "id": 3757,
            "name": "Fremennik blade",
            "members": true,
            "quantity": "1",
            "noted": false,
            "rarity": "1/128",
            "drop_requirements": null
        },
        "3758": {
            "id": 3758,
            "name": "Fremennik shield",
            "members": true,
            "quantity": "1",
            "noted": false,
            "rarity": "1/128",
            "drop_requirements": null
        },
        "6133": {
            "id": 6133,
            "name": "Spined body",
            "members": true,
            "quantity": "1",
            "noted": false,
            "rarity": "1/128",
            "drop_requirements": null
        },
        "6135": {
            "id": 6135,
            "name": "Spined chaps",
            "members": true,
            "quantity": "1",
            "noted": false,
            "rarity": "1/128",
            "drop_requirements": null
        },
        "6155": {
            "id": 6155,
            "name": "Dagannoth hide",
            "members": true,
            "quantity": "1",
            "noted": false,
            "rarity": "1/1",
            "drop_requirements": null
        },
        "6724": {
            "id": 6724,
            "name": "Seercull",
            "members": true,
            "quantity": "1",
            "noted": false,
            "rarity": "1/128",
            "drop_requirements": null
        },
        "6729": {
            "id": 6729,
            "name": "Dagannoth bones",
            "members": true,
            "quantity": "1",
            "noted": false,
            "rarity": "1/1",
            "drop_requirements": null
        },
        "6733": {
            "id": 6733,
            "name": "Archers ring",
            "members": true,
            "quantity": "1",
            "noted": false,
            "rarity": "1/128",
            "drop_requirements": null
        },
        "6739": {
            "id": 6739,
            "name": "Dragon axe",
            "members": true,
            "quantity": "1",
            "noted": false,
            "rarity": "1/128",
            "drop_requirements": null
        },
        "9144": {
            "id": 9144,
            "name": "Runite bolts",
            "members": true,
            "quantity": "2-12",
            "noted": false,
            "rarity": "5/128",
            "drop_requirements": null
        },
        "9431": {
            "id": 9431,
            "name": "Runite limbs",
            "members": true,
            "quantity": "1",
            "noted": false,
            "rarity": "2/128",
            "drop_requirements": null
        },
        "12073": {
            "id": 12073,
            "name": "Clue scroll (elite)",
            "members": true,
            "quantity": "1",
            "noted": false,
            "rarity": "1/750",
            "drop_requirements": null
        },
        "12643": {
            "id": 12643,
            "name": "Pet dagannoth supreme",
            "members": true,
            "quantity": "1",
            "noted": false,
            "rarity": "1/5000",
            "drop_requirements": null
        },
        "13492": {
            "id": 13492,
            "name": "Ensouled dagannoth head",
            "members": true,
            "quantity": "1",
            "noted": false,
            "rarity": "1/20",
            "drop_requirements": null
        },
        "23083": {
            "id": 23083,
            "name": "Brimstone key",
            "members": true,
            "quantity": "1",
            "noted": false,
            "rarity": "1/59.4",
            "drop_requirements": null
        }
    },
    "rare_drop_table": true
}