{
    "id": 6502,
    "name": "King Black Dragon",
    "incomplete": false,
    "members": true,
    "release_date": "2002-09-24",
    "combat_level": 276,
    "size": 5,
    "hitpoints": 240,
    "max_hit": 25,
    "attack_type": [
        "slash",
        "dragonfire"
    ],
    "attack_speed": 3,
    "aggressive": true,
    "poisonous": true,
    "immune_poison": false,
    "immune_venom": false,
    "weakness": [
        "stab",
        "ranged",
        "dragonbane"
    ],
    "slayer_monster": true,
    "slayer_level": 1,
    "slayer_xp": 258.0,
    "slayer_masters": [
        "konar",
        "nieve",
        "duradel"
    ],
    "duplicate": true,
    "examine": "One of the biggest, meanest dragons around.",
    "wiki_name": "King Black Dragon",
    "wiki_url": "https://oldschool.runescape.wiki/w/King_Black_Dragon",
    "attack_level": 240,
    "strength_level": 240,
    "defence_level": 240,
    "magic_level": 240,
    "ranged_level": 1,
    "attack_stab": 0,
    "attack_slash": 0,
    "attack_crush": 0,
    "attack_magic": 0,
    "attack_ranged": 0,
    "defence_stab": 70,
    "defence_slash": 90,
    "defence_crush": 90,
    "defence_magic": 80,
    "defence_ranged": 70,
    "attack_accuracy": 0,
    "melee_strength": 0,
    "ranged_strength": 0,
    "magic_damage": 0,
    "drops": {
        "385": {
            "id": 385,
            "name": "Shark",
            "members": true,
            "quantity": "4",
            "noted": false,
            "rarity": "4/128",
            "drop_requirements": null
        },
        "444": {
            "id": 444,
            "name": "Gold ore",
            "members": true,
            "quantity": "100",
            "noted": true,
            "rarity": "2/128",
            "drop_requirements": null
        },
        "536": {
            "id": 536,
            "name": "Dragon bones",
            "members": true,
            "quantity": "1",
            "noted": false,
            "rarity": "1/1",
            "drop_requirements": null
        },
        "554": {
            "id": 554,
            "name": "Fire rune",
            "members": true,
            "quantity": "300",
            "noted": false,
            "rarity": "5/128",
            "drop_requirements": null
        },
        "556": {
            "id": 556,
            "name": "Air rune",
            "members": true,
            "quantity": "300",
            "noted": false,
            "rarity": "10/128",
            "drop_requirements": null
        },
        "563": {
            "id": 563,
            "name": "Law rune",
            "members": true,
            "quantity": "30",
            "noted": false,
            "rarity": "5/128",
            "drop_requirements": null
        },
        "565": {
            "id": 565,
            "name": "Blood rune",
            "members": true,
            "quantity": "30",
            "noted": false,
            "rarity": "5/128",
            "drop_requirements": null
        },
        "884": {
            "id": 884,
            "name": "Iron arrow",
            "members": true,
            "quantity": "690",
            "noted": false,
            "rarity": "10/128",
            "drop_requirements": null
        },
        "1123": {
            "id": 1123,
            "name": "Adamant platebody",
            "members": true,
            "quantity": "1",
            "noted": false,
            "rarity": "9/128",
            "drop_requirements": null
        },
        "1149": {
            "id": 1149,
            "name": "Dragon med helm",
            "members": true,
            "quantity": "1",
            "noted": false,
            "rarity": "1/128",
            "drop_requirements": null
        },
        "1199": {
            "id": 1199,
            "name": "Adamant kiteshield",
            "members": true,
            "quantity": "1",
            "noted": false,
            "rarity": "3/128",
            "drop_requirements": null
        },
        "1303": {
            "id": 1303,
            "name": "Rune longsword",
            "members": true,
            "quantity": "1",
            "noted": false,
            "rarity": "10/128",
            "drop_requirements": null
        },
        "1515": {
            "id": 1515,
            "name": "Yew logs",
            "members": true,
            "quantity": "150",
            "noted": true,
            "rarity": "10/128",
            "drop_requirements": null
        },
        "1731": {
            "id": 1731,
            "name": "Amulet of power",
            "members": true,
            "quantity": "1",
            "noted": false,
            "rarity": "7/128",
            "drop_requirements": null
        },
        "1747": {
            "id": 1747,
            "name": "Black dragonhide",
            "members": true,
            "quantity": "2",
            "noted": false,
            "rarity": "1/1",
            "drop_requirements": null
        },
        "2361": {
            "id": 2361,
            "name": "Adamantite bar",
            "members": true,
            "quantity": "3",
            "noted": false,
            "rarity": "5/128",
            "drop_requirements": null
        },
        "2363": {
            "id": 2363,
            "name": "Runite bar",
            "members": true,
            "quantity": "1",
            "noted": false,
            "rarity": "3/128",
            "drop_requirements": null
        },
        "7980": {
            "id": 7980,
            "name": "Kbd heads",
            "members": true,
            "quantity": "1",
            "noted": false,
            "rarity": "1/128",
            "drop_requirements": null
        },
        "9144": {
            "id": 9144,
            "name": "Runite bolts",
            "members": true,
            "quantity": "10-20",
            "noted": false,
            "rarity": "10/128",
            "drop_requirements": null
        },
        "9431": {
            "id": 9431,
            "name": "Runite limbs",
            "members": true,
            "quantity": "1",
            "noted": false,
            "rarity": "4/128",
            "drop_requirements": null
        },
        "11232": {
            "id": 11232,
            "name": "Dragon dart tip",
            "members": true,
            "quantity": "5-14",
            "noted": false,
            "rarity": "5/128",
            "drop_requirements": null
        },
        "11237": {
            "id": 11237,
            "name": "Dragon arrowtips",
            "members": true,
            "quantity": "5-14",
            "noted": false,
            "rarity": "5/128",
            "drop_requirements": null
        },
        "11286": {
            "id": 11286,
            "name": "Draconic visage",
            "members": true,
            "quantity": "1",
            "noted": false,
            "rarity": "1/1250",
            "drop_requirements": null
        },
        "11920": {
            "id": 11920,
            "name": "Dragon pickaxe",
            "members": true,
            "quantity": "1",
            "noted": false,
            "rarity": "1/750",
            "drop_requirements": null
        },
        "12073": {
            "id": 12073,
            "name": "Clue scroll (elite)",
            "members": true,
            "quantity": "1",
            "noted": false,
            "rarity": "1/450",
            "drop_requirements": null
        },
        "12653": {
            "id": 12653,
            "name": "Prince black dragon",
            "members": true,
            "quantity": "1",
            "noted": false,
            "rarity": "1/3000",
            "drop_requirements": null
        },
        "19582": {
            "id": 19582,
            "name": "Dragon javelin heads",
            "members": true,
            "quantity": "15",
            "noted": false,
            "rarity": "5/128",
            "drop_requirements": null
        },
        "19812": {
            "id": 19812,
            "name": "Key (elite)",
            "members": true,
            "quantity": "1",
            "noted": false,
            "rarity": "1/1",
            "drop_requirements": null
        },
        "23083": {
            "id": 23083,
            "name": "Brimstone key",
            "members": true,
            "quantity": "1",
            "noted": false,
            "rarity": "1/64.8",
            "drop_requirements": null
        }
    },
    "rare_drop_table": false
}