{
    "id": 6615,
    "name": "Scorpia",
    "incomplete": false,
    "members": true,
    "release_date": "2014-03-13",
    "combat_level": 225,
    "size": 5,
    "hitpoints": 200,
    "max_hit": 16,
    "attack_type": [
        "stab"
    ],
    "attack_speed": 4,
    "aggressive": true,
    "poisonous": true,
    "immune_poison": false,
    "immune_venom": false,
    "weakness": [
        "magic"
    ],
    "slayer_monster": true,
    "slayer_level": 1,
    "slayer_xp": 260.0,
    "slayer_masters": [
        "turael",
        "krystilia",
        "mazchna",
        "konar",
        "nieve",
        "duradel"
    ],
    "duplicate": false,
    "examine": "Queen of the Scorpions.",
    "wiki_name": "Scorpia",
    "wiki_url": "https://oldschool.runescape.wiki/w/Scorpia",
    "attack_level": 250,
    "strength_level": 150,
    "defence_level": 180,
    "magic_level": 1,
    "ranged_level": 1,
    "attack_stab": 0,
    "attack_slash": 0,
    "attack_crush": 0,
    "attack_magic": 0,
    "attack_ranged": 0,
    "defence_stab": 246,
    "defence_slash": 284,
    "defence_crush": 284,
    "defence_magic": 44,
    "defence_ranged": 284,
    "attack_accuracy": 60,
    "melee_strength": 0,
    "ranged_strength": 0,
    "magic_damage": 0,
    "drops": {
        "213": {
            "id": 213,
            "name": "Grimy kwuarm",
            "members": true,
            "quantity": "4",
            "noted": true,
            "rarity": "8/128",
            "drop_requirements": null
        },
        "385": {
            "id": 385,
            "name": "Shark",
            "members": true,
            "quantity": "1",
            "noted": false,
            "rarity": "8/128",
            "drop_requirements": null
        },
        "617": {
            "id": 617,
            "name": "Coins",
            "members": true,
            "quantity": "499-3998",
            "noted": false,
            "rarity": "18/128",
            "drop_requirements": null
        },
        "1113": {
            "id": 1113,
            "name": "Rune chainbody",
            "members": true,
            "quantity": "1",
            "noted": false,
            "rarity": "4/128",
            "drop_requirements": null
        },
        "1247": {
            "id": 1247,
            "name": "Rune spear",
            "members": true,
            "quantity": "1",
            "noted": false,
            "rarity": "5/128",
            "drop_requirements": null
        },
        "1275": {
            "id": 1275,
            "name": "Rune pickaxe",
            "members": true,
            "quantity": "1",
            "noted": false,
            "rarity": "5/128",
            "drop_requirements": null
        },
        "1289": {
            "id": 1289,
            "name": "Rune sword",
            "members": true,
            "quantity": "1",
            "noted": false,
            "rarity": "4/128",
            "drop_requirements": null
        },
        "1319": {
            "id": 1319,
            "name": "Rune 2h sword",
            "members": true,
            "quantity": "1",
            "noted": false,
            "rarity": "5/128",
            "drop_requirements": null
        },
        "1333": {
            "id": 1333,
            "name": "Rune scimitar",
            "members": true,
            "quantity": "1",
            "noted": false,
            "rarity": "4/128",
            "drop_requirements": null
        },
        "1347": {
            "id": 1347,
            "name": "Rune warhammer",
            "members": true,
            "quantity": "1",
            "noted": false,
            "rarity": "4/128",
            "drop_requirements": null
        },
        "1621": {
            "id": 1621,
            "name": "Uncut emerald",
            "members": true,
            "quantity": "6",
            "noted": true,
            "rarity": "5/128",
            "drop_requirements": null
        },
        "1623": {
            "id": 1623,
            "name": "Uncut sapphire",
            "members": true,
            "quantity": "4",
            "noted": true,
            "rarity": "5/128",
            "drop_requirements": null
        },
        "1783": {
            "id": 1783,
            "name": "Bucket of sand",
            "members": true,
            "quantity": "25",
            "noted": true,
            "rarity": "6/128",
            "drop_requirements": null
        },
        "2297": {
            "id": 2297,
            "name": "Anchovy pizza",
            "members": true,
            "quantity": "8",
            "noted": true,
            "rarity": "4/128",
            "drop_requirements": null
        },
        "2434": {
            "id": 2434,
            "name": "Prayer potion(4)",
            "members": true,
            "quantity": "1",
            "noted": false,
            "rarity": "8/128",
            "drop_requirements": null
        },
        "2448": {
            "id": 2448,
            "name": "Superantipoison(4)",
            "members": true,
            "quantity": "1",
            "noted": false,
            "rarity": "2/128",
            "drop_requirements": null
        },
        "2722": {
            "id": 2722,
            "name": "Clue scroll (hard)",
            "members": true,
            "quantity": "1",
            "noted": false,
            "rarity": "1/100",
            "drop_requirements": null
        },
        "4587": {
            "id": 4587,
            "name": "Dragon scimitar",
            "members": true,
            "quantity": "1",
            "noted": false,
            "rarity": "1/128",
            "drop_requirements": null
        },
        "4696": {
            "id": 4696,
            "name": "Dust rune",
            "members": true,
            "quantity": "30",
            "noted": false,
            "rarity": "4/128",
            "drop_requirements": null
        },
        "5940": {
            "id": 5940,
            "name": "Weapon poison(++)",
            "members": true,
            "quantity": "1",
            "noted": false,
            "rarity": "4/128",
            "drop_requirements": null
        },
        "6016": {
            "id": 6016,
            "name": "Cactus spine",
            "members": true,
            "quantity": "10",
            "noted": true,
            "rarity": "6/128",
            "drop_requirements": null
        },
        "6685": {
            "id": 6685,
            "name": "Saradomin brew(4)",
            "members": true,
            "quantity": "1",
            "noted": false,
            "rarity": "1/5",
            "drop_requirements": null
        },
        "6691": {
            "id": 6691,
            "name": "Saradomin brew(1)",
            "members": true,
            "quantity": "1",
            "noted": false,
            "rarity": "1/5",
            "drop_requirements": null
        },
        "7198": {
            "id": 7198,
            "name": "Admiral pie",
            "members": true,
            "quantity": "3",
            "noted": false,
            "rarity": "8/128",
            "drop_requirements": null
        },
        "11090": {
            "id": 11090,
            "name": "Phoenix necklace",
            "members": true,
            "quantity": "1",
            "noted": false,
            "rarity": "7/128",
            "drop_requirements": null
        },
        "11930": {
            "id": 11930,
            "name": "Odium shard 3",
            "members": true,
            "quantity": "1",
            "noted": false,
            "rarity": "1/128",
            "drop_requirements": null
        },
        "11933": {
            "id": 11933,
            "name": "Malediction shard 3",
            "members": true,
            "quantity": "1",
            "noted": false,
            "rarity": "1/128",
            "drop_requirements": null
        },
        "11941": {
            "id": 11941,
            "name": "Looting bag",
            "members": true,
            "quantity": "1",
            "noted": false,
            "rarity": "1/3",
            "drop_requirements": null
        },
        "13181": {
            "id": 13181,
            "name": "Scorpia's offspring",
            "members": true,
            "quantity": "1",
            "noted": false,
            "rarity": "1/2015.75",
            "drop_requirements": null
        },
        "13459": {
            "id": 13459,
            "name": "Ensouled scorpion head",
            "members": true,
            "quantity": "1",
            "noted": false,
            "rarity": "1/18",
            "drop_requirements": null
        },
        "23083": {
            "id": 23083,
            "name": "Brimstone key",
            "members": true,
            "quantity": "1",
            "noted": false,
            "rarity": "1/75",
            "drop_requirements": null
        }
    },
    "rare_drop_table": true
}