{
    "id": 666,
    "name": "Goblin",
    "incomplete": false,
    "members": false,
    "release_date": "2001-01-04",
    "combat_level": 5,
    "size": 1,
    "hitpoints": 12,
    "max_hit": 1,
    "attack_type": [
        "crush"
    ],
    "attack_speed": 6,
    "aggressive": false,
    "poisonous": false,
    "immune_poison": false,
    "immune_venom": false,
    "weakness": [
        "magic"
    ],
    "slayer_monster": true,
    "slayer_level": 1,
    "slayer_xp": 5.0,
    "slayer_masters": [
        "turael"
    ],
    "duplicate": true,
    "examine": "An ugly green creature.",
    "wiki_name": "Goblin (Lv 5)",
    "wiki_url": "https://oldschool.runescape.wiki/w/Goblin#Lv_5",
    "attack_level": 7,
    "strength_level": 2,
    "defence_level": 4,
    "magic_level": 1,
    "ranged_level": 1,
    "attack_stab": 0,
    "attack_slash": 0,
    "attack_crush": 0,
    "attack_magic": 0,
    "attack_ranged": 0,
    "defence_stab": 0,
    "defence_slash": 0,
    "defence_crush": 0,
    "defence_magic": 0,
    "defence_ranged": 0,
    "attack_accuracy": 12,
    "melee_strength": 12,
    "ranged_strength": 0,
    "magic_damage": 0,
    "drops": {
        "288": {
            "id": 288,
            "name": "Goblin mail",
            "members": false,
            "quantity": "1",
            "noted": false,
            "rarity": "10/128",
            "drop_requirements": null
        },
        "438": {
            "id": 438,
            "name": "Tin ore",
            "members": false,
            "quantity": "1",
            "noted": false,
            "rarity": "1/128",
            "drop_requirements": null
        },
        "526": {
            "id": 526,
            "name": "Bones",
            "members": false,
            "quantity": "1",
            "noted": false,
            "rarity": "1/1",
            "drop_requirements": null
        },
        "555": {
            "id": 555,
            "name": "Water rune",
            "members": false,
            "quantity": "6",
            "noted": false,
            "rarity": "6/128",
            "drop_requirements": null
        },
        "557": {
            "id": 557,
            "name": "Earth rune",
            "members": false,
            "quantity": "4",
            "noted": false,
            "rarity": "3/128",
            "drop_requirements": null
        },
        "558": {
            "id": 558,
            "name": "Mind rune",
            "members": false,
            "quantity": "2",
            "noted": false,
            "rarity": "3/128",
            "drop_requirements": null
        },
        "559": {
            "id": 559,
            "name": "Body rune",
            "members": false,
            "quantity": "2",
            "noted": false,
            "rarity": "3/128",
            "drop_requirements": null
        },
        "561": {
            "id": 561,
            "name": "Nature rune",
            "members": false,
            "quantity": "1",
            "noted": false,
            "rarity": "1/128",
            "drop_requirements": null
        },
        "562": {
            "id": 562,
            "name": "Chaos rune",
            "members": false,
            "quantity": "1",
            "noted": false,
            "rarity": "1/128",
            "drop_requirements": null
        },
        "617": {
            "id": 617,
            "name": "Coins",
            "members": true,
            "quantity": "10",
            "noted": false,
            "rarity": "2/128",
            "drop_requirements": null
        },
        "825": {
            "id": 825,
            "name": "Bronze javelin",
            "members": true,
            "quantity": "5",
            "noted": false,
            "rarity": "2/128",
            "drop_requirements": null
        },
        "877": {
            "id": 877,
            "name": "Bronze bolts",
            "members": false,
            "quantity": "8",
            "noted": false,
            "rarity": "3/128",
            "drop_requirements": null
        },
        "882": {
            "id": 882,
            "name": "Bronze arrow",
            "members": false,
            "quantity": "7",
            "noted": false,
            "rarity": "3/128",
            "drop_requirements": null
        },
        "1007": {
            "id": 1007,
            "name": "Red cape",
            "members": false,
            "quantity": "1",
            "noted": false,
            "rarity": "1/128",
            "drop_requirements": null
        },
        "1009": {
            "id": 1009,
            "name": "Brass necklace",
            "members": false,
            "quantity": "1",
            "noted": false,
            "rarity": "1/128",
            "drop_requirements": null
        },
        "1173": {
            "id": 1173,
            "name": "Bronze sq shield",
            "members": false,
            "quantity": "1",
            "noted": false,
            "rarity": "3/128",
            "drop_requirements": null
        },
        "1237": {
            "id": 1237,
            "name": "Bronze spear",
            "members": true,
            "quantity": "1",
            "noted": false,
            "rarity": "9/128",
            "drop_requirements": null
        },
        "1321": {
            "id": 1321,
            "name": "Bronze scimitar",
            "members": false,
            "quantity": "1",
            "noted": false,
            "rarity": "1/128",
            "drop_requirements": null
        },
        "1351": {
            "id": 1351,
            "name": "Bronze axe",
            "members": false,
            "quantity": "1",
            "noted": false,
            "rarity": "3/128",
            "drop_requirements": null
        },
        "1438": {
            "id": 1438,
            "name": "Air talisman",
            "members": false,
            "quantity": "1",
            "noted": false,
            "rarity": "1/128",
            "drop_requirements": null
        },
        "1917": {
            "id": 1917,
            "name": "Beer",
            "members": false,
            "quantity": "1",
            "noted": false,
            "rarity": "2/128",
            "drop_requirements": null
        },
        "1949": {
            "id": 1949,
            "name": "Chef's hat",
            "members": false,
            "quantity": "1",
            "noted": false,
            "rarity": "3/128",
            "drop_requirements": null
        },
        "1987": {
            "id": 1987,
            "name": "Grapes",
            "members": false,
            "quantity": "1",
            "noted": false,
            "rarity": "1/128",
            "drop_requirements": null
        },
        "2347": {
            "id": 2347,
            "name": "Hammer",
            "members": false,
            "quantity": "1",
            "noted": false,
            "rarity": "9/128",
            "drop_requirements": null
        },
        "2677": {
            "id": 2677,
            "name": "Clue scroll (easy)",
            "members": true,
            "quantity": "1",
            "noted": false,
            "rarity": "1/128",
            "drop_requirements": null
        },
        "6801": {
            "id": 6801,
            "name": "Goblin champion scroll",
            "members": true,
            "quantity": "1",
            "noted": false,
            "rarity": "1/5000",
            "drop_requirements": null
        },
        "7812": {
            "id": 7812,
            "name": "Goblin skull",
            "members": true,
            "quantity": "1",
            "noted": false,
            "rarity": "1/4",
            "drop_requirements": null
        },
        "10999": {
            "id": 10999,
            "name": "Goblin book",
            "members": true,
            "quantity": "1",
            "noted": false,
            "rarity": "2/128",
            "drop_requirements": null
        },
        "11941": {
            "id": 11941,
            "name": "Looting bag",
            "members": true,
            "quantity": "1",
            "noted": false,
            "rarity": "1/23",
            "drop_requirements": null
        },
        "11942": {
            "id": 11942,
            "name": "Ecumenical key",
            "members": true,
            "quantity": "1",
            "noted": false,
            "rarity": "1/60",
            "drop_requirements": null
        },
        "13447": {
            "id": 13447,
            "name": "Ensouled goblin head",
            "members": true,
            "quantity": "1",
            "noted": false,
            "rarity": "1/30",
            "drop_requirements": null
        },
        "23182": {
            "id": 23182,
            "name": "Clue scroll (beginner)",
            "members": false,
            "quantity": "1",
            "noted": false,
            "rarity": "1/80",
            "drop_requirements": null
        }
    },
    "rare_drop_table": false
}