{
    "id": 6729,
    "name": "Rock Golem",
    "incomplete": true,
    "members": true,
    "release_date": "2004-02-02",
    "combat_level": 120,
    "size": 1,
    "hitpoints": 120,
    "max_hit": 11,
    "attack_type": [
        "crush",
        "ranged",
        "ranged"
    ],
    "attack_speed": 4,
    "aggressive": true,
    "poisonous": false,
    "immune_poison": false,
    "immune_venom": false,
    "weakness": [
        "magic"
    ],
    "slayer_monster": false,
    "slayer_level": null,
    "slayer_xp": null,
    "slayer_masters": [],
    "duplicate": false,
    "examine": "Rock with attitude.",
    "wiki_name": "Rock golem (monster) (Lv 120)",
    "wiki_url": "https://oldschool.runescape.wiki/w/Rock_golem_(monster)#Lv_120",
    "attack_level": 100,
    "strength_level": 100,
    "defence_level": 100,
    "magic_level": 1,
    "ranged_level": 75,
    "attack_stab": 0,
    "attack_slash": 0,
    "attack_crush": 0,
    "attack_magic": 0,
    "attack_ranged": 0,
    "defence_stab": 0,
    "defence_slash": 0,
    "defence_crush": 0,
    "defence_magic": 0,
    "defence_ranged": 0,
    "attack_accuracy": 0,
    "melee_strength": 0,
    "ranged_strength": 0,
    "magic_damage": 0,
    "drops": {
        "436": {
            "id": 436,
            "name": "Copper ore",
            "members": true,
            "quantity": "1",
            "noted": false,
            "rarity": "1/32",
            "drop_requirements": null
        },
        "438": {
            "id": 438,
            "name": "Tin ore",
            "members": true,
            "quantity": "1",
            "noted": false,
            "rarity": "1/32",
            "drop_requirements": null
        },
        "440": {
            "id": 440,
            "name": "Iron ore",
            "members": true,
            "quantity": "1",
            "noted": false,
            "rarity": "1/32",
            "drop_requirements": null
        },
        "451": {
            "id": 451,
            "name": "Runite ore",
            "members": true,
            "quantity": "1",
            "noted": false,
            "rarity": "1/128",
            "drop_requirements": null
        },
        "453": {
            "id": 453,
            "name": "Coal",
            "members": true,
            "quantity": "1",
            "noted": false,
            "rarity": "1/32",
            "drop_requirements": null
        },
        "557": {
            "id": 557,
            "name": "Earth rune",
            "members": true,
            "quantity": "5,42",
            "noted": false,
            "rarity": "1/8",
            "drop_requirements": null
        },
        "562": {
            "id": 562,
            "name": "Chaos rune",
            "members": true,
            "quantity": "2",
            "noted": false,
            "rarity": "1/32",
            "drop_requirements": null
        },
        "1271": {
            "id": 1271,
            "name": "Adamant pickaxe",
            "members": true,
            "quantity": "1",
            "noted": false,
            "rarity": "1/32",
            "drop_requirements": null
        },
        "1275": {
            "id": 1275,
            "name": "Rune pickaxe",
            "members": true,
            "quantity": "1",
            "noted": false,
            "rarity": "1/128",
            "drop_requirements": null
        },
        "1621": {
            "id": 1621,
            "name": "Uncut emerald",
            "members": true,
            "quantity": "1",
            "noted": false,
            "rarity": "1/32",
            "drop_requirements": null
        },
        "1623": {
            "id": 1623,
            "name": "Uncut sapphire",
            "members": true,
            "quantity": "1",
            "noted": false,
            "rarity": "1/32",
            "drop_requirements": null
        },
        "1913": {
            "id": 1913,
            "name": "Dwarven stout",
            "members": true,
            "quantity": "1",
            "noted": false,
            "rarity": "1/8",
            "drop_requirements": null
        },
        "2347": {
            "id": 2347,
            "name": "Hammer",
            "members": true,
            "quantity": "1",
            "noted": false,
            "rarity": "1/8",
            "drop_requirements": null
        },
        "2349": {
            "id": 2349,
            "name": "Bronze bar",
            "members": true,
            "quantity": "1",
            "noted": false,
            "rarity": "1/32",
            "drop_requirements": null
        }
    },
    "rare_drop_table": false
}