{
    "id": 6733,
    "name": "River troll",
    "incomplete": true,
    "members": true,
    "release_date": "2004-02-02",
    "combat_level": 29,
    "size": 1,
    "hitpoints": 0,
    "max_hit": 4,
    "attack_type": [
        "crush"
    ],
    "attack_speed": 4,
    "aggressive": true,
    "poisonous": false,
    "immune_poison": false,
    "immune_venom": false,
    "weakness": [
        "ranged",
        "magic"
    ],
    "slayer_monster": false,
    "slayer_level": null,
    "slayer_xp": null,
    "slayer_masters": [],
    "duplicate": false,
    "examine": "Likes fish... hates people.",
    "wiki_name": "River troll (Lv 29)",
    "wiki_url": "https://oldschool.runescape.wiki/w/River_troll#Lv_29",
    "attack_level": 32,
    "strength_level": 32,
    "defence_level": 32,
    "magic_level": 1,
    "ranged_level": 1,
    "attack_stab": 0,
    "attack_slash": 0,
    "attack_crush": 0,
    "attack_magic": 0,
    "attack_ranged": 0,
    "defence_stab": 0,
    "defence_slash": 0,
    "defence_crush": 0,
    "defence_magic": 0,
    "defence_ranged": 0,
    "attack_accuracy": 0,
    "melee_strength": 0,
    "ranged_strength": 0,
    "magic_damage": 0,
    "drops": {
        "151": {
            "id": 151,
            "name": "Fishing potion(3)",
            "members": true,
            "quantity": "1",
            "noted": false,
            "rarity": "1/128",
            "drop_requirements": null
        },
        "313": {
            "id": 313,
            "name": "Fishing bait",
            "members": true,
            "quantity": "1-50",
            "noted": false,
            "rarity": "1/8",
            "drop_requirements": null
        },
        "314": {
            "id": 314,
            "name": "Feather",
            "members": true,
            "quantity": "5-20",
            "noted": false,
            "rarity": "1/8",
            "drop_requirements": null
        },
        "317": {
            "id": 317,
            "name": "Raw shrimps",
            "members": true,
            "quantity": "1",
            "noted": false,
            "rarity": "1/32",
            "drop_requirements": null
        },
        "321": {
            "id": 321,
            "name": "Raw anchovies",
            "members": true,
            "quantity": "1",
            "noted": false,
            "rarity": "1/32",
            "drop_requirements": null
        },
        "327": {
            "id": 327,
            "name": "Raw sardine",
            "members": true,
            "quantity": "1",
            "noted": false,
            "rarity": "1/32",
            "drop_requirements": null
        },
        "331": {
            "id": 331,
            "name": "Raw salmon",
            "members": true,
            "quantity": "1",
            "noted": false,
            "rarity": "1/32",
            "drop_requirements": null
        },
        "335": {
            "id": 335,
            "name": "Raw trout",
            "members": true,
            "quantity": "1",
            "noted": false,
            "rarity": "1/32",
            "drop_requirements": null
        },
        "345": {
            "id": 345,
            "name": "Raw herring",
            "members": true,
            "quantity": "1",
            "noted": false,
            "rarity": "1/32",
            "drop_requirements": null
        },
        "349": {
            "id": 349,
            "name": "Raw pike",
            "members": true,
            "quantity": "1",
            "noted": false,
            "rarity": "1/32",
            "drop_requirements": null
        },
        "359": {
            "id": 359,
            "name": "Raw tuna",
            "members": true,
            "quantity": "1",
            "noted": false,
            "rarity": "1/32",
            "drop_requirements": null
        },
        "371": {
            "id": 371,
            "name": "Raw swordfish",
            "members": true,
            "quantity": "1",
            "noted": false,
            "rarity": "1/32",
            "drop_requirements": null
        },
        "383": {
            "id": 383,
            "name": "Raw shark",
            "members": true,
            "quantity": "1",
            "noted": false,
            "rarity": "1/32",
            "drop_requirements": null
        },
        "405": {
            "id": 405,
            "name": "Casket",
            "members": true,
            "quantity": "1",
            "noted": false,
            "rarity": "1/128",
            "drop_requirements": null
        },
        "407": {
            "id": 407,
            "name": "Oyster",
            "members": true,
            "quantity": "1",
            "noted": false,
            "rarity": "1/32",
            "drop_requirements": null
        },
        "526": {
            "id": 526,
            "name": "Bones",
            "members": true,
            "quantity": "1",
            "noted": false,
            "rarity": "1/32",
            "drop_requirements": null
        },
        "532": {
            "id": 532,
            "name": "Big bones",
            "members": true,
            "quantity": "1",
            "noted": false,
            "rarity": "1/32",
            "drop_requirements": null
        },
        "1969": {
            "id": 1969,
            "name": "Spinach roll",
            "members": true,
            "quantity": "1",
            "noted": false,
            "rarity": "1/128",
            "drop_requirements": null
        }
    },
    "rare_drop_table": true
}