{
    "id": 6818,
    "name": "Ghost",
    "incomplete": false,
    "members": false,
    "release_date": "2001-01-04",
    "combat_level": 19,
    "size": 1,
    "hitpoints": 25,
    "max_hit": 2,
    "attack_type": [
        "crush"
    ],
    "attack_speed": 4,
    "aggressive": true,
    "poisonous": false,
    "immune_poison": false,
    "immune_venom": false,
    "weakness": [
        "magic"
    ],
    "slayer_monster": true,
    "slayer_level": 1,
    "slayer_xp": 25.0,
    "slayer_masters": [
        "turael",
        "mazchna"
    ],
    "duplicate": true,
    "examine": "Eeek! A ghost!",
    "wiki_name": "Ghost (Lv 19)",
    "wiki_url": "https://oldschool.runescape.wiki/w/Ghost#Lv_19",
    "attack_level": 13,
    "strength_level": 13,
    "defence_level": 18,
    "magic_level": 1,
    "ranged_level": 1,
    "attack_stab": 0,
    "attack_slash": 0,
    "attack_crush": 0,
    "attack_magic": 0,
    "attack_ranged": 0,
    "defence_stab": 5,
    "defence_slash": 5,
    "defence_crush": 5,
    "defence_magic": -5,
    "defence_ranged": 5,
    "attack_accuracy": 0,
    "melee_strength": 0,
    "ranged_strength": 0,
    "magic_damage": 0,
    "drops": {
        "11941": {
            "id": 11941,
            "name": "Looting bag",
            "members": true,
            "quantity": "1",
            "noted": false,
            "rarity": "1/15",
            "drop_requirements": null
        },
        "23182": {
            "id": 23182,
            "name": "Clue scroll (beginner)",
            "members": false,
            "quantity": "1",
            "noted": false,
            "rarity": "1/90",
            "drop_requirements": null
        }
    },
    "rare_drop_table": false
}