{
    "id": 683,
    "name": "Damis",
    "incomplete": true,
    "members": true,
    "release_date": "2005-04-18",
    "combat_level": 174,
    "size": 1,
    "hitpoints": 200,
    "max_hit": 28,
    "attack_type": [
        "melee"
    ],
    "attack_speed": 4,
    "aggressive": true,
    "poisonous": false,
    "immune_poison": false,
    "immune_venom": false,
    "weakness": [
        "magic"
    ],
    "slayer_monster": false,
    "slayer_level": null,
    "slayer_xp": null,
    "slayer_masters": [],
    "duplicate": false,
    "examine": "The warrior of darkness.",
    "wiki_name": "Damis (Second form)",
    "wiki_url": "https://oldschool.runescape.wiki/w/Damis#Second_form",
    "attack_level": 160,
    "strength_level": 100,
    "defence_level": 160,
    "magic_level": 1,
    "ranged_level": 1,
    "attack_stab": 0,
    "attack_slash": 0,
    "attack_crush": 0,
    "attack_magic": 0,
    "attack_ranged": 0,
    "defence_stab": 100,
    "defence_slash": 100,
    "defence_crush": 100,
    "defence_magic": 80,
    "defence_ranged": 120,
    "attack_accuracy": 0,
    "melee_strength": 100,
    "ranged_strength": 0,
    "magic_damage": 0,
    "drops": {
        "4673": {
            "id": 4673,
            "name": "Shadow diamond",
            "members": true,
            "quantity": "1",
            "noted": false,
            "rarity": "1/1",
            "drop_requirements": null
        }
    },
    "rare_drop_table": false
}