{
    "id": 6907,
    "name": "Soldier (tier 2)",
    "incomplete": true,
    "members": true,
    "release_date": "2016-01-07",
    "combat_level": 48,
    "size": 1,
    "hitpoints": 50,
    "max_hit": 7,
    "attack_type": [
        "crush"
    ],
    "attack_speed": 4,
    "aggressive": false,
    "poisonous": false,
    "immune_poison": false,
    "immune_venom": false,
    "weakness": [],
    "slayer_monster": false,
    "slayer_level": null,
    "slayer_xp": null,
    "slayer_masters": [],
    "duplicate": false,
    "examine": "Not a very high rank.",
    "wiki_name": "Soldier (tier 2)",
    "wiki_url": "https://oldschool.runescape.wiki/w/Soldier_(tier_2)",
    "attack_level": 40,
    "strength_level": 40,
    "defence_level": 40,
    "magic_level": 1,
    "ranged_level": 1,
    "attack_stab": 0,
    "attack_slash": 0,
    "attack_crush": 0,
    "attack_magic": 0,
    "attack_ranged": 0,
    "defence_stab": 0,
    "defence_slash": 0,
    "defence_crush": 0,
    "defence_magic": 0,
    "defence_ranged": 0,
    "attack_accuracy": 25,
    "melee_strength": 30,
    "ranged_strength": 0,
    "magic_damage": 0,
    "drops": {
        "13362": {
            "id": 13362,
            "name": "Shayzien gloves (2)",
            "members": true,
            "quantity": "1",
            "noted": false,
            "rarity": "1/1",
            "drop_requirements": null
        },
        "13363": {
            "id": 13363,
            "name": "Shayzien boots (2)",
            "members": true,
            "quantity": "1",
            "noted": false,
            "rarity": "1/1",
            "drop_requirements": null
        },
        "13364": {
            "id": 13364,
            "name": "Shayzien helm (2)",
            "members": true,
            "quantity": "1",
            "noted": false,
            "rarity": "1/1",
            "drop_requirements": null
        },
        "13365": {
            "id": 13365,
            "name": "Shayzien greaves (2)",
            "members": true,
            "quantity": "1",
            "noted": false,
            "rarity": "1/1",
            "drop_requirements": null
        },
        "13366": {
            "id": 13366,
            "name": "Shayzien platebody (2)",
            "members": true,
            "quantity": "1",
            "noted": false,
            "rarity": "1/1",
            "drop_requirements": null
        }
    },
    "rare_drop_table": false
}