{
    "id": 6918,
    "name": "Lizardman brute",
    "incomplete": false,
    "members": true,
    "release_date": "2016-01-07",
    "combat_level": 73,
    "size": 1,
    "hitpoints": 60,
    "max_hit": 11,
    "attack_type": [
        "crush",
        "ranged",
        "ranged"
    ],
    "attack_speed": 4,
    "aggressive": true,
    "poisonous": true,
    "immune_poison": true,
    "immune_venom": true,
    "weakness": [
        "stab"
    ],
    "slayer_monster": true,
    "slayer_level": 1,
    "slayer_xp": 60.0,
    "slayer_masters": [
        "chaeldar",
        "konar",
        "nieve",
        "duradel"
    ],
    "duplicate": false,
    "examine": "From a race created during the darker days of Kourend.",
    "wiki_name": "Lizardman brute (Standard)",
    "wiki_url": "https://oldschool.runescape.wiki/w/Lizardman_brute#Standard",
    "attack_level": 65,
    "strength_level": 65,
    "defence_level": 65,
    "magic_level": 1,
    "ranged_level": 1,
    "attack_stab": 0,
    "attack_slash": 0,
    "attack_crush": 0,
    "attack_magic": 0,
    "attack_ranged": 34,
    "defence_stab": -10,
    "defence_slash": 30,
    "defence_crush": 10,
    "defence_magic": 0,
    "defence_ranged": 0,
    "attack_accuracy": 34,
    "melee_strength": 30,
    "ranged_strength": 30,
    "magic_damage": 0,
    "drops": {
        "526": {
            "id": 526,
            "name": "Bones",
            "members": true,
            "quantity": "1",
            "noted": false,
            "rarity": "1/1",
            "drop_requirements": null
        },
        "13383": {
            "id": 13383,
            "name": "Xerician fabric",
            "members": true,
            "quantity": "1",
            "noted": false,
            "rarity": "8/67",
            "drop_requirements": null
        },
        "13391": {
            "id": 13391,
            "name": "Lizardman fang",
            "members": true,
            "quantity": "1",
            "noted": false,
            "rarity": "14/67",
            "drop_requirements": null
        },
        "13392": {
            "id": 13392,
            "name": "Xeric's talisman (inert)",
            "members": true,
            "quantity": "1",
            "noted": false,
            "rarity": "1/250",
            "drop_requirements": null
        },
        "23083": {
            "id": 23083,
            "name": "Brimstone key",
            "members": true,
            "quantity": "1",
            "noted": false,
            "rarity": "1/245.8",
            "drop_requirements": null
        }
    },
    "rare_drop_table": false
}