{
    "id": 701,
    "name": "Ice troll",
    "incomplete": false,
    "members": true,
    "release_date": "2005-01-05",
    "combat_level": 120,
    "size": 1,
    "hitpoints": 100,
    "max_hit": 21,
    "attack_type": [
        "crush"
    ],
    "attack_speed": 4,
    "aggressive": true,
    "poisonous": false,
    "immune_poison": false,
    "immune_venom": false,
    "weakness": [
        "crush",
        "stab",
        "magic"
    ],
    "slayer_monster": true,
    "slayer_level": 1,
    "slayer_xp": 129.0,
    "slayer_masters": [
        "vannaka",
        "chaeldar",
        "nieve",
        "duradel"
    ],
    "duplicate": false,
    "examine": "Brrrrr...he must be cold!",
    "wiki_name": "Ice troll (Lv 120)",
    "wiki_url": "https://oldschool.runescape.wiki/w/Ice_troll#Lv_120",
    "attack_level": 100,
    "strength_level": 100,
    "defence_level": 120,
    "magic_level": 1,
    "ranged_level": 1,
    "attack_stab": 0,
    "attack_slash": 0,
    "attack_crush": 0,
    "attack_magic": 0,
    "attack_ranged": 0,
    "defence_stab": 30,
    "defence_slash": 60,
    "defence_crush": 30,
    "defence_magic": 0,
    "defence_ranged": 0,
    "attack_accuracy": 60,
    "melee_strength": 60,
    "ranged_strength": 0,
    "magic_damage": 0,
    "drops": {
        "359": {
            "id": 359,
            "name": "Raw tuna",
            "members": true,
            "quantity": "4",
            "noted": false,
            "rarity": "2/128",
            "drop_requirements": null
        },
        "379": {
            "id": 379,
            "name": "Lobster",
            "members": true,
            "quantity": "6",
            "noted": true,
            "rarity": "3/128",
            "drop_requirements": null
        },
        "532": {
            "id": 532,
            "name": "Big bones",
            "members": true,
            "quantity": "1",
            "noted": false,
            "rarity": "1/1",
            "drop_requirements": null
        },
        "555": {
            "id": 555,
            "name": "Water rune",
            "members": true,
            "quantity": "65",
            "noted": false,
            "rarity": "1/128",
            "drop_requirements": null
        },
        "560": {
            "id": 560,
            "name": "Death rune",
            "members": true,
            "quantity": "15",
            "noted": false,
            "rarity": "1/128",
            "drop_requirements": null
        },
        "563": {
            "id": 563,
            "name": "Law rune",
            "members": true,
            "quantity": "4",
            "noted": false,
            "rarity": "3/128",
            "drop_requirements": null
        },
        "565": {
            "id": 565,
            "name": "Blood rune",
            "members": true,
            "quantity": "5",
            "noted": false,
            "rarity": "5/128",
            "drop_requirements": null
        },
        "617": {
            "id": 617,
            "name": "Coins",
            "members": true,
            "quantity": "20",
            "noted": false,
            "rarity": "4/128",
            "drop_requirements": null
        },
        "1121": {
            "id": 1121,
            "name": "Mithril platebody",
            "members": true,
            "quantity": "1",
            "noted": false,
            "rarity": "1/128",
            "drop_requirements": null
        },
        "1125": {
            "id": 1125,
            "name": "Black platebody",
            "members": true,
            "quantity": "1",
            "noted": false,
            "rarity": "4/128",
            "drop_requirements": null
        },
        "1199": {
            "id": 1199,
            "name": "Adamant kiteshield",
            "members": true,
            "quantity": "1",
            "noted": false,
            "rarity": "8/128",
            "drop_requirements": null
        },
        "1341": {
            "id": 1341,
            "name": "Black warhammer",
            "members": true,
            "quantity": "1",
            "noted": false,
            "rarity": "1/128",
            "drop_requirements": null
        },
        "1357": {
            "id": 1357,
            "name": "Adamant axe",
            "members": true,
            "quantity": "1",
            "noted": false,
            "rarity": "2/128",
            "drop_requirements": null
        },
        "1373": {
            "id": 1373,
            "name": "Rune battleaxe",
            "members": true,
            "quantity": "1",
            "noted": false,
            "rarity": "1/128",
            "drop_requirements": null
        },
        "10976": {
            "id": 10976,
            "name": "Long bone",
            "members": true,
            "quantity": "1",
            "noted": false,
            "rarity": "1/400",
            "drop_requirements": null
        },
        "10977": {
            "id": 10977,
            "name": "Curved bone",
            "members": true,
            "quantity": "1",
            "noted": false,
            "rarity": "1/5012.5",
            "drop_requirements": null
        },
        "13483": {
            "id": 13483,
            "name": "Ensouled troll head",
            "members": true,
            "quantity": "1",
            "noted": false,
            "rarity": "1/20",
            "drop_requirements": null
        }
    },
    "rare_drop_table": true
}