{
    "id": 7095,
    "name": "Tortured gorilla",
    "incomplete": true,
    "members": true,
    "release_date": "2016-05-06",
    "combat_level": 142,
    "size": 2,
    "hitpoints": 110,
    "max_hit": 29,
    "attack_type": [
        "crush"
    ],
    "attack_speed": 4,
    "aggressive": true,
    "poisonous": false,
    "immune_poison": false,
    "immune_venom": false,
    "weakness": [],
    "slayer_monster": false,
    "slayer_level": null,
    "slayer_xp": null,
    "slayer_masters": [],
    "duplicate": false,
    "examine": "One of Glough's tortured experiments.",
    "wiki_name": "Tortured gorilla (Lv 142)",
    "wiki_url": "https://oldschool.runescape.wiki/w/Tortured_gorilla#Lv_142",
    "attack_level": 180,
    "strength_level": 90,
    "defence_level": 110,
    "magic_level": 110,
    "ranged_level": 1,
    "attack_stab": 0,
    "attack_slash": 0,
    "attack_crush": 0,
    "attack_magic": 0,
    "attack_ranged": 0,
    "defence_stab": 0,
    "defence_slash": 0,
    "defence_crush": 0,
    "defence_magic": 0,
    "defence_ranged": 0,
    "attack_accuracy": 90,
    "melee_strength": 123,
    "ranged_strength": 0,
    "magic_damage": 0,
    "drops": {
        "143": {
            "id": 143,
            "name": "Prayer potion(1)",
            "members": true,
            "quantity": "1",
            "noted": false,
            "rarity": "1/32",
            "drop_requirements": null
        },
        "213": {
            "id": 213,
            "name": "Grimy kwuarm",
            "members": true,
            "quantity": "1",
            "noted": true,
            "rarity": "1/8",
            "drop_requirements": null
        },
        "215": {
            "id": 215,
            "name": "Grimy cadantine",
            "members": true,
            "quantity": "1",
            "noted": true,
            "rarity": "1/8",
            "drop_requirements": null
        },
        "217": {
            "id": 217,
            "name": "Grimy dwarf weed",
            "members": true,
            "quantity": "1",
            "noted": true,
            "rarity": "1/8",
            "drop_requirements": null
        },
        "385": {
            "id": 385,
            "name": "Shark",
            "members": true,
            "quantity": "1",
            "noted": false,
            "rarity": "1/32",
            "drop_requirements": null
        },
        "532": {
            "id": 532,
            "name": "Big bones",
            "members": true,
            "quantity": "1",
            "noted": false,
            "rarity": "1/1",
            "drop_requirements": null
        },
        "557": {
            "id": 557,
            "name": "Earth rune",
            "members": true,
            "quantity": "418-599",
            "noted": false,
            "rarity": "1/8",
            "drop_requirements": null
        },
        "560": {
            "id": 560,
            "name": "Death rune",
            "members": true,
            "quantity": "12-20",
            "noted": false,
            "rarity": "1/128",
            "drop_requirements": null
        },
        "564": {
            "id": 564,
            "name": "Cosmic rune",
            "members": true,
            "quantity": "22-30",
            "noted": false,
            "rarity": "1/8",
            "drop_requirements": null
        },
        "617": {
            "id": 617,
            "name": "Coins",
            "members": true,
            "quantity": "1171-1969",
            "noted": false,
            "rarity": "1/8",
            "drop_requirements": null
        },
        "1079": {
            "id": 1079,
            "name": "Rune platelegs",
            "members": true,
            "quantity": "1",
            "noted": false,
            "rarity": "1/128",
            "drop_requirements": null
        },
        "1093": {
            "id": 1093,
            "name": "Rune plateskirt",
            "members": true,
            "quantity": "1",
            "noted": false,
            "rarity": "1/128",
            "drop_requirements": null
        },
        "1147": {
            "id": 1147,
            "name": "Rune med helm",
            "members": true,
            "quantity": "1",
            "noted": false,
            "rarity": "1/32",
            "drop_requirements": null
        },
        "1333": {
            "id": 1333,
            "name": "Rune scimitar",
            "members": true,
            "quantity": "1",
            "noted": false,
            "rarity": "1/32",
            "drop_requirements": null
        },
        "1603": {
            "id": 1603,
            "name": "Ruby",
            "members": true,
            "quantity": "2-3",
            "noted": true,
            "rarity": "1/32",
            "drop_requirements": null
        },
        "2361": {
            "id": 2361,
            "name": "Adamantite bar",
            "members": true,
            "quantity": "1-2",
            "noted": true,
            "rarity": "1/32",
            "drop_requirements": null
        },
        "2722": {
            "id": 2722,
            "name": "Clue scroll (hard)",
            "members": true,
            "quantity": "1",
            "noted": false,
            "rarity": "1/300",
            "drop_requirements": null
        },
        "5288": {
            "id": 5288,
            "name": "Papaya tree seed",
            "members": true,
            "quantity": "1",
            "noted": false,
            "rarity": "1/128",
            "drop_requirements": null
        },
        "5289": {
            "id": 5289,
            "name": "Palm tree seed",
            "members": true,
            "quantity": "1",
            "noted": false,
            "rarity": "1/128",
            "drop_requirements": null
        },
        "5295": {
            "id": 5295,
            "name": "Ranarr seed",
            "members": true,
            "quantity": "1",
            "noted": false,
            "rarity": "1/128",
            "drop_requirements": null
        },
        "5300": {
            "id": 5300,
            "name": "Snapdragon seed",
            "members": true,
            "quantity": "1",
            "noted": false,
            "rarity": "1/128",
            "drop_requirements": null
        },
        "5304": {
            "id": 5304,
            "name": "Torstol seed",
            "members": true,
            "quantity": "1",
            "noted": false,
            "rarity": "1/128",
            "drop_requirements": null
        },
        "5313": {
            "id": 5313,
            "name": "Willow seed",
            "members": true,
            "quantity": "1",
            "noted": false,
            "rarity": "1/128",
            "drop_requirements": null
        },
        "5314": {
            "id": 5314,
            "name": "Maple seed",
            "members": true,
            "quantity": "1",
            "noted": false,
            "rarity": "1/128",
            "drop_requirements": null
        },
        "5315": {
            "id": 5315,
            "name": "Yew seed",
            "members": true,
            "quantity": "1",
            "noted": false,
            "rarity": "1/128",
            "drop_requirements": null
        },
        "5316": {
            "id": 5316,
            "name": "Magic seed",
            "members": true,
            "quantity": "1",
            "noted": false,
            "rarity": "1/128",
            "drop_requirements": null
        },
        "5317": {
            "id": 5317,
            "name": "Spirit seed",
            "members": true,
            "quantity": "1",
            "noted": false,
            "rarity": "1/512",
            "drop_requirements": null
        },
        "5321": {
            "id": 5321,
            "name": "Watermelon seed",
            "members": true,
            "quantity": "15",
            "noted": false,
            "rarity": "1/128",
            "drop_requirements": null
        },
        "9143": {
            "id": 9143,
            "name": "Adamant bolts",
            "members": true,
            "quantity": "1",
            "noted": false,
            "rarity": "1/8",
            "drop_requirements": null
        },
        "10976": {
            "id": 10976,
            "name": "Long bone",
            "members": true,
            "quantity": "1",
            "noted": false,
            "rarity": "1/400",
            "drop_requirements": null
        },
        "10977": {
            "id": 10977,
            "name": "Curved bone",
            "members": true,
            "quantity": "1",
            "noted": false,
            "rarity": "1/5012.5",
            "drop_requirements": null
        },
        "12073": {
            "id": 12073,
            "name": "Clue scroll (elite)",
            "members": true,
            "quantity": "1",
            "noted": false,
            "rarity": "1/1500",
            "drop_requirements": null
        },
        "19529": {
            "id": 19529,
            "name": "Zenyte shard",
            "members": true,
            "quantity": "1",
            "noted": false,
            "rarity": "1/3000",
            "drop_requirements": null
        },
        "19580": {
            "id": 19580,
            "name": "Rune javelin heads",
            "members": true,
            "quantity": "10",
            "noted": false,
            "rarity": "1/32",
            "drop_requirements": null
        },
        "19582": {
            "id": 19582,
            "name": "Dragon javelin heads",
            "members": true,
            "quantity": "5",
            "noted": false,
            "rarity": "1/128",
            "drop_requirements": null
        },
        "19584": {
            "id": 19584,
            "name": "Javelin shaft",
            "members": true,
            "quantity": "103-295",
            "noted": false,
            "rarity": "1/8",
            "drop_requirements": null
        },
        "19586": {
            "id": 19586,
            "name": "Light frame",
            "members": true,
            "quantity": "1",
            "noted": false,
            "rarity": "1/7500",
            "drop_requirements": null
        },
        "19589": {
            "id": 19589,
            "name": "Heavy frame",
            "members": true,
            "quantity": "1",
            "noted": false,
            "rarity": "1/15000",
            "drop_requirements": null
        },
        "19592": {
            "id": 19592,
            "name": "Ballista limbs",
            "members": true,
            "quantity": "1",
            "noted": false,
            "rarity": "1/5000",
            "drop_requirements": null
        },
        "19601": {
            "id": 19601,
            "name": "Ballista spring",
            "members": true,
            "quantity": "1",
            "noted": false,
            "rarity": "1/5000",
            "drop_requirements": null
        },
        "19610": {
            "id": 19610,
            "name": "Monkey tail",
            "members": true,
            "quantity": "1",
            "noted": false,
            "rarity": "1/15000",
            "drop_requirements": null
        },
        "21488": {
            "id": 21488,
            "name": "Mahogany seed",
            "members": true,
            "quantity": "1",
            "noted": false,
            "rarity": "1/128",
            "drop_requirements": null
        },
        "22877": {
            "id": 22877,
            "name": "Dragonfruit tree seed",
            "members": true,
            "quantity": "1",
            "noted": false,
            "rarity": "1/512",
            "drop_requirements": null
        }
    },
    "rare_drop_table": true
}