{
    "id": 713,
    "name": "Ice wolf",
    "incomplete": false,
    "members": true,
    "release_date": "2005-04-18",
    "combat_level": 132,
    "size": 2,
    "hitpoints": 70,
    "max_hit": 16,
    "attack_type": [
        "stab"
    ],
    "attack_speed": 4,
    "aggressive": true,
    "poisonous": false,
    "immune_poison": false,
    "immune_venom": false,
    "weakness": [
        "magic"
    ],
    "slayer_monster": true,
    "slayer_level": 1,
    "slayer_xp": 70.0,
    "slayer_masters": [
        "turael",
        "mazchna"
    ],
    "duplicate": true,
    "examine": "Not a man's best friend.",
    "wiki_name": "Ice wolf (Lv 132)",
    "wiki_url": "https://oldschool.runescape.wiki/w/Ice_wolf#Lv_132",
    "attack_level": 150,
    "strength_level": 150,
    "defence_level": 70,
    "magic_level": 0,
    "ranged_level": 0,
    "attack_stab": 0,
    "attack_slash": 0,
    "attack_crush": 0,
    "attack_magic": 0,
    "attack_ranged": 0,
    "defence_stab": 0,
    "defence_slash": 0,
    "defence_crush": 0,
    "defence_magic": 0,
    "defence_ranged": 0,
    "attack_accuracy": 0,
    "melee_strength": 0,
    "ranged_strength": 0,
    "magic_damage": 0,
    "drops": {
        "2859": {
            "id": 2859,
            "name": "Wolf bones",
            "members": true,
            "quantity": "1",
            "noted": false,
            "rarity": "1/1",
            "drop_requirements": null
        },
        "7830": {
            "id": 7830,
            "name": "Wolf bone",
            "members": true,
            "quantity": "1",
            "noted": false,
            "rarity": "1/4",
            "drop_requirements": null
        }
    },
    "rare_drop_table": false
}