{
    "id": 7144,
    "name": "Demonic gorilla",
    "incomplete": false,
    "members": true,
    "release_date": "2016-05-06",
    "combat_level": 275,
    "size": 2,
    "hitpoints": 380,
    "max_hit": 0,
    "attack_type": [
        "crush",
        "ranged",
        "ranged",
        "magic"
    ],
    "attack_speed": 5,
    "aggressive": true,
    "poisonous": false,
    "immune_poison": false,
    "immune_venom": false,
    "weakness": [
        "demonbane"
    ],
    "slayer_monster": true,
    "slayer_level": 1,
    "slayer_xp": 408.5,
    "slayer_masters": [
        "turael",
        "chaeldar",
        "duradel",
        "nieve"
    ],
    "duplicate": false,
    "examine": "One of Glough's demonic creations.",
    "wiki_name": "Demonic gorilla",
    "wiki_url": "https://oldschool.runescape.wiki/w/Demonic_gorilla",
    "attack_level": 205,
    "strength_level": 195,
    "defence_level": 200,
    "magic_level": 195,
    "ranged_level": 195,
    "attack_stab": 0,
    "attack_slash": 0,
    "attack_crush": 0,
    "attack_magic": 40,
    "attack_ranged": 43,
    "defence_stab": 0,
    "defence_slash": 0,
    "defence_crush": 0,
    "defence_magic": 50,
    "defence_ranged": 0,
    "attack_accuracy": 43,
    "melee_strength": 29,
    "ranged_strength": 29,
    "magic_damage": 0,
    "drops": {
        "139": {
            "id": 139,
            "name": "Prayer potion(3)",
            "members": true,
            "quantity": "2",
            "noted": false,
            "rarity": "40/500",
            "drop_requirements": null
        },
        "213": {
            "id": 213,
            "name": "Grimy kwuarm",
            "members": true,
            "quantity": "7-13",
            "noted": true,
            "rarity": "1/88.9",
            "drop_requirements": null
        },
        "215": {
            "id": 215,
            "name": "Grimy cadantine",
            "members": true,
            "quantity": "7-13",
            "noted": true,
            "rarity": "1/111.1",
            "drop_requirements": null
        },
        "217": {
            "id": 217,
            "name": "Grimy dwarf weed",
            "members": true,
            "quantity": "7-13",
            "noted": true,
            "rarity": "1/111.1",
            "drop_requirements": null
        },
        "385": {
            "id": 385,
            "name": "Shark",
            "members": true,
            "quantity": "2-3",
            "noted": false,
            "rarity": "35/500",
            "drop_requirements": null
        },
        "560": {
            "id": 560,
            "name": "Death rune",
            "members": true,
            "quantity": "50-75",
            "noted": false,
            "rarity": "35/500",
            "drop_requirements": null
        },
        "563": {
            "id": 563,
            "name": "Law rune",
            "members": true,
            "quantity": "50-75",
            "noted": false,
            "rarity": "35/500",
            "drop_requirements": null
        },
        "592": {
            "id": 592,
            "name": "Ashes",
            "members": true,
            "quantity": "1",
            "noted": false,
            "rarity": "1/1",
            "drop_requirements": null
        },
        "617": {
            "id": 617,
            "name": "Coins",
            "members": true,
            "quantity": "5000-10000",
            "noted": false,
            "rarity": "25/500",
            "drop_requirements": null
        },
        "1079": {
            "id": 1079,
            "name": "Rune platelegs",
            "members": true,
            "quantity": "1",
            "noted": false,
            "rarity": "35/500",
            "drop_requirements": null
        },
        "1093": {
            "id": 1093,
            "name": "Rune plateskirt",
            "members": true,
            "quantity": "1",
            "noted": false,
            "rarity": "35/500",
            "drop_requirements": null
        },
        "1113": {
            "id": 1113,
            "name": "Rune chainbody",
            "members": true,
            "quantity": "1",
            "noted": false,
            "rarity": "20/500",
            "drop_requirements": null
        },
        "1601": {
            "id": 1601,
            "name": "Diamond",
            "members": true,
            "quantity": "4-6",
            "noted": true,
            "rarity": "17/500",
            "drop_requirements": null
        },
        "2361": {
            "id": 2361,
            "name": "Adamantite bar",
            "members": true,
            "quantity": "6",
            "noted": true,
            "rarity": "20/500",
            "drop_requirements": null
        },
        "2363": {
            "id": 2363,
            "name": "Runite bar",
            "members": true,
            "quantity": "3",
            "noted": true,
            "rarity": "15/500",
            "drop_requirements": null
        },
        "2485": {
            "id": 2485,
            "name": "Grimy lantadyme",
            "members": true,
            "quantity": "7-13",
            "noted": true,
            "rarity": "1/148.1",
            "drop_requirements": null
        },
        "2722": {
            "id": 2722,
            "name": "Clue scroll (hard)",
            "members": true,
            "quantity": "1",
            "noted": false,
            "rarity": "1/100",
            "drop_requirements": null
        },
        "4587": {
            "id": 4587,
            "name": "Dragon scimitar",
            "members": true,
            "quantity": "1",
            "noted": false,
            "rarity": "10/500",
            "drop_requirements": null
        },
        "6689": {
            "id": 6689,
            "name": "Saradomin brew(2)",
            "members": true,
            "quantity": "1",
            "noted": false,
            "rarity": "25/500",
            "drop_requirements": null
        },
        "9144": {
            "id": 9144,
            "name": "Runite bolts",
            "members": true,
            "quantity": "100-150",
            "noted": false,
            "rarity": "25/500",
            "drop_requirements": null
        },
        "12073": {
            "id": 12073,
            "name": "Clue scroll (elite)",
            "members": true,
            "quantity": "1",
            "noted": false,
            "rarity": "1/500",
            "drop_requirements": null
        },
        "19529": {
            "id": 19529,
            "name": "Zenyte shard",
            "members": true,
            "quantity": "1",
            "noted": false,
            "rarity": "1/300",
            "drop_requirements": null
        },
        "19580": {
            "id": 19580,
            "name": "Rune javelin heads",
            "members": true,
            "quantity": "45-55",
            "noted": false,
            "rarity": "25/500",
            "drop_requirements": null
        },
        "19582": {
            "id": 19582,
            "name": "Dragon javelin heads",
            "members": true,
            "quantity": "27-33",
            "noted": false,
            "rarity": "25/500",
            "drop_requirements": null
        },
        "19584": {
            "id": 19584,
            "name": "Javelin shaft",
            "members": true,
            "quantity": "750-1250",
            "noted": false,
            "rarity": "25/500",
            "drop_requirements": null
        },
        "19586": {
            "id": 19586,
            "name": "Light frame",
            "members": true,
            "quantity": "1",
            "noted": false,
            "rarity": "1/750",
            "drop_requirements": null
        },
        "19589": {
            "id": 19589,
            "name": "Heavy frame",
            "members": true,
            "quantity": "1",
            "noted": false,
            "rarity": "1/1500",
            "drop_requirements": null
        },
        "19592": {
            "id": 19592,
            "name": "Ballista limbs",
            "members": true,
            "quantity": "1",
            "noted": false,
            "rarity": "1/500",
            "drop_requirements": null
        },
        "19601": {
            "id": 19601,
            "name": "Ballista spring",
            "members": true,
            "quantity": "1",
            "noted": false,
            "rarity": "1/500",
            "drop_requirements": null
        },
        "19610": {
            "id": 19610,
            "name": "Monkey tail",
            "members": true,
            "quantity": "1",
            "noted": false,
            "rarity": "1/1500",
            "drop_requirements": null
        }
    },
    "rare_drop_table": true
}