{
    "id": 7234,
    "name": "Ent",
    "incomplete": true,
    "members": true,
    "release_date": "2016-06-02",
    "combat_level": 86,
    "size": 2,
    "hitpoints": 75,
    "max_hit": 17,
    "attack_type": [
        "crush"
    ],
    "attack_speed": 4,
    "aggressive": true,
    "poisonous": false,
    "immune_poison": false,
    "immune_venom": true,
    "weakness": [
        "ranged",
        "magic"
    ],
    "slayer_monster": false,
    "slayer_level": null,
    "slayer_xp": null,
    "slayer_masters": [],
    "duplicate": false,
    "examine": "He ent such a bad guy.",
    "wiki_name": "Ent",
    "wiki_url": "https://oldschool.runescape.wiki/w/Ent",
    "attack_level": 75,
    "strength_level": 75,
    "defence_level": 75,
    "magic_level": 1,
    "ranged_level": 1,
    "attack_stab": 0,
    "attack_slash": 0,
    "attack_crush": 0,
    "attack_magic": 0,
    "attack_ranged": 0,
    "defence_stab": 50,
    "defence_slash": 70,
    "defence_crush": 70,
    "defence_magic": 40,
    "defence_ranged": 30,
    "attack_accuracy": 35,
    "melee_strength": 65,
    "ranged_strength": 0,
    "magic_damage": 0,
    "drops": {
        "1511": {
            "id": 1511,
            "name": "Logs",
            "members": true,
            "quantity": "1",
            "noted": true,
            "rarity": null,
            "drop_requirements": null
        },
        "1513": {
            "id": 1513,
            "name": "Magic logs",
            "members": true,
            "quantity": "2",
            "noted": true,
            "rarity": null,
            "drop_requirements": null
        },
        "1515": {
            "id": 1515,
            "name": "Yew logs",
            "members": true,
            "quantity": "2",
            "noted": true,
            "rarity": null,
            "drop_requirements": null
        },
        "1517": {
            "id": 1517,
            "name": "Maple logs",
            "members": true,
            "quantity": "2",
            "noted": true,
            "rarity": null,
            "drop_requirements": null
        },
        "1519": {
            "id": 1519,
            "name": "Willow logs",
            "members": true,
            "quantity": "2",
            "noted": true,
            "rarity": null,
            "drop_requirements": null
        },
        "1521": {
            "id": 1521,
            "name": "Oak logs",
            "members": true,
            "quantity": "2",
            "noted": true,
            "rarity": null,
            "drop_requirements": null
        },
        "11941": {
            "id": 11941,
            "name": "Looting bag",
            "members": true,
            "quantity": "1",
            "noted": false,
            "rarity": "1/3",
            "drop_requirements": null
        }
    },
    "rare_drop_table": false
}