{
    "id": 7254,
    "name": "Iron dragon",
    "incomplete": false,
    "members": true,
    "release_date": "2016-06-09",
    "combat_level": 215,
    "size": 4,
    "hitpoints": 195,
    "max_hit": 19,
    "attack_type": [
        "slash",
        "dragonfire"
    ],
    "attack_speed": 4,
    "aggressive": true,
    "poisonous": false,
    "immune_poison": false,
    "immune_venom": false,
    "weakness": [
        "stab",
        "magic",
        "dragonbane"
    ],
    "slayer_monster": true,
    "slayer_level": 1,
    "slayer_xp": 204.5,
    "slayer_masters": [
        "chaeldar",
        "konar",
        "nieve",
        "duradel"
    ],
    "duplicate": false,
    "examine": "Its scales seem to be made of iron.",
    "wiki_name": "Iron dragon (Catacombs of Kourend)",
    "wiki_url": "https://oldschool.runescape.wiki/w/Iron_dragon#Catacombs_of_Kourend",
    "attack_level": 185,
    "strength_level": 185,
    "defence_level": 185,
    "magic_level": 120,
    "ranged_level": 1,
    "attack_stab": 0,
    "attack_slash": 0,
    "attack_crush": 0,
    "attack_magic": 0,
    "attack_ranged": 0,
    "defence_stab": 50,
    "defence_slash": 70,
    "defence_crush": 70,
    "defence_magic": 30,
    "defence_ranged": 90,
    "attack_accuracy": 0,
    "melee_strength": 0,
    "ranged_strength": 0,
    "magic_damage": 0,
    "drops": {
        "161": {
            "id": 161,
            "name": "Super strength(1)",
            "members": true,
            "quantity": "1",
            "noted": false,
            "rarity": "8/128",
            "drop_requirements": null
        },
        "536": {
            "id": 536,
            "name": "Dragon bones",
            "members": true,
            "quantity": "1",
            "noted": false,
            "rarity": "1/1",
            "drop_requirements": null
        },
        "565": {
            "id": 565,
            "name": "Blood rune",
            "members": true,
            "quantity": "15",
            "noted": false,
            "rarity": "19/128",
            "drop_requirements": null
        },
        "566": {
            "id": 566,
            "name": "Soul rune",
            "members": true,
            "quantity": "3",
            "noted": false,
            "rarity": "5/128",
            "drop_requirements": null
        },
        "617": {
            "id": 617,
            "name": "Coins",
            "members": true,
            "quantity": "990",
            "noted": false,
            "rarity": "1/128",
            "drop_requirements": null
        },
        "817": {
            "id": 817,
            "name": "Rune dart(p)",
            "members": true,
            "quantity": "9",
            "noted": false,
            "rarity": "7/128",
            "drop_requirements": null
        },
        "830": {
            "id": 830,
            "name": "Rune javelin",
            "members": true,
            "quantity": "4",
            "noted": false,
            "rarity": "20/128",
            "drop_requirements": null
        },
        "868": {
            "id": 868,
            "name": "Rune knife",
            "members": true,
            "quantity": "5",
            "noted": false,
            "rarity": "3/128",
            "drop_requirements": null
        },
        "1147": {
            "id": 1147,
            "name": "Rune med helm",
            "members": true,
            "quantity": "1",
            "noted": false,
            "rarity": "1/128",
            "drop_requirements": null
        },
        "1183": {
            "id": 1183,
            "name": "Adamant sq shield",
            "members": true,
            "quantity": "1",
            "noted": false,
            "rarity": "1/128",
            "drop_requirements": null
        },
        "1317": {
            "id": 1317,
            "name": "Adamant 2h sword",
            "members": true,
            "quantity": "1",
            "noted": false,
            "rarity": "4/128",
            "drop_requirements": null
        },
        "1357": {
            "id": 1357,
            "name": "Adamant axe",
            "members": true,
            "quantity": "1",
            "noted": false,
            "rarity": "3/128",
            "drop_requirements": null
        },
        "1371": {
            "id": 1371,
            "name": "Adamant battleaxe",
            "members": true,
            "quantity": "1",
            "noted": false,
            "rarity": "3/128",
            "drop_requirements": null
        },
        "1373": {
            "id": 1373,
            "name": "Rune battleaxe",
            "members": true,
            "quantity": "1",
            "noted": false,
            "rarity": "1/128",
            "drop_requirements": null
        },
        "2011": {
            "id": 2011,
            "name": "Curry",
            "members": true,
            "quantity": "1",
            "noted": false,
            "rarity": "3/128",
            "drop_requirements": null
        },
        "2351": {
            "id": 2351,
            "name": "Iron bar",
            "members": true,
            "quantity": "5",
            "noted": false,
            "rarity": "1/1",
            "drop_requirements": null
        },
        "2361": {
            "id": 2361,
            "name": "Adamantite bar",
            "members": true,
            "quantity": "2",
            "noted": false,
            "rarity": "3/128",
            "drop_requirements": null
        },
        "2722": {
            "id": 2722,
            "name": "Clue scroll (hard)",
            "members": true,
            "quantity": "1",
            "noted": false,
            "rarity": "1/128",
            "drop_requirements": null
        },
        "4087": {
            "id": 4087,
            "name": "Dragon platelegs",
            "members": true,
            "quantity": "1",
            "noted": false,
            "rarity": "1/256",
            "drop_requirements": null
        },
        "4585": {
            "id": 4585,
            "name": "Dragon plateskirt",
            "members": true,
            "quantity": "1",
            "noted": false,
            "rarity": "1/256",
            "drop_requirements": null
        },
        "9143": {
            "id": 9143,
            "name": "Adamant bolts",
            "members": true,
            "quantity": "2-12",
            "noted": false,
            "rarity": "6/128",
            "drop_requirements": null
        },
        "9431": {
            "id": 9431,
            "name": "Runite limbs",
            "members": true,
            "quantity": "1",
            "noted": false,
            "rarity": "5/128",
            "drop_requirements": null
        },
        "11286": {
            "id": 11286,
            "name": "Draconic visage",
            "members": true,
            "quantity": "1",
            "noted": false,
            "rarity": "1/5000",
            "drop_requirements": null
        },
        "23083": {
            "id": 23083,
            "name": "Brimstone key",
            "members": true,
            "quantity": "1",
            "noted": false,
            "rarity": "1/82.2",
            "drop_requirements": null
        }
    },
    "rare_drop_table": true
}