{
    "id": 7288,
    "name": "Awakened Altar",
    "incomplete": true,
    "members": true,
    "release_date": "2016-06-16",
    "combat_level": 0,
    "size": 1,
    "hitpoints": 100,
    "max_hit": 0,
    "attack_type": [],
    "attack_speed": 0,
    "aggressive": false,
    "poisonous": false,
    "immune_poison": false,
    "immune_venom": false,
    "weakness": [],
    "slayer_monster": false,
    "slayer_level": null,
    "slayer_xp": null,
    "slayer_masters": [],
    "duplicate": false,
    "examine": "A power emanates from this structure.",
    "wiki_name": "Awakened Altar",
    "wiki_url": "https://oldschool.runescape.wiki/w/Awakened_Altar",
    "attack_level": 0,
    "strength_level": 0,
    "defence_level": 0,
    "magic_level": 0,
    "ranged_level": 0,
    "attack_stab": 0,
    "attack_slash": 0,
    "attack_crush": 0,
    "attack_magic": 0,
    "attack_ranged": 0,
    "defence_stab": 0,
    "defence_slash": 0,
    "defence_crush": 0,
    "defence_magic": 0,
    "defence_ranged": 0,
    "attack_accuracy": 0,
    "melee_strength": 0,
    "ranged_strength": 0,
    "magic_damage": 0,
    "drops": {},
    "rare_drop_table": false
}