{
    "id": 7310,
    "name": "Brassican Mage",
    "incomplete": true,
    "members": true,
    "release_date": "2016-07-06",
    "combat_level": 140,
    "size": 1,
    "hitpoints": 150,
    "max_hit": 16,
    "attack_type": [
        "typeless",
        "ranged",
        "ranged"
    ],
    "attack_speed": 3,
    "aggressive": true,
    "poisonous": false,
    "immune_poison": false,
    "immune_venom": false,
    "weakness": [
        "melee",
        "ranged"
    ],
    "slayer_monster": false,
    "slayer_level": null,
    "slayer_xp": null,
    "slayer_masters": [],
    "duplicate": false,
    "examine": "Rather old and smells of cabbage.",
    "wiki_name": "Brassican Mage",
    "wiki_url": "https://oldschool.runescape.wiki/w/Brassican_Mage",
    "attack_level": 80,
    "strength_level": 70,
    "defence_level": 80,
    "magic_level": 170,
    "ranged_level": 140,
    "attack_stab": 0,
    "attack_slash": 0,
    "attack_crush": 0,
    "attack_magic": 0,
    "attack_ranged": 0,
    "defence_stab": 0,
    "defence_slash": 0,
    "defence_crush": 0,
    "defence_magic": 0,
    "defence_ranged": 0,
    "attack_accuracy": 0,
    "melee_strength": 0,
    "ranged_strength": 0,
    "magic_damage": 0,
    "drops": {
        "199": {
            "id": 199,
            "name": "Grimy guam leaf",
            "members": true,
            "quantity": "1",
            "noted": false,
            "rarity": "1/32",
            "drop_requirements": null
        },
        "203": {
            "id": 203,
            "name": "Grimy tarromin",
            "members": true,
            "quantity": "1",
            "noted": false,
            "rarity": "1/32",
            "drop_requirements": null
        },
        "205": {
            "id": 205,
            "name": "Grimy harralander",
            "members": true,
            "quantity": "1",
            "noted": false,
            "rarity": "1/32",
            "drop_requirements": null
        },
        "211": {
            "id": 211,
            "name": "Grimy avantoe",
            "members": true,
            "quantity": "1",
            "noted": false,
            "rarity": "1/32",
            "drop_requirements": null
        },
        "526": {
            "id": 526,
            "name": "Bones",
            "members": true,
            "quantity": "1",
            "noted": false,
            "rarity": "1/1",
            "drop_requirements": null
        },
        "556": {
            "id": 556,
            "name": "Air rune",
            "members": true,
            "quantity": "5-24",
            "noted": false,
            "rarity": "1/8",
            "drop_requirements": null
        },
        "557": {
            "id": 557,
            "name": "Earth rune",
            "members": true,
            "quantity": "7-23",
            "noted": false,
            "rarity": "1/8",
            "drop_requirements": null
        },
        "560": {
            "id": 560,
            "name": "Death rune",
            "members": true,
            "quantity": "5-24",
            "noted": false,
            "rarity": "1/32",
            "drop_requirements": null
        },
        "617": {
            "id": 617,
            "name": "Coins",
            "members": true,
            "quantity": "51-244",
            "noted": false,
            "rarity": "1/8",
            "drop_requirements": null
        },
        "1385": {
            "id": 1385,
            "name": "Staff of earth",
            "members": true,
            "quantity": "1",
            "noted": false,
            "rarity": "1/32",
            "drop_requirements": null
        },
        "1399": {
            "id": 1399,
            "name": "Earth battlestaff",
            "members": true,
            "quantity": "1",
            "noted": false,
            "rarity": "1/32",
            "drop_requirements": null
        },
        "1607": {
            "id": 1607,
            "name": "Sapphire",
            "members": true,
            "quantity": "1",
            "noted": false,
            "rarity": "1/32",
            "drop_requirements": null
        },
        "1623": {
            "id": 1623,
            "name": "Uncut sapphire",
            "members": true,
            "quantity": "1",
            "noted": false,
            "rarity": "1/32",
            "drop_requirements": null
        },
        "1965": {
            "id": 1965,
            "name": "Cabbage",
            "members": true,
            "quantity": "11-18",
            "noted": false,
            "rarity": "1/8",
            "drop_requirements": null
        },
        "2434": {
            "id": 2434,
            "name": "Prayer potion(4)",
            "members": true,
            "quantity": "1",
            "noted": false,
            "rarity": "1/32",
            "drop_requirements": null
        },
        "5318": {
            "id": 5318,
            "name": "Potato seed",
            "members": true,
            "quantity": "1-4",
            "noted": false,
            "rarity": "1/8",
            "drop_requirements": null
        },
        "5319": {
            "id": 5319,
            "name": "Onion seed",
            "members": true,
            "quantity": "1-4",
            "noted": false,
            "rarity": "1/8",
            "drop_requirements": null
        },
        "5323": {
            "id": 5323,
            "name": "Strawberry seed",
            "members": true,
            "quantity": "1",
            "noted": false,
            "rarity": "1/32",
            "drop_requirements": null
        },
        "5324": {
            "id": 5324,
            "name": "Cabbage seed",
            "members": true,
            "quantity": "1-4",
            "noted": false,
            "rarity": "1/8",
            "drop_requirements": null
        },
        "7936": {
            "id": 7936,
            "name": "Pure essence",
            "members": true,
            "quantity": "25",
            "noted": true,
            "rarity": "1/8",
            "drop_requirements": null
        },
        "11941": {
            "id": 11941,
            "name": "Looting bag",
            "members": true,
            "quantity": "1",
            "noted": false,
            "rarity": "1/3",
            "drop_requirements": null
        }
    },
    "rare_drop_table": false
}