{
    "id": 735,
    "name": "Bandit",
    "incomplete": true,
    "members": true,
    "release_date": "2005-04-18",
    "combat_level": 56,
    "size": 1,
    "hitpoints": 30,
    "max_hit": 9,
    "attack_type": [
        "slash"
    ],
    "attack_speed": 4,
    "aggressive": false,
    "poisonous": false,
    "immune_poison": false,
    "immune_venom": false,
    "weakness": [
        "magic"
    ],
    "slayer_monster": false,
    "slayer_level": null,
    "slayer_xp": null,
    "slayer_masters": [],
    "duplicate": true,
    "examine": "Tough-looking.",
    "wiki_name": "Bandit (Pollnivneach) (No beard)",
    "wiki_url": "https://oldschool.runescape.wiki/w/Bandit_(Pollnivneach)#No_beard",
    "attack_level": 59,
    "strength_level": 70,
    "defence_level": 30,
    "magic_level": 1,
    "ranged_level": 1,
    "attack_stab": 0,
    "attack_slash": 0,
    "attack_crush": 0,
    "attack_magic": 0,
    "attack_ranged": 0,
    "defence_stab": 0,
    "defence_slash": 9,
    "defence_crush": 8,
    "defence_magic": 10,
    "defence_ranged": 0,
    "attack_accuracy": 9,
    "melee_strength": 9,
    "ranged_strength": 0,
    "magic_damage": 0,
    "drops": {
        "526": {
            "id": 526,
            "name": "Bones",
            "members": true,
            "quantity": "1",
            "noted": false,
            "rarity": "1/1",
            "drop_requirements": null
        },
        "617": {
            "id": 617,
            "name": "Coins",
            "members": true,
            "quantity": "50",
            "noted": false,
            "rarity": "1/1",
            "drop_requirements": null
        }
    },
    "rare_drop_table": false
}