{
    "id": 738,
    "name": "Bandit champion",
    "incomplete": true,
    "members": true,
    "release_date": "2005-04-04",
    "combat_level": 70,
    "size": 1,
    "hitpoints": 50,
    "max_hit": 10,
    "attack_type": [
        "slash"
    ],
    "attack_speed": 4,
    "aggressive": true,
    "poisonous": false,
    "immune_poison": false,
    "immune_venom": false,
    "weakness": [
        "ranged"
    ],
    "slayer_monster": false,
    "slayer_level": null,
    "slayer_xp": 0.0,
    "slayer_masters": [],
    "duplicate": false,
    "examine": "A very tough-looking bandit.",
    "wiki_name": "Bandit champion",
    "wiki_url": "https://oldschool.runescape.wiki/w/Bandit_champion",
    "attack_level": 59,
    "strength_level": 80,
    "defence_level": 50,
    "magic_level": 0,
    "ranged_level": 0,
    "attack_stab": 0,
    "attack_slash": 0,
    "attack_crush": 0,
    "attack_magic": 0,
    "attack_ranged": 0,
    "defence_stab": 9,
    "defence_slash": 8,
    "defence_crush": 10,
    "defence_magic": 0,
    "defence_ranged": 0,
    "attack_accuracy": 9,
    "melee_strength": 9,
    "ranged_strength": 0,
    "magic_damage": 0,
    "drops": {},
    "rare_drop_table": false
}