{
    "id": 7390,
    "name": "Screaming banshee",
    "incomplete": false,
    "members": true,
    "release_date": "2016-09-15",
    "combat_level": 70,
    "size": 3,
    "hitpoints": 61,
    "max_hit": 7,
    "attack_type": [
        "melee",
        "magic"
    ],
    "attack_speed": 4,
    "aggressive": false,
    "poisonous": false,
    "immune_poison": false,
    "immune_venom": false,
    "weakness": [
        "magic"
    ],
    "slayer_monster": true,
    "slayer_level": 15,
    "slayer_xp": 610.0,
    "slayer_masters": [
        "turael",
        "mazchna",
        "vannaka",
        "chaeldar"
    ],
    "duplicate": false,
    "examine": "Scream if you want to go faster.",
    "wiki_name": "Screaming banshee",
    "wiki_url": "https://oldschool.runescape.wiki/w/Screaming_banshee",
    "attack_level": 65,
    "strength_level": 61,
    "defence_level": 56,
    "magic_level": 1,
    "ranged_level": 1,
    "attack_stab": 0,
    "attack_slash": 0,
    "attack_crush": 0,
    "attack_magic": 0,
    "attack_ranged": 0,
    "defence_stab": 13,
    "defence_slash": 13,
    "defence_crush": 13,
    "defence_magic": 0,
    "defence_ranged": 13,
    "attack_accuracy": 0,
    "melee_strength": 0,
    "ranged_strength": 0,
    "magic_damage": 0,
    "drops": {
        "221": {
            "id": 221,
            "name": "Eye of newt",
            "members": true,
            "quantity": "1",
            "noted": false,
            "rarity": "1/128",
            "drop_requirements": null
        },
        "313": {
            "id": 313,
            "name": "Fishing bait",
            "members": true,
            "quantity": "7",
            "noted": false,
            "rarity": "5/128",
            "drop_requirements": null
        },
        "440": {
            "id": 440,
            "name": "Iron ore",
            "members": true,
            "quantity": "1",
            "noted": false,
            "rarity": "1/128",
            "drop_requirements": null
        },
        "554": {
            "id": 554,
            "name": "Fire rune",
            "members": true,
            "quantity": "7",
            "noted": false,
            "rarity": "1/128",
            "drop_requirements": null
        },
        "556": {
            "id": 556,
            "name": "Air rune",
            "members": true,
            "quantity": "3",
            "noted": false,
            "rarity": "3/128",
            "drop_requirements": null
        },
        "562": {
            "id": 562,
            "name": "Chaos rune",
            "members": true,
            "quantity": "7",
            "noted": false,
            "rarity": "1/128",
            "drop_requirements": null
        },
        "564": {
            "id": 564,
            "name": "Cosmic rune",
            "members": true,
            "quantity": "2",
            "noted": false,
            "rarity": "3/128",
            "drop_requirements": null
        },
        "617": {
            "id": 617,
            "name": "Coins",
            "members": true,
            "quantity": "35",
            "noted": false,
            "rarity": "8/128",
            "drop_requirements": null
        },
        "1191": {
            "id": 1191,
            "name": "Iron kiteshield",
            "members": true,
            "quantity": "1",
            "noted": false,
            "rarity": "1/128",
            "drop_requirements": null
        },
        "1203": {
            "id": 1203,
            "name": "Iron dagger",
            "members": true,
            "quantity": "1",
            "noted": false,
            "rarity": "2/128",
            "drop_requirements": null
        },
        "1420": {
            "id": 1420,
            "name": "Iron mace",
            "members": true,
            "quantity": "1",
            "noted": false,
            "rarity": "2/128",
            "drop_requirements": null
        },
        "2677": {
            "id": 2677,
            "name": "Clue scroll (easy)",
            "members": true,
            "quantity": "1",
            "noted": false,
            "rarity": "10/128",
            "drop_requirements": null
        },
        "4105": {
            "id": 4105,
            "name": "Mystic gloves (dark)",
            "members": true,
            "quantity": "1",
            "noted": false,
            "rarity": "1/512",
            "drop_requirements": null
        },
        "7936": {
            "id": 7936,
            "name": "Pure essence",
            "members": true,
            "quantity": "13",
            "noted": true,
            "rarity": "22/128",
            "drop_requirements": null
        }
    },
    "rare_drop_table": true
}