{
    "id": 7528,
    "name": "Vanguard",
    "incomplete": true,
    "members": true,
    "release_date": "2018-05-17",
    "combat_level": 0,
    "size": 3,
    "hitpoints": 225,
    "max_hit": 22,
    "attack_type": [
        "ranged",
        "ranged"
    ],
    "attack_speed": 4,
    "aggressive": true,
    "poisonous": false,
    "immune_poison": true,
    "immune_venom": true,
    "weakness": [
        "melee"
    ],
    "slayer_monster": false,
    "slayer_level": null,
    "slayer_xp": null,
    "slayer_masters": [],
    "duplicate": false,
    "examine": "Formerly a member of Xeric's elite tactical unit.",
    "wiki_name": "Vanguard (Ranged (Challenge Mode))",
    "wiki_url": "https://oldschool.runescape.wiki/w/Vanguard#Ranged_(Challenge_Mode)",
    "attack_level": 225,
    "strength_level": 225,
    "defence_level": 315,
    "magic_level": 225,
    "ranged_level": 225,
    "attack_stab": 0,
    "attack_slash": 0,
    "attack_crush": 0,
    "attack_magic": 0,
    "attack_ranged": 40,
    "defence_stab": 55,
    "defence_slash": 60,
    "defence_crush": 100,
    "defence_magic": 400,
    "defence_ranged": 300,
    "attack_accuracy": 0,
    "melee_strength": 0,
    "ranged_strength": 25,
    "magic_damage": 0,
    "drops": {
        "20895": {
            "id": 20895,
            "name": "Vanguard judgement",
            "members": true,
            "quantity": "1",
            "noted": false,
            "rarity": "1/1",
            "drop_requirements": null
        },
        "20924": {
            "id": 20924,
            "name": "Elder (+)(4)",
            "members": true,
            "quantity": "1",
            "noted": false,
            "rarity": "1/1",
            "drop_requirements": null
        },
        "20936": {
            "id": 20936,
            "name": "Twisted (+)(4)",
            "members": true,
            "quantity": "1",
            "noted": false,
            "rarity": "1/1",
            "drop_requirements": null
        },
        "20948": {
            "id": 20948,
            "name": "Kodai (+)(4)",
            "members": true,
            "quantity": "1",
            "noted": false,
            "rarity": "1/1",
            "drop_requirements": null
        },
        "20960": {
            "id": 20960,
            "name": "Revitalisation (+)(4)",
            "members": true,
            "quantity": "0-2",
            "noted": false,
            "rarity": null,
            "drop_requirements": null
        },
        "20972": {
            "id": 20972,
            "name": "Prayer enhance (+)(4)",
            "members": true,
            "quantity": "0-1",
            "noted": false,
            "rarity": null,
            "drop_requirements": null
        },
        "20984": {
            "id": 20984,
            "name": "Xeric's aid (+)(4)",
            "members": true,
            "quantity": "1-3",
            "noted": false,
            "rarity": null,
            "drop_requirements": null
        },
        "20996": {
            "id": 20996,
            "name": "Overload (+)(4)",
            "members": true,
            "quantity": "0-1",
            "noted": false,
            "rarity": null,
            "drop_requirements": null
        }
    },
    "rare_drop_table": false
}