{
    "id": 7542,
    "name": "Tekton",
    "incomplete": true,
    "members": true,
    "release_date": "2017-01-05",
    "combat_level": 0,
    "size": 4,
    "hitpoints": 300,
    "max_hit": 52,
    "attack_type": [
        "melee"
    ],
    "attack_speed": 3,
    "aggressive": true,
    "poisonous": false,
    "immune_poison": true,
    "immune_venom": true,
    "weakness": [
        "crush"
    ],
    "slayer_monster": false,
    "slayer_level": null,
    "slayer_xp": null,
    "slayer_masters": [],
    "duplicate": true,
    "examine": "Xeric's former artisan.",
    "wiki_name": "Tekton (Normal)",
    "wiki_url": "https://oldschool.runescape.wiki/w/Tekton#Normal",
    "attack_level": 390,
    "strength_level": 390,
    "defence_level": 205,
    "magic_level": 205,
    "ranged_level": 1,
    "attack_stab": 0,
    "attack_slash": 0,
    "attack_crush": 0,
    "attack_magic": 0,
    "attack_ranged": 0,
    "defence_stab": 155,
    "defence_slash": 165,
    "defence_crush": 105,
    "defence_magic": 0,
    "defence_ranged": 0,
    "attack_accuracy": 64,
    "melee_strength": 20,
    "ranged_strength": 0,
    "magic_damage": 0,
    "drops": {
        "6573": {
            "id": 6573,
            "name": "Onyx",
            "members": true,
            "quantity": "1",
            "noted": false,
            "rarity": null,
            "drop_requirements": null
        },
        "20890": {
            "id": 20890,
            "name": "Tekton's journal",
            "members": true,
            "quantity": "1",
            "noted": false,
            "rarity": "1/1",
            "drop_requirements": null
        },
        "20910": {
            "id": 20910,
            "name": "Stinkhorn mushroom",
            "members": true,
            "quantity": "5",
            "noted": false,
            "rarity": "1/1",
            "drop_requirements": null
        },
        "20924": {
            "id": 20924,
            "name": "Elder (+)(4)",
            "members": true,
            "quantity": "1-10",
            "noted": false,
            "rarity": null,
            "drop_requirements": null
        },
        "20936": {
            "id": 20936,
            "name": "Twisted (+)(4)",
            "members": true,
            "quantity": "1-10",
            "noted": false,
            "rarity": null,
            "drop_requirements": null
        },
        "20948": {
            "id": 20948,
            "name": "Kodai (+)(4)",
            "members": true,
            "quantity": "1-10",
            "noted": false,
            "rarity": null,
            "drop_requirements": null
        },
        "20960": {
            "id": 20960,
            "name": "Revitalisation (+)(4)",
            "members": true,
            "quantity": "1-10",
            "noted": false,
            "rarity": null,
            "drop_requirements": null
        },
        "20972": {
            "id": 20972,
            "name": "Prayer enhance (+)(4)",
            "members": true,
            "quantity": "1-10",
            "noted": false,
            "rarity": null,
            "drop_requirements": null
        },
        "20984": {
            "id": 20984,
            "name": "Xeric's aid (+)(4)",
            "members": true,
            "quantity": "1-10",
            "noted": false,
            "rarity": null,
            "drop_requirements": null
        },
        "20996": {
            "id": 20996,
            "name": "Overload (+)(4)",
            "members": true,
            "quantity": "1-10",
            "noted": false,
            "rarity": null,
            "drop_requirements": null
        }
    },
    "rare_drop_table": false
}