{
    "id": 7560,
    "name": "Deathly mage",
    "incomplete": true,
    "members": true,
    "release_date": null,
    "combat_level": 0,
    "size": 1,
    "hitpoints": 0,
    "max_hit": 0,
    "attack_type": [
        "magic"
    ],
    "attack_speed": 4,
    "aggressive": false,
    "poisonous": false,
    "immune_poison": true,
    "immune_venom": true,
    "weakness": [
        "ranged"
    ],
    "slayer_monster": false,
    "slayer_level": null,
    "slayer_xp": null,
    "slayer_masters": [],
    "duplicate": false,
    "examine": "They wouldn't enjoy the circus.",
    "wiki_name": "Deathly mage",
    "wiki_url": "https://oldschool.runescape.wiki/w/Deathly_mage",
    "attack_level": 1,
    "strength_level": 1,
    "defence_level": 0,
    "magic_level": 0,
    "ranged_level": 1,
    "attack_stab": 0,
    "attack_slash": 0,
    "attack_crush": 0,
    "attack_magic": 120,
    "attack_ranged": 0,
    "defence_stab": 0,
    "defence_slash": 0,
    "defence_crush": 0,
    "defence_magic": 0,
    "defence_ranged": 0,
    "attack_accuracy": 0,
    "melee_strength": 0,
    "ranged_strength": 0,
    "magic_damage": 0,
    "drops": {
        "526": {
            "id": 526,
            "name": "Bones",
            "members": true,
            "quantity": "1",
            "noted": false,
            "rarity": "1/1",
            "drop_requirements": null
        }
    },
    "rare_drop_table": false
}