{
    "id": 7658,
    "name": "Mummy",
    "incomplete": true,
    "members": true,
    "release_date": "2005-04-26",
    "combat_level": 84,
    "size": 1,
    "hitpoints": 68,
    "max_hit": 6,
    "attack_type": [
        "melee"
    ],
    "attack_speed": 4,
    "aggressive": true,
    "poisonous": false,
    "immune_poison": false,
    "immune_venom": false,
    "weakness": [],
    "slayer_monster": false,
    "slayer_level": null,
    "slayer_xp": null,
    "slayer_masters": [],
    "duplicate": true,
    "examine": "A wizened old warrior.",
    "wiki_name": "Mummy (Lv 84)",
    "wiki_url": "https://oldschool.runescape.wiki/w/Mummy#Lv_84",
    "attack_level": 0,
    "strength_level": 0,
    "defence_level": 0,
    "magic_level": 0,
    "ranged_level": 0,
    "attack_stab": 0,
    "attack_slash": 0,
    "attack_crush": 0,
    "attack_magic": 0,
    "attack_ranged": 0,
    "defence_stab": 0,
    "defence_slash": 0,
    "defence_crush": 0,
    "defence_magic": 0,
    "defence_ranged": 0,
    "attack_accuracy": 0,
    "melee_strength": 0,
    "ranged_strength": 0,
    "magic_damage": 0,
    "drops": {
        "405": {
            "id": 405,
            "name": "Casket",
            "members": true,
            "quantity": "1",
            "noted": false,
            "rarity": "3/513",
            "drop_requirements": null
        },
        "444": {
            "id": 444,
            "name": "Gold ore",
            "members": true,
            "quantity": "1",
            "noted": false,
            "rarity": "100/513",
            "drop_requirements": null
        },
        "526": {
            "id": 526,
            "name": "Bones",
            "members": true,
            "quantity": "1",
            "noted": false,
            "rarity": "1/1",
            "drop_requirements": null
        },
        "592": {
            "id": 592,
            "name": "Ashes",
            "members": true,
            "quantity": "1",
            "noted": false,
            "rarity": "1/1",
            "drop_requirements": null
        },
        "617": {
            "id": 617,
            "name": "Coins",
            "members": true,
            "quantity": "472",
            "noted": false,
            "rarity": "10/513",
            "drop_requirements": null
        },
        "970": {
            "id": 970,
            "name": "Papyrus",
            "members": true,
            "quantity": "1",
            "noted": false,
            "rarity": "44/513",
            "drop_requirements": null
        },
        "1185": {
            "id": 1185,
            "name": "Rune sq shield",
            "members": true,
            "quantity": "1",
            "noted": false,
            "rarity": "3/513",
            "drop_requirements": null
        },
        "1333": {
            "id": 1333,
            "name": "Rune scimitar",
            "members": true,
            "quantity": "1",
            "noted": false,
            "rarity": "3/513",
            "drop_requirements": null
        },
        "1635": {
            "id": 1635,
            "name": "Gold ring",
            "members": true,
            "quantity": "1",
            "noted": false,
            "rarity": "40/513",
            "drop_requirements": null
        },
        "1637": {
            "id": 1637,
            "name": "Sapphire ring",
            "members": true,
            "quantity": "1",
            "noted": false,
            "rarity": "10/513",
            "drop_requirements": null
        },
        "1639": {
            "id": 1639,
            "name": "Emerald ring",
            "members": true,
            "quantity": "1",
            "noted": false,
            "rarity": "10/513",
            "drop_requirements": null
        },
        "1654": {
            "id": 1654,
            "name": "Gold necklace",
            "members": true,
            "quantity": "1",
            "noted": false,
            "rarity": "20/513",
            "drop_requirements": null
        },
        "1656": {
            "id": 1656,
            "name": "Sapphire necklace",
            "members": true,
            "quantity": "1",
            "noted": false,
            "rarity": "10/513",
            "drop_requirements": null
        },
        "1673": {
            "id": 1673,
            "name": "Gold amulet (u)",
            "members": true,
            "quantity": "1",
            "noted": false,
            "rarity": "25/513",
            "drop_requirements": null
        },
        "1677": {
            "id": 1677,
            "name": "Emerald amulet (u)",
            "members": true,
            "quantity": "1",
            "noted": false,
            "rarity": "10/513",
            "drop_requirements": null
        },
        "1939": {
            "id": 1939,
            "name": "Swamp tar",
            "members": true,
            "quantity": "1",
            "noted": false,
            "rarity": "30/513",
            "drop_requirements": null
        },
        "2357": {
            "id": 2357,
            "name": "Gold bar",
            "members": true,
            "quantity": "1",
            "noted": false,
            "rarity": "20/513",
            "drop_requirements": null
        },
        "2566": {
            "id": 2566,
            "name": "Ring of dueling(1)",
            "members": true,
            "quantity": "1",
            "noted": false,
            "rarity": "10/513",
            "drop_requirements": null
        },
        "2801": {
            "id": 2801,
            "name": "Clue scroll (medium)",
            "members": true,
            "quantity": "1",
            "noted": false,
            "rarity": "1/513",
            "drop_requirements": null
        },
        "4675": {
            "id": 4675,
            "name": "Ancient staff",
            "members": true,
            "quantity": "1",
            "noted": false,
            "rarity": "1/513",
            "drop_requirements": null
        },
        "9032": {
            "id": 9032,
            "name": "Pottery scarab",
            "members": true,
            "quantity": "1",
            "noted": false,
            "rarity": "1/8",
            "drop_requirements": null
        }
    },
    "rare_drop_table": true
}