{
    "id": 7683,
    "name": "TzHaar-Hur",
    "incomplete": false,
    "members": true,
    "release_date": "2005-09-19",
    "combat_level": 74,
    "size": 1,
    "hitpoints": 80,
    "max_hit": 9,
    "attack_type": [
        "crush"
    ],
    "attack_speed": 5,
    "aggressive": false,
    "poisonous": false,
    "immune_poison": false,
    "immune_venom": false,
    "weakness": [
        "melee",
        "ranged"
    ],
    "slayer_monster": true,
    "slayer_level": 1,
    "slayer_xp": 80.0,
    "slayer_masters": [
        "chaeldar",
        "nieve",
        "duradel"
    ],
    "duplicate": true,
    "examine": "Looks like a craftsman of some kind.",
    "wiki_name": "TzHaar-Hur",
    "wiki_url": "https://oldschool.runescape.wiki/w/TzHaar-Hur",
    "attack_level": 60,
    "strength_level": 60,
    "defence_level": 60,
    "magic_level": 80,
    "ranged_level": 1,
    "attack_stab": 0,
    "attack_slash": 0,
    "attack_crush": 0,
    "attack_magic": 0,
    "attack_ranged": 0,
    "defence_stab": 0,
    "defence_slash": 0,
    "defence_crush": 0,
    "defence_magic": 0,
    "defence_ranged": 0,
    "attack_accuracy": 0,
    "melee_strength": 0,
    "ranged_strength": 0,
    "magic_damage": 0,
    "drops": {
        "946": {
            "id": 946,
            "name": "Knife",
            "members": true,
            "quantity": "1",
            "noted": false,
            "rarity": "1/8",
            "drop_requirements": null
        },
        "1617": {
            "id": 1617,
            "name": "Uncut diamond",
            "members": true,
            "quantity": "1",
            "noted": false,
            "rarity": null,
            "drop_requirements": null
        },
        "1619": {
            "id": 1619,
            "name": "Uncut ruby",
            "members": true,
            "quantity": "1",
            "noted": false,
            "rarity": null,
            "drop_requirements": null
        },
        "1621": {
            "id": 1621,
            "name": "Uncut emerald",
            "members": true,
            "quantity": "1",
            "noted": false,
            "rarity": null,
            "drop_requirements": null
        },
        "1623": {
            "id": 1623,
            "name": "Uncut sapphire",
            "members": true,
            "quantity": "1",
            "noted": false,
            "rarity": null,
            "drop_requirements": null
        },
        "1755": {
            "id": 1755,
            "name": "Chisel",
            "members": true,
            "quantity": "1",
            "noted": false,
            "rarity": "1/8",
            "drop_requirements": null
        },
        "1931": {
            "id": 1931,
            "name": "Pot",
            "members": true,
            "quantity": "1",
            "noted": false,
            "rarity": "1/8",
            "drop_requirements": null
        },
        "1935": {
            "id": 1935,
            "name": "Jug",
            "members": true,
            "quantity": "1",
            "noted": false,
            "rarity": "1/8",
            "drop_requirements": null
        },
        "2347": {
            "id": 2347,
            "name": "Hammer",
            "members": true,
            "quantity": "1",
            "noted": false,
            "rarity": "1/8",
            "drop_requirements": null
        },
        "6529": {
            "id": 6529,
            "name": "Tokkul",
            "members": true,
            "quantity": "3-14",
            "noted": false,
            "rarity": "1/8",
            "drop_requirements": null
        }
    },
    "rare_drop_table": false
}