{
    "id": 7704,
    "name": "JalTok-Jad",
    "incomplete": false,
    "members": true,
    "release_date": "2017-06-01",
    "combat_level": 900,
    "size": 5,
    "hitpoints": 350,
    "max_hit": 113,
    "attack_type": [
        "stab",
        "ranged",
        "ranged",
        "magic"
    ],
    "attack_speed": 8,
    "aggressive": true,
    "poisonous": false,
    "immune_poison": false,
    "immune_venom": true,
    "weakness": [
        "melee",
        "ranged"
    ],
    "slayer_monster": true,
    "slayer_level": 1,
    "slayer_xp": 350.0,
    "slayer_masters": [
        "chaeldar",
        "nieve",
        "duradel"
    ],
    "duplicate": true,
    "examine": "Large, destructive, enthralling.",
    "wiki_name": "JalTok-Jad",
    "wiki_url": "https://oldschool.runescape.wiki/w/JalTok-Jad",
    "attack_level": 750,
    "strength_level": 1020,
    "defence_level": 480,
    "magic_level": 510,
    "ranged_level": 1020,
    "attack_stab": 80,
    "attack_slash": 80,
    "attack_crush": 80,
    "attack_magic": 100,
    "attack_ranged": 80,
    "defence_stab": 0,
    "defence_slash": 0,
    "defence_crush": 0,
    "defence_magic": 0,
    "defence_ranged": 0,
    "attack_accuracy": 0,
    "melee_strength": 0,
    "ranged_strength": 0,
    "magic_damage": 75,
    "drops": {},
    "rare_drop_table": false
}