{
    "id": 7860,
    "name": "Porazdir",
    "incomplete": false,
    "members": true,
    "release_date": "2018-02-08",
    "combat_level": 235,
    "size": 3,
    "hitpoints": 320,
    "max_hit": 0,
    "attack_type": [
        "slash",
        "magic"
    ],
    "attack_speed": 6,
    "aggressive": false,
    "poisonous": false,
    "immune_poison": false,
    "immune_venom": false,
    "weakness": [],
    "slayer_monster": true,
    "slayer_level": 1,
    "slayer_xp": 376.0,
    "slayer_masters": [
        "krystilia",
        "chaeldar",
        "nieve",
        "duradel"
    ],
    "duplicate": false,
    "examine": "A rage-filled Zamorakian demon.",
    "wiki_name": "Porazdir",
    "wiki_url": "https://oldschool.runescape.wiki/w/Porazdir",
    "attack_level": 250,
    "strength_level": 150,
    "defence_level": 100,
    "magic_level": 180,
    "ranged_level": 1,
    "attack_stab": 0,
    "attack_slash": 0,
    "attack_crush": 0,
    "attack_magic": 80,
    "attack_ranged": 0,
    "defence_stab": 200,
    "defence_slash": 200,
    "defence_crush": 200,
    "defence_magic": -60,
    "defence_ranged": 200,
    "attack_accuracy": 0,
    "melee_strength": 0,
    "ranged_strength": 0,
    "magic_damage": 80,
    "drops": {
        "11941": {
            "id": 11941,
            "name": "Looting bag",
            "members": true,
            "quantity": "1",
            "noted": false,
            "rarity": "1/3",
            "drop_requirements": null
        },
        "21799": {
            "id": 21799,
            "name": "Demon's heart",
            "members": true,
            "quantity": "1",
            "noted": false,
            "rarity": "1/1",
            "drop_requirements": null
        }
    },
    "rare_drop_table": false
}