{
    "id": 7872,
    "name": "Greater demon",
    "incomplete": false,
    "members": true,
    "release_date": "2017-11-23",
    "combat_level": 104,
    "size": 3,
    "hitpoints": 120,
    "max_hit": 10,
    "attack_type": [
        "slash"
    ],
    "attack_speed": 4,
    "aggressive": true,
    "poisonous": false,
    "immune_poison": false,
    "immune_venom": false,
    "weakness": [
        "magic",
        "demonbane"
    ],
    "slayer_monster": true,
    "slayer_level": 1,
    "slayer_xp": 120.0,
    "slayer_masters": [
        "krystilia",
        "chaeldar",
        "konar",
        "nieve",
        "duradel"
    ],
    "duplicate": true,
    "examine": "Big, red, and incredibly evil.",
    "wiki_name": "Greater demon (Level 104)",
    "wiki_url": "https://oldschool.runescape.wiki/w/Greater_demon#Level_104",
    "attack_level": 76,
    "strength_level": 90,
    "defence_level": 81,
    "magic_level": 1,
    "ranged_level": 1,
    "attack_stab": 0,
    "attack_slash": 0,
    "attack_crush": 0,
    "attack_magic": 0,
    "attack_ranged": 0,
    "defence_stab": 0,
    "defence_slash": 0,
    "defence_crush": 0,
    "defence_magic": -10,
    "defence_ranged": 0,
    "attack_accuracy": 0,
    "melee_strength": 0,
    "ranged_strength": 0,
    "magic_damage": 0,
    "drops": {
        "361": {
            "id": 361,
            "name": "Tuna",
            "members": true,
            "quantity": "1",
            "noted": false,
            "rarity": "3/128",
            "drop_requirements": null
        },
        "385": {
            "id": 385,
            "name": "Shark",
            "members": true,
            "quantity": "1",
            "noted": false,
            "rarity": "2/128",
            "drop_requirements": null
        },
        "444": {
            "id": 444,
            "name": "Gold ore",
            "members": true,
            "quantity": "10",
            "noted": true,
            "rarity": "1/128",
            "drop_requirements": null
        },
        "554": {
            "id": 554,
            "name": "Fire rune",
            "members": true,
            "quantity": "37",
            "noted": false,
            "rarity": "1/128",
            "drop_requirements": null
        },
        "560": {
            "id": 560,
            "name": "Death rune",
            "members": true,
            "quantity": "15",
            "noted": false,
            "rarity": "2/128",
            "drop_requirements": null
        },
        "562": {
            "id": 562,
            "name": "Chaos rune",
            "members": true,
            "quantity": "40",
            "noted": false,
            "rarity": "5/128",
            "drop_requirements": null
        },
        "565": {
            "id": 565,
            "name": "Blood rune",
            "members": true,
            "quantity": "20",
            "noted": false,
            "rarity": "1/128",
            "drop_requirements": null
        },
        "592": {
            "id": 592,
            "name": "Ashes",
            "members": true,
            "quantity": "1",
            "noted": false,
            "rarity": "1/1",
            "drop_requirements": null
        },
        "617": {
            "id": 617,
            "name": "Coins",
            "members": true,
            "quantity": "500-999",
            "noted": false,
            "rarity": "1/128",
            "drop_requirements": null
        },
        "1073": {
            "id": 1073,
            "name": "Adamant platelegs",
            "members": true,
            "quantity": "1",
            "noted": false,
            "rarity": "1/128",
            "drop_requirements": null
        },
        "1163": {
            "id": 1163,
            "name": "Rune full helm",
            "members": true,
            "quantity": "1",
            "noted": false,
            "rarity": "1/128",
            "drop_requirements": null
        },
        "1197": {
            "id": 1197,
            "name": "Mithril kiteshield",
            "members": true,
            "quantity": "1",
            "noted": false,
            "rarity": "1/128",
            "drop_requirements": null
        },
        "1199": {
            "id": 1199,
            "name": "Adamant kiteshield",
            "members": true,
            "quantity": "1",
            "noted": false,
            "rarity": "1/128",
            "drop_requirements": null
        },
        "1311": {
            "id": 1311,
            "name": "Steel 2h sword",
            "members": true,
            "quantity": "1",
            "noted": false,
            "rarity": "4/128",
            "drop_requirements": null
        },
        "1317": {
            "id": 1317,
            "name": "Adamant 2h sword",
            "members": true,
            "quantity": "1",
            "noted": false,
            "rarity": "4/128",
            "drop_requirements": null
        },
        "1353": {
            "id": 1353,
            "name": "Steel axe",
            "members": true,
            "quantity": "1",
            "noted": false,
            "rarity": "3/128",
            "drop_requirements": null
        },
        "1357": {
            "id": 1357,
            "name": "Adamant axe",
            "members": true,
            "quantity": "1",
            "noted": false,
            "rarity": "3/128",
            "drop_requirements": null
        },
        "1365": {
            "id": 1365,
            "name": "Steel battleaxe",
            "members": true,
            "quantity": "1",
            "noted": false,
            "rarity": "3/128",
            "drop_requirements": null
        },
        "1371": {
            "id": 1371,
            "name": "Adamant battleaxe",
            "members": true,
            "quantity": "1",
            "noted": false,
            "rarity": "2/128",
            "drop_requirements": null
        },
        "1734": {
            "id": 1734,
            "name": "Thread",
            "members": true,
            "quantity": "10",
            "noted": false,
            "rarity": "1/128",
            "drop_requirements": null
        },
        "2357": {
            "id": 2357,
            "name": "Gold bar",
            "members": true,
            "quantity": "10",
            "noted": true,
            "rarity": "3/128",
            "drop_requirements": null
        },
        "2722": {
            "id": 2722,
            "name": "Clue scroll (hard)",
            "members": true,
            "quantity": "1",
            "noted": false,
            "rarity": "1/128",
            "drop_requirements": null
        },
        "7946": {
            "id": 7946,
            "name": "Monkfish",
            "members": true,
            "quantity": "1",
            "noted": false,
            "rarity": "1/128",
            "drop_requirements": null
        },
        "11941": {
            "id": 11941,
            "name": "Looting bag",
            "members": true,
            "quantity": "1",
            "noted": false,
            "rarity": "1/3",
            "drop_requirements": null
        },
        "13501": {
            "id": 13501,
            "name": "Ensouled demon head",
            "members": true,
            "quantity": "1",
            "noted": false,
            "rarity": "1/40",
            "drop_requirements": null
        },
        "23083": {
            "id": 23083,
            "name": "Brimstone key",
            "members": true,
            "quantity": "1",
            "noted": false,
            "rarity": "1/97.4",
            "drop_requirements": null
        }
    },
    "rare_drop_table": true
}