{
    "id": 788,
    "name": "Suqah",
    "incomplete": false,
    "members": true,
    "release_date": "2006-07-24",
    "combat_level": 111,
    "size": 2,
    "hitpoints": 106,
    "max_hit": 10,
    "attack_type": [
        "stab",
        "magic"
    ],
    "attack_speed": 6,
    "aggressive": true,
    "poisonous": false,
    "immune_poison": false,
    "immune_venom": false,
    "weakness": [
        "stab",
        "ranged"
    ],
    "slayer_monster": true,
    "slayer_level": 1,
    "slayer_xp": 107.5,
    "slayer_masters": [
        "nieve",
        "duradel"
    ],
    "duplicate": true,
    "examine": "A strange creature unique to Lunar Isle.",
    "wiki_name": "Suqah",
    "wiki_url": "https://oldschool.runescape.wiki/w/Suqah",
    "attack_level": 95,
    "strength_level": 95,
    "defence_level": 95,
    "magic_level": 1,
    "ranged_level": 1,
    "attack_stab": 0,
    "attack_slash": 0,
    "attack_crush": 0,
    "attack_magic": 0,
    "attack_ranged": 0,
    "defence_stab": 50,
    "defence_slash": 70,
    "defence_crush": 70,
    "defence_magic": 90,
    "defence_ranged": 50,
    "attack_accuracy": 0,
    "melee_strength": 0,
    "ranged_strength": 0,
    "magic_damage": 0,
    "drops": {
        "199": {
            "id": 199,
            "name": "Grimy guam leaf",
            "members": true,
            "quantity": "1",
            "noted": false,
            "rarity": "30/129",
            "drop_requirements": null
        },
        "201": {
            "id": 201,
            "name": "Grimy marrentill",
            "members": true,
            "quantity": "1",
            "noted": false,
            "rarity": "25/129",
            "drop_requirements": null
        },
        "532": {
            "id": 532,
            "name": "Big bones",
            "members": true,
            "quantity": "1",
            "noted": false,
            "rarity": "1/1",
            "drop_requirements": null
        },
        "2722": {
            "id": 2722,
            "name": "Clue scroll (hard)",
            "members": true,
            "quantity": "1",
            "noted": false,
            "rarity": "1/129",
            "drop_requirements": null
        },
        "9079": {
            "id": 9079,
            "name": "Suqah tooth",
            "members": true,
            "quantity": "1",
            "noted": false,
            "rarity": "69/129",
            "drop_requirements": null
        },
        "9080": {
            "id": 9080,
            "name": "Suqah hide",
            "members": true,
            "quantity": "1",
            "noted": false,
            "rarity": "1/1",
            "drop_requirements": null
        },
        "9103": {
            "id": 9103,
            "name": "A special tiara",
            "members": true,
            "quantity": "1",
            "noted": false,
            "rarity": "1/8",
            "drop_requirements": null
        },
        "10976": {
            "id": 10976,
            "name": "Long bone",
            "members": true,
            "quantity": "1",
            "noted": false,
            "rarity": "1/400",
            "drop_requirements": null
        },
        "10977": {
            "id": 10977,
            "name": "Curved bone",
            "members": true,
            "quantity": "1",
            "noted": false,
            "rarity": "1/5012.5",
            "drop_requirements": null
        }
    },
    "rare_drop_table": true
}