{
    "id": 800,
    "name": "Locust rider",
    "incomplete": false,
    "members": true,
    "release_date": "2007-01-10",
    "combat_level": 68,
    "size": 2,
    "hitpoints": 90,
    "max_hit": 15,
    "attack_type": [
        "crush"
    ],
    "attack_speed": 6,
    "aggressive": true,
    "poisonous": false,
    "immune_poison": false,
    "immune_venom": false,
    "weakness": [
        "crush",
        "magic",
        "keris"
    ],
    "slayer_monster": true,
    "slayer_level": 1,
    "slayer_xp": 92.5,
    "slayer_masters": [
        "nieve"
    ],
    "duplicate": false,
    "examine": "A mounted scarab.",
    "wiki_name": "Locust rider (Lancer (Quest))",
    "wiki_url": "https://oldschool.runescape.wiki/w/Locust_rider#Lancer_(Quest)",
    "attack_level": 100,
    "strength_level": 90,
    "defence_level": 90,
    "magic_level": 1,
    "ranged_level": 1,
    "attack_stab": 0,
    "attack_slash": 0,
    "attack_crush": 0,
    "attack_magic": 0,
    "attack_ranged": 0,
    "defence_stab": 90,
    "defence_slash": 90,
    "defence_crush": 40,
    "defence_magic": 0,
    "defence_ranged": 0,
    "attack_accuracy": 0,
    "melee_strength": 0,
    "ranged_strength": 0,
    "magic_damage": 0,
    "drops": {
        "199": {
            "id": 199,
            "name": "Grimy guam leaf",
            "members": true,
            "quantity": "1",
            "noted": false,
            "rarity": "1/8",
            "drop_requirements": null
        },
        "201": {
            "id": 201,
            "name": "Grimy marrentill",
            "members": true,
            "quantity": "1",
            "noted": false,
            "rarity": "1/8",
            "drop_requirements": null
        },
        "203": {
            "id": 203,
            "name": "Grimy tarromin",
            "members": true,
            "quantity": "1",
            "noted": false,
            "rarity": "1/8",
            "drop_requirements": null
        },
        "205": {
            "id": 205,
            "name": "Grimy harralander",
            "members": true,
            "quantity": "1",
            "noted": false,
            "rarity": "1/8",
            "drop_requirements": null
        },
        "207": {
            "id": 207,
            "name": "Grimy ranarr weed",
            "members": true,
            "quantity": "1",
            "noted": false,
            "rarity": "1/32",
            "drop_requirements": null
        },
        "209": {
            "id": 209,
            "name": "Grimy irit leaf",
            "members": true,
            "quantity": "1",
            "noted": false,
            "rarity": "1/32",
            "drop_requirements": null
        },
        "211": {
            "id": 211,
            "name": "Grimy avantoe",
            "members": true,
            "quantity": "1",
            "noted": false,
            "rarity": "1/32",
            "drop_requirements": null
        },
        "213": {
            "id": 213,
            "name": "Grimy kwuarm",
            "members": true,
            "quantity": "1",
            "noted": false,
            "rarity": "1/32",
            "drop_requirements": null
        },
        "215": {
            "id": 215,
            "name": "Grimy cadantine",
            "members": true,
            "quantity": "1",
            "noted": false,
            "rarity": "1/128",
            "drop_requirements": null
        },
        "217": {
            "id": 217,
            "name": "Grimy dwarf weed",
            "members": true,
            "quantity": "1",
            "noted": false,
            "rarity": "1/128",
            "drop_requirements": null
        },
        "363": {
            "id": 363,
            "name": "Raw bass",
            "members": true,
            "quantity": "24",
            "noted": true,
            "rarity": "1/32",
            "drop_requirements": null
        },
        "365": {
            "id": 365,
            "name": "Bass",
            "members": true,
            "quantity": "6",
            "noted": false,
            "rarity": "1/32",
            "drop_requirements": null
        },
        "377": {
            "id": 377,
            "name": "Raw lobster",
            "members": true,
            "quantity": "15",
            "noted": true,
            "rarity": "1/8",
            "drop_requirements": null
        },
        "379": {
            "id": 379,
            "name": "Lobster",
            "members": true,
            "quantity": "5",
            "noted": false,
            "rarity": "1/32",
            "drop_requirements": null
        },
        "449": {
            "id": 449,
            "name": "Adamantite ore",
            "members": true,
            "quantity": "14",
            "noted": true,
            "rarity": "1/32",
            "drop_requirements": null
        },
        "453": {
            "id": 453,
            "name": "Coal",
            "members": true,
            "quantity": "32",
            "noted": true,
            "rarity": "1/32",
            "drop_requirements": null
        },
        "526": {
            "id": 526,
            "name": "Bones",
            "members": true,
            "quantity": "1",
            "noted": false,
            "rarity": "1/1",
            "drop_requirements": null
        },
        "554": {
            "id": 554,
            "name": "Fire rune",
            "members": true,
            "quantity": "250",
            "noted": false,
            "rarity": "1/32",
            "drop_requirements": null
        },
        "560": {
            "id": 560,
            "name": "Death rune",
            "members": true,
            "quantity": "45",
            "noted": false,
            "rarity": "1/32",
            "drop_requirements": null
        },
        "564": {
            "id": 564,
            "name": "Cosmic rune",
            "members": true,
            "quantity": "35",
            "noted": false,
            "rarity": "1/32",
            "drop_requirements": null
        },
        "565": {
            "id": 565,
            "name": "Blood rune",
            "members": true,
            "quantity": "18",
            "noted": false,
            "rarity": "1/32",
            "drop_requirements": null
        },
        "617": {
            "id": 617,
            "name": "Coins",
            "members": true,
            "quantity": "2054-2994",
            "noted": false,
            "rarity": "1/8",
            "drop_requirements": null
        },
        "890": {
            "id": 890,
            "name": "Adamant arrow",
            "members": true,
            "quantity": "36",
            "noted": false,
            "rarity": "1/32",
            "drop_requirements": null
        },
        "892": {
            "id": 892,
            "name": "Rune arrow",
            "members": true,
            "quantity": "18",
            "noted": false,
            "rarity": "1/32",
            "drop_requirements": null
        },
        "1185": {
            "id": 1185,
            "name": "Rune sq shield",
            "members": true,
            "quantity": "1",
            "noted": false,
            "rarity": "1/128",
            "drop_requirements": null
        },
        "1199": {
            "id": 1199,
            "name": "Adamant kiteshield",
            "members": true,
            "quantity": "1",
            "noted": false,
            "rarity": "1/32",
            "drop_requirements": null
        },
        "1213": {
            "id": 1213,
            "name": "Rune dagger",
            "members": true,
            "quantity": "1",
            "noted": false,
            "rarity": "1/128",
            "drop_requirements": null
        },
        "1391": {
            "id": 1391,
            "name": "Battlestaff",
            "members": true,
            "quantity": "3",
            "noted": true,
            "rarity": "1/32",
            "drop_requirements": null
        },
        "1432": {
            "id": 1432,
            "name": "Rune mace",
            "members": true,
            "quantity": "1",
            "noted": false,
            "rarity": "1/128",
            "drop_requirements": null
        },
        "1623": {
            "id": 1623,
            "name": "Uncut sapphire",
            "members": true,
            "quantity": "4",
            "noted": true,
            "rarity": "1/32",
            "drop_requirements": null
        },
        "1823": {
            "id": 1823,
            "name": "Waterskin(4)",
            "members": true,
            "quantity": "1",
            "noted": false,
            "rarity": "1/32",
            "drop_requirements": null
        },
        "2359": {
            "id": 2359,
            "name": "Mithril bar",
            "members": true,
            "quantity": "22",
            "noted": true,
            "rarity": "1/32",
            "drop_requirements": null
        },
        "2485": {
            "id": 2485,
            "name": "Grimy lantadyme",
            "members": true,
            "quantity": "1",
            "noted": false,
            "rarity": "1/128",
            "drop_requirements": null
        },
        "4699": {
            "id": 4699,
            "name": "Lava rune",
            "members": true,
            "quantity": "150",
            "noted": false,
            "rarity": "1/32",
            "drop_requirements": null
        },
        "5297": {
            "id": 5297,
            "name": "Irit seed",
            "members": true,
            "quantity": "1",
            "noted": false,
            "rarity": "1/128",
            "drop_requirements": null
        },
        "5298": {
            "id": 5298,
            "name": "Avantoe seed",
            "members": true,
            "quantity": "1",
            "noted": false,
            "rarity": "1/128",
            "drop_requirements": null
        },
        "5299": {
            "id": 5299,
            "name": "Kwuarm seed",
            "members": true,
            "quantity": "1",
            "noted": false,
            "rarity": "1/128",
            "drop_requirements": null
        },
        "5300": {
            "id": 5300,
            "name": "Snapdragon seed",
            "members": true,
            "quantity": "1",
            "noted": false,
            "rarity": "1/128",
            "drop_requirements": null
        },
        "9735": {
            "id": 9735,
            "name": "Desert goat horn",
            "members": true,
            "quantity": "6",
            "noted": true,
            "rarity": "1/32",
            "drop_requirements": null
        },
        "10143": {
            "id": 10143,
            "name": "Marrentill tar",
            "members": true,
            "quantity": "80",
            "noted": false,
            "rarity": "1/32",
            "drop_requirements": null
        }
    },
    "rare_drop_table": true
}