{
    "id": 8000,
    "name": "Corrupt Lizardman",
    "incomplete": false,
    "members": true,
    "release_date": "2018-04-19",
    "combat_level": 46,
    "size": 1,
    "hitpoints": 50,
    "max_hit": 6,
    "attack_type": [
        "crush",
        "ranged",
        "ranged"
    ],
    "attack_speed": 4,
    "aggressive": true,
    "poisonous": true,
    "immune_poison": false,
    "immune_venom": false,
    "weakness": [
        "stab"
    ],
    "slayer_monster": true,
    "slayer_level": 1,
    "slayer_xp": 50.0,
    "slayer_masters": [
        "chaeldar",
        "nieve",
        "duradel"
    ],
    "duplicate": true,
    "examine": "Looks like there's something wrong with it.",
    "wiki_name": "Corrupt Lizardman (Normal)",
    "wiki_url": "https://oldschool.runescape.wiki/w/Corrupt_Lizardman#Normal",
    "attack_level": 38,
    "strength_level": 38,
    "defence_level": 38,
    "magic_level": 1,
    "ranged_level": 38,
    "attack_stab": 0,
    "attack_slash": 0,
    "attack_crush": 0,
    "attack_magic": 0,
    "attack_ranged": 20,
    "defence_stab": -10,
    "defence_slash": 25,
    "defence_crush": 0,
    "defence_magic": 0,
    "defence_ranged": 0,
    "attack_accuracy": 22,
    "melee_strength": 20,
    "ranged_strength": 20,
    "magic_damage": 0,
    "drops": {
        "526": {
            "id": 526,
            "name": "Bones",
            "members": true,
            "quantity": "1",
            "noted": false,
            "rarity": "1/1",
            "drop_requirements": null
        },
        "13383": {
            "id": 13383,
            "name": "Xerician fabric",
            "members": true,
            "quantity": "3",
            "noted": false,
            "rarity": "1/1",
            "drop_requirements": null
        }
    },
    "rare_drop_table": false
}