{
    "id": 8030,
    "name": "Adamant dragon",
    "incomplete": false,
    "members": true,
    "release_date": "2018-01-04",
    "combat_level": 338,
    "size": 5,
    "hitpoints": 295,
    "max_hit": 29,
    "attack_type": [
        "melee",
        "dragonfire",
        "ranged",
        "ranged"
    ],
    "attack_speed": 4,
    "aggressive": true,
    "poisonous": false,
    "immune_poison": true,
    "immune_venom": true,
    "weakness": [
        "stab",
        "dragonbane"
    ],
    "slayer_monster": true,
    "slayer_level": 1,
    "slayer_xp": 324.5,
    "slayer_masters": [
        "konar",
        "nieve",
        "duradel"
    ],
    "duplicate": false,
    "examine": "Its scales seem to be made of adamantite.",
    "wiki_name": "Adamant dragon",
    "wiki_url": "https://oldschool.runescape.wiki/w/Adamant_dragon",
    "attack_level": 280,
    "strength_level": 280,
    "defence_level": 272,
    "magic_level": 186,
    "ranged_level": 186,
    "attack_stab": 0,
    "attack_slash": 0,
    "attack_crush": 0,
    "attack_magic": 0,
    "attack_ranged": 0,
    "defence_stab": 30,
    "defence_slash": 110,
    "defence_crush": 85,
    "defence_magic": 30,
    "defence_ranged": 95,
    "attack_accuracy": 0,
    "melee_strength": 0,
    "ranged_strength": 0,
    "magic_damage": 0,
    "drops": {
        "449": {
            "id": 449,
            "name": "Adamantite ore",
            "members": true,
            "quantity": "8-20",
            "noted": true,
            "rarity": "6/110",
            "drop_requirements": null
        },
        "536": {
            "id": 536,
            "name": "Dragon bones",
            "members": true,
            "quantity": "1",
            "noted": false,
            "rarity": "1/1",
            "drop_requirements": null
        },
        "560": {
            "id": 560,
            "name": "Death rune",
            "members": true,
            "quantity": "30-60",
            "noted": false,
            "rarity": "7/110",
            "drop_requirements": null
        },
        "562": {
            "id": 562,
            "name": "Chaos rune",
            "members": true,
            "quantity": "60-120",
            "noted": false,
            "rarity": "7/110",
            "drop_requirements": null
        },
        "890": {
            "id": 890,
            "name": "Adamant arrow",
            "members": true,
            "quantity": "30-40",
            "noted": false,
            "rarity": "8/110",
            "drop_requirements": null
        },
        "1123": {
            "id": 1123,
            "name": "Adamant platebody",
            "members": true,
            "quantity": "1",
            "noted": false,
            "rarity": "9/110",
            "drop_requirements": null
        },
        "1149": {
            "id": 1149,
            "name": "Dragon med helm",
            "members": true,
            "quantity": "1",
            "noted": false,
            "rarity": "1/110",
            "drop_requirements": null
        },
        "1333": {
            "id": 1333,
            "name": "Rune scimitar",
            "members": true,
            "quantity": "1",
            "noted": false,
            "rarity": "7/110",
            "drop_requirements": null
        },
        "1432": {
            "id": 1432,
            "name": "Rune mace",
            "members": true,
            "quantity": "1",
            "noted": false,
            "rarity": "7/110",
            "drop_requirements": null
        },
        "1601": {
            "id": 1601,
            "name": "Diamond",
            "members": true,
            "quantity": "1-3",
            "noted": true,
            "rarity": "7/110",
            "drop_requirements": null
        },
        "2361": {
            "id": 2361,
            "name": "Adamantite bar",
            "members": true,
            "quantity": "5-35",
            "noted": true,
            "rarity": "4/110",
            "drop_requirements": null
        },
        "4087": {
            "id": 4087,
            "name": "Dragon platelegs",
            "members": true,
            "quantity": "1",
            "noted": false,
            "rarity": "1/110",
            "drop_requirements": null
        },
        "4585": {
            "id": 4585,
            "name": "Dragon plateskirt",
            "members": true,
            "quantity": "1",
            "noted": false,
            "rarity": "1/110",
            "drop_requirements": null
        },
        "9380": {
            "id": 9380,
            "name": "Adamant bolts(unf)",
            "members": true,
            "quantity": "20-40",
            "noted": false,
            "rarity": "11/110",
            "drop_requirements": null
        },
        "11286": {
            "id": 11286,
            "name": "Draconic visage",
            "members": true,
            "quantity": "1",
            "noted": false,
            "rarity": "1/2250",
            "drop_requirements": null
        },
        "12073": {
            "id": 12073,
            "name": "Clue scroll (elite)",
            "members": true,
            "quantity": "1",
            "noted": false,
            "rarity": "1/320",
            "drop_requirements": null
        },
        "19578": {
            "id": 19578,
            "name": "Adamant javelin heads",
            "members": true,
            "quantity": "40-50",
            "noted": false,
            "rarity": "8/110",
            "drop_requirements": null
        },
        "19582": {
            "id": 19582,
            "name": "Dragon javelin heads",
            "members": true,
            "quantity": "20-30",
            "noted": false,
            "rarity": "7/110",
            "drop_requirements": null
        },
        "21880": {
            "id": 21880,
            "name": "Wrath rune",
            "members": true,
            "quantity": "10-30",
            "noted": false,
            "rarity": "8/110",
            "drop_requirements": null
        },
        "21918": {
            "id": 21918,
            "name": "Dragon limbs",
            "members": true,
            "quantity": "1",
            "noted": false,
            "rarity": "1/1000",
            "drop_requirements": null
        },
        "21930": {
            "id": 21930,
            "name": "Dragon bolts (unf)",
            "members": true,
            "quantity": "15-20",
            "noted": false,
            "rarity": "1/110",
            "drop_requirements": null
        },
        "22100": {
            "id": 22100,
            "name": "Dragon metal slice",
            "members": true,
            "quantity": "1",
            "noted": false,
            "rarity": "1/5000",
            "drop_requirements": null
        },
        "22118": {
            "id": 22118,
            "name": "Wrath talisman",
            "members": true,
            "quantity": "1",
            "noted": false,
            "rarity": "1/110",
            "drop_requirements": null
        },
        "23083": {
            "id": 23083,
            "name": "Brimstone key",
            "members": true,
            "quantity": "1",
            "noted": false,
            "rarity": "1/52.4",
            "drop_requirements": null
        }
    },
    "rare_drop_table": true
}