{
    "id": 8066,
    "name": "Stone Guardian",
    "incomplete": true,
    "members": true,
    "release_date": "2018-01-04",
    "combat_level": 124,
    "size": 1,
    "hitpoints": 62,
    "max_hit": 16,
    "attack_type": [
        "magic"
    ],
    "attack_speed": 5,
    "aggressive": true,
    "poisonous": false,
    "immune_poison": false,
    "immune_venom": false,
    "weakness": [],
    "slayer_monster": false,
    "slayer_level": null,
    "slayer_xp": null,
    "slayer_masters": [],
    "duplicate": false,
    "examine": "An ancient stone automaton.",
    "wiki_name": "Stone Guardian (Magic)",
    "wiki_url": "https://oldschool.runescape.wiki/w/Stone_Guardian#Magic",
    "attack_level": 1,
    "strength_level": 1,
    "defence_level": 138,
    "magic_level": 128,
    "ranged_level": 1,
    "attack_stab": 0,
    "attack_slash": 0,
    "attack_crush": 0,
    "attack_magic": 10,
    "attack_ranged": 0,
    "defence_stab": 40,
    "defence_slash": 40,
    "defence_crush": 35,
    "defence_magic": 35,
    "defence_ranged": 0,
    "attack_accuracy": 0,
    "melee_strength": 0,
    "ranged_strength": 0,
    "magic_damage": 0,
    "drops": {},
    "rare_drop_table": false
}