{
    "id": 8072,
    "name": "Skeleton",
    "incomplete": true,
    "members": true,
    "release_date": "2018-01-04",
    "combat_level": 132,
    "size": 1,
    "hitpoints": 54,
    "max_hit": 19,
    "attack_type": [
        "magic"
    ],
    "attack_speed": 5,
    "aggressive": true,
    "poisonous": false,
    "immune_poison": false,
    "immune_venom": false,
    "weakness": [
        "crumble undead"
    ],
    "slayer_monster": false,
    "slayer_level": null,
    "slayer_xp": null,
    "slayer_masters": [],
    "duplicate": false,
    "examine": "It's got a bone to pick with you.",
    "wiki_name": "Skeleton (Shayzien Crypts) (Magic)",
    "wiki_url": "https://oldschool.runescape.wiki/w/Skeleton_(Shayzien_Crypts)#Magic",
    "attack_level": 160,
    "strength_level": 1,
    "defence_level": 62,
    "magic_level": 180,
    "ranged_level": 1,
    "attack_stab": 0,
    "attack_slash": 0,
    "attack_crush": 0,
    "attack_magic": 20,
    "attack_ranged": 0,
    "defence_stab": 35,
    "defence_slash": 30,
    "defence_crush": 35,
    "defence_magic": 20,
    "defence_ranged": 10,
    "attack_accuracy": 0,
    "melee_strength": 0,
    "ranged_strength": 0,
    "magic_damage": 0,
    "drops": {
        "46": {
            "id": 46,
            "name": "Pearl bolt tips",
            "members": true,
            "quantity": "8",
            "noted": false,
            "rarity": "1/128",
            "drop_requirements": null
        },
        "199": {
            "id": 199,
            "name": "Grimy guam leaf",
            "members": true,
            "quantity": "1",
            "noted": false,
            "rarity": "1/128",
            "drop_requirements": null
        },
        "201": {
            "id": 201,
            "name": "Grimy marrentill",
            "members": true,
            "quantity": "1",
            "noted": false,
            "rarity": "1/128",
            "drop_requirements": null
        },
        "203": {
            "id": 203,
            "name": "Grimy tarromin",
            "members": true,
            "quantity": "1",
            "noted": false,
            "rarity": "1/128",
            "drop_requirements": null
        },
        "205": {
            "id": 205,
            "name": "Grimy harralander",
            "members": true,
            "quantity": "1",
            "noted": false,
            "rarity": "1/128",
            "drop_requirements": null
        },
        "207": {
            "id": 207,
            "name": "Grimy ranarr weed",
            "members": true,
            "quantity": "1",
            "noted": false,
            "rarity": "1/128",
            "drop_requirements": null
        },
        "209": {
            "id": 209,
            "name": "Grimy irit leaf",
            "members": true,
            "quantity": "1",
            "noted": false,
            "rarity": "1/128",
            "drop_requirements": null
        },
        "211": {
            "id": 211,
            "name": "Grimy avantoe",
            "members": true,
            "quantity": "1",
            "noted": false,
            "rarity": "1/128",
            "drop_requirements": null
        },
        "213": {
            "id": 213,
            "name": "Grimy kwuarm",
            "members": true,
            "quantity": "1",
            "noted": false,
            "rarity": "1/512",
            "drop_requirements": null
        },
        "215": {
            "id": 215,
            "name": "Grimy cadantine",
            "members": true,
            "quantity": "1",
            "noted": false,
            "rarity": "1/512",
            "drop_requirements": null
        },
        "217": {
            "id": 217,
            "name": "Grimy dwarf weed",
            "members": true,
            "quantity": "1",
            "noted": false,
            "rarity": "1/512",
            "drop_requirements": null
        },
        "526": {
            "id": 526,
            "name": "Bones",
            "members": true,
            "quantity": "1",
            "noted": false,
            "rarity": "1/1",
            "drop_requirements": null
        },
        "555": {
            "id": 555,
            "name": "Water rune",
            "members": true,
            "quantity": "20",
            "noted": false,
            "rarity": "1/8",
            "drop_requirements": null
        },
        "562": {
            "id": 562,
            "name": "Chaos rune",
            "members": true,
            "quantity": "10",
            "noted": false,
            "rarity": "1/32",
            "drop_requirements": null
        },
        "563": {
            "id": 563,
            "name": "Law rune",
            "members": true,
            "quantity": "8",
            "noted": false,
            "rarity": "1/32",
            "drop_requirements": null
        },
        "564": {
            "id": 564,
            "name": "Cosmic rune",
            "members": true,
            "quantity": "12",
            "noted": false,
            "rarity": "1/8",
            "drop_requirements": null
        },
        "565": {
            "id": 565,
            "name": "Blood rune",
            "members": true,
            "quantity": "10",
            "noted": false,
            "rarity": "1/128",
            "drop_requirements": null
        },
        "617": {
            "id": 617,
            "name": "Coins",
            "members": true,
            "quantity": "101-198",
            "noted": false,
            "rarity": "1/32",
            "drop_requirements": null
        },
        "888": {
            "id": 888,
            "name": "Mithril arrow",
            "members": true,
            "quantity": "15",
            "noted": false,
            "rarity": "1/32",
            "drop_requirements": null
        },
        "1147": {
            "id": 1147,
            "name": "Rune med helm",
            "members": true,
            "quantity": "1",
            "noted": false,
            "rarity": "1/128",
            "drop_requirements": null
        },
        "1287": {
            "id": 1287,
            "name": "Adamant sword",
            "members": true,
            "quantity": "1",
            "noted": false,
            "rarity": "1/32",
            "drop_requirements": null
        },
        "1333": {
            "id": 1333,
            "name": "Rune scimitar",
            "members": true,
            "quantity": "1",
            "noted": false,
            "rarity": "1/60",
            "drop_requirements": null
        },
        "1357": {
            "id": 1357,
            "name": "Adamant axe",
            "members": true,
            "quantity": "1",
            "noted": false,
            "rarity": "1/32",
            "drop_requirements": null
        },
        "2359": {
            "id": 2359,
            "name": "Mithril bar",
            "members": true,
            "quantity": "1",
            "noted": false,
            "rarity": "1/32",
            "drop_requirements": null
        },
        "2485": {
            "id": 2485,
            "name": "Grimy lantadyme",
            "members": true,
            "quantity": "1",
            "noted": false,
            "rarity": "1/512",
            "drop_requirements": null
        },
        "2722": {
            "id": 2722,
            "name": "Clue scroll (hard)",
            "members": true,
            "quantity": "1",
            "noted": false,
            "rarity": "1/100",
            "drop_requirements": null
        },
        "5098": {
            "id": 5098,
            "name": "Nasturtium seed",
            "members": true,
            "quantity": "1",
            "noted": false,
            "rarity": null,
            "drop_requirements": null
        },
        "5101": {
            "id": 5101,
            "name": "Redberry seed",
            "members": true,
            "quantity": "1",
            "noted": false,
            "rarity": null,
            "drop_requirements": null
        },
        "5280": {
            "id": 5280,
            "name": "Cactus seed",
            "members": true,
            "quantity": "1",
            "noted": false,
            "rarity": null,
            "drop_requirements": null
        },
        "5281": {
            "id": 5281,
            "name": "Belladonna seed",
            "members": true,
            "quantity": "1",
            "noted": false,
            "rarity": null,
            "drop_requirements": null
        },
        "5297": {
            "id": 5297,
            "name": "Irit seed",
            "members": true,
            "quantity": "1",
            "noted": false,
            "rarity": null,
            "drop_requirements": null
        },
        "5305": {
            "id": 5305,
            "name": "Barley seed",
            "members": true,
            "quantity": "4",
            "noted": false,
            "rarity": "1/128",
            "drop_requirements": null
        },
        "5306": {
            "id": 5306,
            "name": "Jute seed",
            "members": true,
            "quantity": "2",
            "noted": false,
            "rarity": "1/128",
            "drop_requirements": null
        },
        "5318": {
            "id": 5318,
            "name": "Potato seed",
            "members": true,
            "quantity": "4",
            "noted": false,
            "rarity": null,
            "drop_requirements": null
        },
        "5319": {
            "id": 5319,
            "name": "Onion seed",
            "members": true,
            "quantity": "4",
            "noted": false,
            "rarity": null,
            "drop_requirements": null
        },
        "5320": {
            "id": 5320,
            "name": "Sweetcorn seed",
            "members": true,
            "quantity": "3",
            "noted": false,
            "rarity": null,
            "drop_requirements": null
        },
        "5323": {
            "id": 5323,
            "name": "Strawberry seed",
            "members": true,
            "quantity": "2",
            "noted": false,
            "rarity": null,
            "drop_requirements": null
        },
        "5324": {
            "id": 5324,
            "name": "Cabbage seed",
            "members": true,
            "quantity": "4",
            "noted": false,
            "rarity": null,
            "drop_requirements": null
        },
        "9188": {
            "id": 9188,
            "name": "Topaz bolt tips",
            "members": true,
            "quantity": "7",
            "noted": false,
            "rarity": null,
            "drop_requirements": null
        },
        "9189": {
            "id": 9189,
            "name": "Sapphire bolt tips",
            "members": true,
            "quantity": "9",
            "noted": false,
            "rarity": "1/128",
            "drop_requirements": null
        },
        "9190": {
            "id": 9190,
            "name": "Emerald bolt tips",
            "members": true,
            "quantity": "6-8",
            "noted": false,
            "rarity": "1/128",
            "drop_requirements": null
        },
        "9192": {
            "id": 9192,
            "name": "Diamond bolt tips",
            "members": true,
            "quantity": "4-7",
            "noted": false,
            "rarity": null,
            "drop_requirements": null
        },
        "9193": {
            "id": 9193,
            "name": "Dragonstone bolt tips",
            "members": true,
            "quantity": "6-10",
            "noted": false,
            "rarity": null,
            "drop_requirements": null
        },
        "9194": {
            "id": 9194,
            "name": "Onyx bolt tips",
            "members": true,
            "quantity": "8",
            "noted": false,
            "rarity": null,
            "drop_requirements": null
        }
    },
    "rare_drop_table": true
}