{
    "id": 8082,
    "name": "Green dragon",
    "incomplete": false,
    "members": true,
    "release_date": "2003-12-01",
    "combat_level": 79,
    "size": 4,
    "hitpoints": 75,
    "max_hit": 8,
    "attack_type": [
        "slash",
        "dragonfire"
    ],
    "attack_speed": 4,
    "aggressive": true,
    "poisonous": false,
    "immune_poison": false,
    "immune_venom": false,
    "weakness": [
        "stab",
        "ranged",
        "dragonbane"
    ],
    "slayer_monster": true,
    "slayer_level": 1,
    "slayer_xp": 75.0,
    "slayer_masters": [
        "krystilia",
        "vannaka"
    ],
    "duplicate": true,
    "examine": "Must be related to Elvarg.",
    "wiki_name": "Green dragon (Level 79)",
    "wiki_url": "https://oldschool.runescape.wiki/w/Green_dragon#Level_79",
    "attack_level": 68,
    "strength_level": 68,
    "defence_level": 68,
    "magic_level": 68,
    "ranged_level": 1,
    "attack_stab": 0,
    "attack_slash": 0,
    "attack_crush": 0,
    "attack_magic": 0,
    "attack_ranged": 0,
    "defence_stab": 20,
    "defence_slash": 40,
    "defence_crush": 40,
    "defence_magic": 30,
    "defence_ranged": 20,
    "attack_accuracy": 0,
    "melee_strength": 0,
    "ranged_strength": 0,
    "magic_damage": 0,
    "drops": {
        "365": {
            "id": 365,
            "name": "Bass",
            "members": true,
            "quantity": "1",
            "noted": false,
            "rarity": "3/128",
            "drop_requirements": null
        },
        "447": {
            "id": 447,
            "name": "Mithril ore",
            "members": true,
            "quantity": "2",
            "noted": true,
            "rarity": "3/128",
            "drop_requirements": null
        },
        "449": {
            "id": 449,
            "name": "Adamantite ore",
            "members": true,
            "quantity": "1",
            "noted": false,
            "rarity": "3/128",
            "drop_requirements": null
        },
        "536": {
            "id": 536,
            "name": "Dragon bones",
            "members": true,
            "quantity": "1",
            "noted": false,
            "rarity": "1/1",
            "drop_requirements": null
        },
        "554": {
            "id": 554,
            "name": "Fire rune",
            "members": true,
            "quantity": "37",
            "noted": false,
            "rarity": "1/128",
            "drop_requirements": null
        },
        "555": {
            "id": 555,
            "name": "Water rune",
            "members": true,
            "quantity": "75",
            "noted": false,
            "rarity": "8/128",
            "drop_requirements": null
        },
        "560": {
            "id": 560,
            "name": "Death rune",
            "members": true,
            "quantity": "15",
            "noted": false,
            "rarity": "1/128",
            "drop_requirements": null
        },
        "561": {
            "id": 561,
            "name": "Nature rune",
            "members": true,
            "quantity": "10",
            "noted": false,
            "rarity": "1/128",
            "drop_requirements": null
        },
        "563": {
            "id": 563,
            "name": "Law rune",
            "members": true,
            "quantity": "3-10",
            "noted": false,
            "rarity": "3/128",
            "drop_requirements": null
        },
        "565": {
            "id": 565,
            "name": "Blood rune",
            "members": true,
            "quantity": "5",
            "noted": false,
            "rarity": "1/128",
            "drop_requirements": null
        },
        "617": {
            "id": 617,
            "name": "Coins",
            "members": true,
            "quantity": "500-999",
            "noted": false,
            "rarity": "6/128",
            "drop_requirements": null
        },
        "1069": {
            "id": 1069,
            "name": "Steel platelegs",
            "members": true,
            "quantity": "1",
            "noted": false,
            "rarity": "4/128",
            "drop_requirements": null
        },
        "1071": {
            "id": 1071,
            "name": "Mithril platelegs",
            "members": true,
            "quantity": "1",
            "noted": false,
            "rarity": "2/128",
            "drop_requirements": null
        },
        "1161": {
            "id": 1161,
            "name": "Adamant full helm",
            "members": true,
            "quantity": "1",
            "noted": false,
            "rarity": "1/128",
            "drop_requirements": null
        },
        "1197": {
            "id": 1197,
            "name": "Mithril kiteshield",
            "members": true,
            "quantity": "1",
            "noted": false,
            "rarity": "1/128",
            "drop_requirements": null
        },
        "1199": {
            "id": 1199,
            "name": "Adamant kiteshield",
            "members": true,
            "quantity": "1",
            "noted": false,
            "rarity": "1/128",
            "drop_requirements": null
        },
        "1211": {
            "id": 1211,
            "name": "Adamant dagger",
            "members": true,
            "quantity": "1",
            "noted": false,
            "rarity": "1/128",
            "drop_requirements": null
        },
        "1213": {
            "id": 1213,
            "name": "Rune dagger",
            "members": true,
            "quantity": "1",
            "noted": false,
            "rarity": "1/128",
            "drop_requirements": null
        },
        "1243": {
            "id": 1243,
            "name": "Mithril spear",
            "members": true,
            "quantity": "1",
            "noted": false,
            "rarity": "2/128",
            "drop_requirements": null
        },
        "1287": {
            "id": 1287,
            "name": "Adamant sword",
            "members": true,
            "quantity": "1",
            "noted": false,
            "rarity": "1/128",
            "drop_requirements": null
        },
        "1315": {
            "id": 1315,
            "name": "Mithril 2h sword",
            "members": true,
            "quantity": "1",
            "noted": false,
            "rarity": "5/128",
            "drop_requirements": null
        },
        "1355": {
            "id": 1355,
            "name": "Mithril axe",
            "members": true,
            "quantity": "1",
            "noted": false,
            "rarity": "3/128",
            "drop_requirements": null
        },
        "1365": {
            "id": 1365,
            "name": "Steel battleaxe",
            "members": true,
            "quantity": "1",
            "noted": false,
            "rarity": "3/128",
            "drop_requirements": null
        },
        "1369": {
            "id": 1369,
            "name": "Mithril battleaxe",
            "members": true,
            "quantity": "1",
            "noted": false,
            "rarity": "1/128",
            "drop_requirements": null
        },
        "1753": {
            "id": 1753,
            "name": "Green dragonhide",
            "members": true,
            "quantity": "1",
            "noted": false,
            "rarity": "1/1",
            "drop_requirements": null
        },
        "2722": {
            "id": 2722,
            "name": "Clue scroll (hard)",
            "members": true,
            "quantity": "1",
            "noted": false,
            "rarity": "1/128",
            "drop_requirements": null
        },
        "7946": {
            "id": 7946,
            "name": "Monkfish",
            "members": true,
            "quantity": "1",
            "noted": false,
            "rarity": "7/128",
            "drop_requirements": null
        },
        "11941": {
            "id": 11941,
            "name": "Looting bag",
            "members": true,
            "quantity": "1",
            "noted": false,
            "rarity": "1/3",
            "drop_requirements": null
        },
        "13510": {
            "id": 13510,
            "name": "Ensouled dragon head",
            "members": true,
            "quantity": "1",
            "noted": false,
            "rarity": "1/35",
            "drop_requirements": null
        },
        "19812": {
            "id": 19812,
            "name": "Key (elite)",
            "members": true,
            "quantity": "1",
            "noted": false,
            "rarity": "1/1",
            "drop_requirements": null
        }
    },
    "rare_drop_table": true
}