{
    "id": 8089,
    "name": "Mithril dragon",
    "incomplete": false,
    "members": true,
    "release_date": "2007-07-03",
    "combat_level": 304,
    "size": 4,
    "hitpoints": 254,
    "max_hit": 28,
    "attack_type": [
        "melee",
        "dragonfire",
        "ranged",
        "ranged"
    ],
    "attack_speed": 4,
    "aggressive": true,
    "poisonous": false,
    "immune_poison": false,
    "immune_venom": false,
    "weakness": [
        "stab",
        "magic",
        "dragonbane"
    ],
    "slayer_monster": true,
    "slayer_level": 1,
    "slayer_xp": 273.0,
    "slayer_masters": [
        "konar",
        "nieve",
        "duradel"
    ],
    "duplicate": true,
    "examine": "Experimenting with mithril gone bad!",
    "wiki_name": "Mithril dragon",
    "wiki_url": "https://oldschool.runescape.wiki/w/Mithril_dragon",
    "attack_level": 268,
    "strength_level": 268,
    "defence_level": 268,
    "magic_level": 168,
    "ranged_level": 168,
    "attack_stab": 0,
    "attack_slash": 0,
    "attack_crush": 0,
    "attack_magic": 0,
    "attack_ranged": 0,
    "defence_stab": 50,
    "defence_slash": 100,
    "defence_crush": 70,
    "defence_magic": 30,
    "defence_ranged": 90,
    "attack_accuracy": 0,
    "melee_strength": 0,
    "ranged_strength": 0,
    "magic_damage": 0,
    "drops": {
        "385": {
            "id": 385,
            "name": "Shark",
            "members": true,
            "quantity": "6",
            "noted": false,
            "rarity": "2/128",
            "drop_requirements": null
        },
        "536": {
            "id": 536,
            "name": "Dragon bones",
            "members": true,
            "quantity": "1",
            "noted": false,
            "rarity": "1/1",
            "drop_requirements": null
        },
        "565": {
            "id": 565,
            "name": "Blood rune",
            "members": true,
            "quantity": "27",
            "noted": false,
            "rarity": "19/128",
            "drop_requirements": null
        },
        "566": {
            "id": 566,
            "name": "Soul rune",
            "members": true,
            "quantity": "10",
            "noted": false,
            "rarity": "5/128",
            "drop_requirements": null
        },
        "617": {
            "id": 617,
            "name": "Coins",
            "members": true,
            "quantity": "876",
            "noted": false,
            "rarity": "7/128",
            "drop_requirements": null
        },
        "817": {
            "id": 817,
            "name": "Rune dart(p)",
            "members": true,
            "quantity": "14",
            "noted": false,
            "rarity": "7/128",
            "drop_requirements": null
        },
        "830": {
            "id": 830,
            "name": "Rune javelin",
            "members": true,
            "quantity": "8",
            "noted": false,
            "rarity": "14/128",
            "drop_requirements": null
        },
        "868": {
            "id": 868,
            "name": "Rune knife",
            "members": true,
            "quantity": "8",
            "noted": false,
            "rarity": "3/128",
            "drop_requirements": null
        },
        "892": {
            "id": 892,
            "name": "Rune arrow",
            "members": true,
            "quantity": "8",
            "noted": false,
            "rarity": "3/128",
            "drop_requirements": null
        },
        "1163": {
            "id": 1163,
            "name": "Rune full helm",
            "members": true,
            "quantity": "1",
            "noted": false,
            "rarity": "1/128",
            "drop_requirements": null
        },
        "1247": {
            "id": 1247,
            "name": "Rune spear",
            "members": true,
            "quantity": "1",
            "noted": false,
            "rarity": "2/128",
            "drop_requirements": null
        },
        "1373": {
            "id": 1373,
            "name": "Rune battleaxe",
            "members": true,
            "quantity": "1",
            "noted": false,
            "rarity": "12/128",
            "drop_requirements": null
        },
        "1432": {
            "id": 1432,
            "name": "Rune mace",
            "members": true,
            "quantity": "1",
            "noted": false,
            "rarity": "3/128",
            "drop_requirements": null
        },
        "2359": {
            "id": 2359,
            "name": "Mithril bar",
            "members": true,
            "quantity": "3",
            "noted": false,
            "rarity": "1/1",
            "drop_requirements": null
        },
        "2363": {
            "id": 2363,
            "name": "Runite bar",
            "members": true,
            "quantity": "2",
            "noted": false,
            "rarity": "3/128",
            "drop_requirements": null
        },
        "9144": {
            "id": 9144,
            "name": "Runite bolts",
            "members": true,
            "quantity": "10-21",
            "noted": false,
            "rarity": "6/128",
            "drop_requirements": null
        },
        "11286": {
            "id": 11286,
            "name": "Draconic visage",
            "members": true,
            "quantity": "1",
            "noted": false,
            "rarity": "1/2500",
            "drop_requirements": null
        },
        "11335": {
            "id": 11335,
            "name": "Dragon full helm",
            "members": true,
            "quantity": "1",
            "noted": false,
            "rarity": "1/32768",
            "drop_requirements": null
        },
        "11338": {
            "id": 11338,
            "name": "Chewed bones",
            "members": true,
            "quantity": "1",
            "noted": false,
            "rarity": "3/128",
            "drop_requirements": null
        },
        "11341": {
            "id": 11341,
            "name": "Ancient page",
            "members": true,
            "quantity": "1",
            "noted": false,
            "rarity": "2/128",
            "drop_requirements": null
        },
        "11465": {
            "id": 11465,
            "name": "Prayer mix(2)",
            "members": true,
            "quantity": "1",
            "noted": false,
            "rarity": "2/128",
            "drop_requirements": null
        },
        "11469": {
            "id": 11469,
            "name": "Superattack mix(2)",
            "members": true,
            "quantity": "1",
            "noted": false,
            "rarity": "2/128",
            "drop_requirements": null
        },
        "11485": {
            "id": 11485,
            "name": "Super str. mix(2)",
            "members": true,
            "quantity": "1",
            "noted": false,
            "rarity": "2/128",
            "drop_requirements": null
        },
        "11497": {
            "id": 11497,
            "name": "Super def. mix(2)",
            "members": true,
            "quantity": "1",
            "noted": false,
            "rarity": "2/128",
            "drop_requirements": null
        },
        "12073": {
            "id": 12073,
            "name": "Clue scroll (elite)",
            "members": true,
            "quantity": "1",
            "noted": false,
            "rarity": "1/350",
            "drop_requirements": null
        },
        "19582": {
            "id": 19582,
            "name": "Dragon javelin heads",
            "members": true,
            "quantity": "15",
            "noted": false,
            "rarity": "7/128",
            "drop_requirements": null
        },
        "23083": {
            "id": 23083,
            "name": "Brimstone key",
            "members": true,
            "quantity": "1",
            "noted": false,
            "rarity": "1/59.2",
            "drop_requirements": null
        }
    },
    "rare_drop_table": true
}