{
    "id": 823,
    "name": "Melzar the Mad",
    "incomplete": true,
    "members": false,
    "release_date": "2001-09-23",
    "combat_level": 43,
    "size": 1,
    "hitpoints": 44,
    "max_hit": 5,
    "attack_type": [
        "crush",
        "magic"
    ],
    "attack_speed": 4,
    "aggressive": true,
    "poisonous": false,
    "immune_poison": false,
    "immune_venom": false,
    "weakness": [],
    "slayer_monster": false,
    "slayer_level": null,
    "slayer_xp": 0.0,
    "slayer_masters": [],
    "duplicate": false,
    "examine": "He looks totally insane!",
    "wiki_name": "Melzar the Mad",
    "wiki_url": "https://oldschool.runescape.wiki/w/Melzar_the_Mad",
    "attack_level": 37,
    "strength_level": 37,
    "defence_level": 34,
    "magic_level": 40,
    "ranged_level": 1,
    "attack_stab": 0,
    "attack_slash": 0,
    "attack_crush": 0,
    "attack_magic": 0,
    "attack_ranged": 0,
    "defence_stab": 0,
    "defence_slash": 0,
    "defence_crush": 0,
    "defence_magic": 0,
    "defence_ranged": 0,
    "attack_accuracy": 0,
    "melee_strength": 0,
    "ranged_strength": 0,
    "magic_damage": 0,
    "drops": {},
    "rare_drop_table": false
}