{
    "id": 8302,
    "name": "Vyrewatch",
    "incomplete": false,
    "members": true,
    "release_date": "2006-09-04",
    "combat_level": 105,
    "size": 1,
    "hitpoints": 90,
    "max_hit": 11,
    "attack_type": [
        "crush"
    ],
    "attack_speed": 4,
    "aggressive": true,
    "poisonous": false,
    "immune_poison": false,
    "immune_venom": true,
    "weakness": [],
    "slayer_monster": true,
    "slayer_level": 1,
    "slayer_xp": 90.0,
    "slayer_masters": [
        "mazchna",
        "vannaka"
    ],
    "duplicate": true,
    "examine": "Stop looking and run for your life!",
    "wiki_name": "Vyrewatch (Lv 105)",
    "wiki_url": "https://oldschool.runescape.wiki/w/Vyrewatch#Lv_105",
    "attack_level": 105,
    "strength_level": 86,
    "defence_level": 85,
    "magic_level": 105,
    "ranged_level": 105,
    "attack_stab": 0,
    "attack_slash": 0,
    "attack_crush": 0,
    "attack_magic": 0,
    "attack_ranged": 0,
    "defence_stab": 0,
    "defence_slash": 0,
    "defence_crush": 0,
    "defence_magic": 0,
    "defence_ranged": 0,
    "attack_accuracy": 0,
    "melee_strength": 0,
    "ranged_strength": 0,
    "magic_damage": 0,
    "drops": {
        "45": {
            "id": 45,
            "name": "Opal bolt tips",
            "members": true,
            "quantity": "4-7",
            "noted": false,
            "rarity": "1/128",
            "drop_requirements": null
        },
        "46": {
            "id": 46,
            "name": "Pearl bolt tips",
            "members": true,
            "quantity": "5",
            "noted": false,
            "rarity": "1/128",
            "drop_requirements": null
        },
        "199": {
            "id": 199,
            "name": "Grimy guam leaf",
            "members": true,
            "quantity": "1",
            "noted": false,
            "rarity": "1/128",
            "drop_requirements": null
        },
        "201": {
            "id": 201,
            "name": "Grimy marrentill",
            "members": true,
            "quantity": "1",
            "noted": false,
            "rarity": "1/128",
            "drop_requirements": null
        },
        "205": {
            "id": 205,
            "name": "Grimy harralander",
            "members": true,
            "quantity": "1",
            "noted": false,
            "rarity": "1/128",
            "drop_requirements": null
        },
        "449": {
            "id": 449,
            "name": "Adamantite ore",
            "members": true,
            "quantity": "1",
            "noted": false,
            "rarity": "1/32",
            "drop_requirements": null
        },
        "453": {
            "id": 453,
            "name": "Coal",
            "members": true,
            "quantity": "6",
            "noted": false,
            "rarity": "1/32",
            "drop_requirements": null
        },
        "560": {
            "id": 560,
            "name": "Death rune",
            "members": true,
            "quantity": "4-50",
            "noted": false,
            "rarity": "1/8",
            "drop_requirements": null
        },
        "561": {
            "id": 561,
            "name": "Nature rune",
            "members": true,
            "quantity": "7-20",
            "noted": false,
            "rarity": "1/32",
            "drop_requirements": null
        },
        "565": {
            "id": 565,
            "name": "Blood rune",
            "members": true,
            "quantity": "4-50",
            "noted": false,
            "rarity": "1/32",
            "drop_requirements": null
        },
        "617": {
            "id": 617,
            "name": "Coins",
            "members": true,
            "quantity": "500-1000",
            "noted": false,
            "rarity": "1/8",
            "drop_requirements": null
        },
        "830": {
            "id": 830,
            "name": "Rune javelin",
            "members": true,
            "quantity": "9-14",
            "noted": false,
            "rarity": "1/128",
            "drop_requirements": null
        },
        "890": {
            "id": 890,
            "name": "Adamant arrow",
            "members": true,
            "quantity": "10-16",
            "noted": false,
            "rarity": "1/32",
            "drop_requirements": null
        },
        "1073": {
            "id": 1073,
            "name": "Adamant platelegs",
            "members": true,
            "quantity": "1",
            "noted": false,
            "rarity": "1/8",
            "drop_requirements": null
        },
        "1079": {
            "id": 1079,
            "name": "Rune platelegs",
            "members": true,
            "quantity": "1",
            "noted": false,
            "rarity": "1/32",
            "drop_requirements": null
        },
        "1123": {
            "id": 1123,
            "name": "Adamant platebody",
            "members": true,
            "quantity": "1",
            "noted": false,
            "rarity": "1/8",
            "drop_requirements": null
        },
        "1163": {
            "id": 1163,
            "name": "Rune full helm",
            "members": true,
            "quantity": "1",
            "noted": false,
            "rarity": "1/128",
            "drop_requirements": null
        },
        "1213": {
            "id": 1213,
            "name": "Rune dagger",
            "members": true,
            "quantity": "1",
            "noted": false,
            "rarity": "1/8",
            "drop_requirements": null
        },
        "1355": {
            "id": 1355,
            "name": "Mithril axe",
            "members": true,
            "quantity": "1",
            "noted": false,
            "rarity": "1/32",
            "drop_requirements": null
        },
        "1515": {
            "id": 1515,
            "name": "Yew logs",
            "members": true,
            "quantity": "4",
            "noted": false,
            "rarity": "1/32",
            "drop_requirements": null
        },
        "2363": {
            "id": 2363,
            "name": "Runite bar",
            "members": true,
            "quantity": "1",
            "noted": false,
            "rarity": "1/32",
            "drop_requirements": null
        },
        "2722": {
            "id": 2722,
            "name": "Clue scroll (hard)",
            "members": true,
            "quantity": "1",
            "noted": false,
            "rarity": "1/128",
            "drop_requirements": null
        },
        "2970": {
            "id": 2970,
            "name": "Mort myre fungus",
            "members": true,
            "quantity": "2",
            "noted": false,
            "rarity": "1/32",
            "drop_requirements": null
        },
        "3239": {
            "id": 3239,
            "name": "Bark",
            "members": true,
            "quantity": "6-10",
            "noted": false,
            "rarity": "1/32",
            "drop_requirements": null
        },
        "3325": {
            "id": 3325,
            "name": "Vampyre dust",
            "members": true,
            "quantity": "1",
            "noted": false,
            "rarity": "1/1",
            "drop_requirements": null
        },
        "5096": {
            "id": 5096,
            "name": "Marigold seed",
            "members": true,
            "quantity": "1",
            "noted": false,
            "rarity": "1/128",
            "drop_requirements": null
        },
        "5282": {
            "id": 5282,
            "name": "Mushroom spore",
            "members": true,
            "quantity": "1",
            "noted": false,
            "rarity": "1/32",
            "drop_requirements": null
        },
        "5293": {
            "id": 5293,
            "name": "Tarromin seed",
            "members": true,
            "quantity": "1",
            "noted": false,
            "rarity": "1/128",
            "drop_requirements": null
        },
        "5304": {
            "id": 5304,
            "name": "Torstol seed",
            "members": true,
            "quantity": "1",
            "noted": false,
            "rarity": "1/512",
            "drop_requirements": null
        },
        "5308": {
            "id": 5308,
            "name": "Asgarnian seed",
            "members": true,
            "quantity": "3",
            "noted": false,
            "rarity": null,
            "drop_requirements": null
        },
        "5318": {
            "id": 5318,
            "name": "Potato seed",
            "members": true,
            "quantity": "4",
            "noted": false,
            "rarity": "1/32",
            "drop_requirements": null
        },
        "9190": {
            "id": 9190,
            "name": "Emerald bolt tips",
            "members": true,
            "quantity": "6",
            "noted": false,
            "rarity": "1/128",
            "drop_requirements": null
        },
        "9192": {
            "id": 9192,
            "name": "Diamond bolt tips",
            "members": true,
            "quantity": "4",
            "noted": false,
            "rarity": "1/128",
            "drop_requirements": null
        },
        "9193": {
            "id": 9193,
            "name": "Dragonstone bolt tips",
            "members": true,
            "quantity": "5",
            "noted": false,
            "rarity": "1/128",
            "drop_requirements": null
        },
        "9194": {
            "id": 9194,
            "name": "Onyx bolt tips",
            "members": true,
            "quantity": "4-10",
            "noted": false,
            "rarity": "1/128",
            "drop_requirements": null
        },
        "21338": {
            "id": 21338,
            "name": "Amethyst bolt tips",
            "members": true,
            "quantity": "10",
            "noted": false,
            "rarity": "1/128",
            "drop_requirements": null
        }
    },
    "rare_drop_table": false
}