{
    "id": 8360,
    "name": "The Maiden of Sugadinti",
    "incomplete": true,
    "members": true,
    "release_date": "2018-06-07",
    "combat_level": 940,
    "size": 6,
    "hitpoints": 3500,
    "max_hit": 36,
    "attack_type": [
        "magic"
    ],
    "attack_speed": 10,
    "aggressive": true,
    "poisonous": false,
    "immune_poison": true,
    "immune_venom": true,
    "weakness": [
        "ranged"
    ],
    "slayer_monster": false,
    "slayer_level": null,
    "slayer_xp": null,
    "slayer_masters": [],
    "duplicate": false,
    "examine": "This is the fate of those who cross the vampyres.",
    "wiki_name": "The Maiden of Sugadinti (Normal)",
    "wiki_url": "https://oldschool.runescape.wiki/w/The_Maiden_of_Sugadinti#Normal",
    "attack_level": 350,
    "strength_level": 350,
    "defence_level": 200,
    "magic_level": 350,
    "ranged_level": 350,
    "attack_stab": 0,
    "attack_slash": 0,
    "attack_crush": 0,
    "attack_magic": 300,
    "attack_ranged": 0,
    "defence_stab": 0,
    "defence_slash": 0,
    "defence_crush": 0,
    "defence_magic": 0,
    "defence_ranged": 0,
    "attack_accuracy": 0,
    "melee_strength": 0,
    "ranged_strength": 0,
    "magic_damage": 0,
    "drops": {},
    "rare_drop_table": false
}