{
    "id": 8374,
    "name": "Verzik Vitur",
    "incomplete": true,
    "members": true,
    "release_date": "2018-06-07",
    "combat_level": 1520,
    "size": 7,
    "hitpoints": 2000,
    "max_hit": 0,
    "attack_type": [
        "magic"
    ],
    "attack_speed": 4,
    "aggressive": false,
    "poisonous": false,
    "immune_poison": true,
    "immune_venom": true,
    "weakness": [],
    "slayer_monster": false,
    "slayer_level": null,
    "slayer_xp": null,
    "slayer_masters": [],
    "duplicate": false,
    "examine": "There's something very disconcerting about her.",
    "wiki_name": "Verzik Vitur",
    "wiki_url": "https://oldschool.runescape.wiki/w/Verzik_Vitur",
    "attack_level": 400,
    "strength_level": 400,
    "defence_level": 20,
    "magic_level": 400,
    "ranged_level": 400,
    "attack_stab": 0,
    "attack_slash": 0,
    "attack_crush": 0,
    "attack_magic": 80,
    "attack_ranged": 80,
    "defence_stab": 20,
    "defence_slash": 20,
    "defence_crush": 20,
    "defence_magic": 20,
    "defence_ranged": 20,
    "attack_accuracy": 0,
    "melee_strength": 0,
    "ranged_strength": 80,
    "magic_damage": 150,
    "drops": {},
    "rare_drop_table": false
}