{
    "id": 8382,
    "name": "Nylocas Toxobolos",
    "incomplete": true,
    "members": true,
    "release_date": "2018-06-07",
    "combat_level": 162,
    "size": 2,
    "hitpoints": 11,
    "max_hit": 17,
    "attack_type": [
        "ranged",
        "ranged"
    ],
    "attack_speed": 3,
    "aggressive": false,
    "poisonous": false,
    "immune_poison": true,
    "immune_venom": true,
    "weakness": [
        "ranged"
    ],
    "slayer_monster": false,
    "slayer_level": null,
    "slayer_xp": null,
    "slayer_masters": [],
    "duplicate": true,
    "examine": "One of Verzik's pets.",
    "wiki_name": "Nylocas Toxobolos (Lv 162)",
    "wiki_url": "https://oldschool.runescape.wiki/w/Nylocas_Toxobolos#Lv_162",
    "attack_level": 200,
    "strength_level": 160,
    "defence_level": 1,
    "magic_level": 1,
    "ranged_level": 200,
    "attack_stab": 0,
    "attack_slash": 0,
    "attack_crush": 0,
    "attack_magic": 1073,
    "attack_ranged": 0,
    "defence_stab": 0,
    "defence_slash": 0,
    "defence_crush": 0,
    "defence_magic": 0,
    "defence_ranged": 0,
    "attack_accuracy": 0,
    "melee_strength": 0,
    "ranged_strength": -15,
    "magic_damage": 928,
    "drops": {},
    "rare_drop_table": false
}