{
    "id": 8428,
    "name": "Mother",
    "incomplete": true,
    "members": true,
    "release_date": "2018-09-06",
    "combat_level": 198,
    "size": 3,
    "hitpoints": 235,
    "max_hit": 16,
    "attack_type": [
        "crush",
        "ranged",
        "ranged"
    ],
    "attack_speed": 4,
    "aggressive": true,
    "poisonous": false,
    "immune_poison": false,
    "immune_venom": false,
    "weakness": [],
    "slayer_monster": false,
    "slayer_level": null,
    "slayer_xp": null,
    "slayer_masters": [],
    "duplicate": false,
    "examine": "He's the boss of the trolls of Weiss.",
    "wiki_name": "Mother",
    "wiki_url": "https://oldschool.runescape.wiki/w/Mother",
    "attack_level": 150,
    "strength_level": 150,
    "defence_level": 170,
    "magic_level": 60,
    "ranged_level": 105,
    "attack_stab": 0,
    "attack_slash": 0,
    "attack_crush": 0,
    "attack_magic": 0,
    "attack_ranged": 0,
    "defence_stab": 0,
    "defence_slash": 0,
    "defence_crush": 0,
    "defence_magic": 200,
    "defence_ranged": 0,
    "attack_accuracy": 60,
    "melee_strength": 50,
    "ranged_strength": 0,
    "magic_damage": 0,
    "drops": {},
    "rare_drop_table": false
}