{
    "id": 8439,
    "name": "Don't Know What",
    "incomplete": true,
    "members": true,
    "release_date": "2018-09-06",
    "combat_level": 163,
    "size": 3,
    "hitpoints": 220,
    "max_hit": 10,
    "attack_type": [
        "crush",
        "ranged",
        "ranged"
    ],
    "attack_speed": 3,
    "aggressive": true,
    "poisonous": false,
    "immune_poison": false,
    "immune_venom": false,
    "weakness": [
        "melee",
        "ranged"
    ],
    "slayer_monster": false,
    "slayer_level": null,
    "slayer_xp": null,
    "slayer_masters": [],
    "duplicate": false,
    "examine": "A troll of Weiss.",
    "wiki_name": "Don't Know What",
    "wiki_url": "https://oldschool.runescape.wiki/w/Don't_Know_What",
    "attack_level": 120,
    "strength_level": 90,
    "defence_level": 160,
    "magic_level": 60,
    "ranged_level": 115,
    "attack_stab": 0,
    "attack_slash": 0,
    "attack_crush": 0,
    "attack_magic": 0,
    "attack_ranged": 0,
    "defence_stab": 0,
    "defence_slash": 0,
    "defence_crush": 0,
    "defence_magic": 200,
    "defence_ranged": 0,
    "attack_accuracy": 0,
    "melee_strength": 0,
    "ranged_strength": 40,
    "magic_damage": 0,
    "drops": {},
    "rare_drop_table": false
}