{
    "id": 8512,
    "name": "Tormented Soul",
    "incomplete": true,
    "members": true,
    "release_date": "2019-01-10",
    "combat_level": 16,
    "size": 1,
    "hitpoints": 20,
    "max_hit": 2,
    "attack_type": [
        "crush"
    ],
    "attack_speed": 4,
    "aggressive": true,
    "poisonous": false,
    "immune_poison": true,
    "immune_venom": true,
    "weakness": [],
    "slayer_monster": false,
    "slayer_level": null,
    "slayer_xp": null,
    "slayer_masters": [],
    "duplicate": false,
    "examine": "Is that a ghost?",
    "wiki_name": "Tormented Soul",
    "wiki_url": "https://oldschool.runescape.wiki/w/Tormented_Soul",
    "attack_level": 16,
    "strength_level": 12,
    "defence_level": 10,
    "magic_level": 1,
    "ranged_level": 1,
    "attack_stab": 0,
    "attack_slash": 0,
    "attack_crush": 0,
    "attack_magic": 0,
    "attack_ranged": 0,
    "defence_stab": 0,
    "defence_slash": 0,
    "defence_crush": 0,
    "defence_magic": 0,
    "defence_ranged": 0,
    "attack_accuracy": 0,
    "melee_strength": 0,
    "ranged_strength": 0,
    "magic_damage": 0,
    "drops": {},
    "rare_drop_table": false
}