{
    "id": 854,
    "name": "Icelord",
    "incomplete": false,
    "members": true,
    "release_date": "2007-01-29",
    "combat_level": 51,
    "size": 2,
    "hitpoints": 60,
    "max_hit": 5,
    "attack_type": [
        "crush"
    ],
    "attack_speed": 4,
    "aggressive": true,
    "poisonous": false,
    "immune_poison": false,
    "immune_venom": false,
    "weakness": [
        "magic"
    ],
    "slayer_monster": true,
    "slayer_level": 1,
    "slayer_xp": 60.0,
    "slayer_masters": [
        "mazchna",
        "vannaka"
    ],
    "duplicate": true,
    "examine": "Sturdy cold being.",
    "wiki_name": "Icelord",
    "wiki_url": "https://oldschool.runescape.wiki/w/Icelord",
    "attack_level": 40,
    "strength_level": 40,
    "defence_level": 40,
    "magic_level": 1,
    "ranged_level": 1,
    "attack_stab": 0,
    "attack_slash": 0,
    "attack_crush": 0,
    "attack_magic": 0,
    "attack_ranged": 0,
    "defence_stab": 0,
    "defence_slash": 0,
    "defence_crush": 0,
    "defence_magic": 0,
    "defence_ranged": 0,
    "attack_accuracy": 0,
    "melee_strength": 0,
    "ranged_strength": 0,
    "magic_damage": 0,
    "drops": {
        "532": {
            "id": 532,
            "name": "Big bones",
            "members": true,
            "quantity": "1",
            "noted": false,
            "rarity": "1/1",
            "drop_requirements": null
        },
        "10976": {
            "id": 10976,
            "name": "Long bone",
            "members": true,
            "quantity": "1",
            "noted": false,
            "rarity": "1/400",
            "drop_requirements": null
        },
        "10977": {
            "id": 10977,
            "name": "Curved bone",
            "members": true,
            "quantity": "1",
            "noted": false,
            "rarity": "1/5012.5",
            "drop_requirements": null
        }
    },
    "rare_drop_table": false
}