{
    "id": 8637,
    "name": "Third Age Mage",
    "incomplete": true,
    "members": true,
    "release_date": "2019-04-11",
    "combat_level": 83,
    "size": 1,
    "hitpoints": 40,
    "max_hit": 16,
    "attack_type": [
        "magic"
    ],
    "attack_speed": 4,
    "aggressive": true,
    "poisonous": false,
    "immune_poison": false,
    "immune_venom": false,
    "weakness": [
        "ranged"
    ],
    "slayer_monster": false,
    "slayer_level": null,
    "slayer_xp": null,
    "slayer_masters": [],
    "duplicate": false,
    "examine": "A reanimated mage wearing the garb of ancient times.",
    "wiki_name": "Third Age Mage",
    "wiki_url": "https://oldschool.runescape.wiki/w/Third_Age_Mage",
    "attack_level": 1,
    "strength_level": 1,
    "defence_level": 80,
    "magic_level": 110,
    "ranged_level": 1,
    "attack_stab": 0,
    "attack_slash": 0,
    "attack_crush": 0,
    "attack_magic": 145,
    "attack_ranged": 0,
    "defence_stab": 5,
    "defence_slash": 6,
    "defence_crush": 5,
    "defence_magic": 65,
    "defence_ranged": -5,
    "attack_accuracy": 0,
    "melee_strength": 0,
    "ranged_strength": 0,
    "magic_damage": 24,
    "drops": {},
    "rare_drop_table": false
}