{
    "id": 867,
    "name": "Zogre",
    "incomplete": false,
    "members": true,
    "release_date": "2005-05-17",
    "combat_level": 44,
    "size": 2,
    "hitpoints": 71,
    "max_hit": 5,
    "attack_type": [
        "crush"
    ],
    "attack_speed": 6,
    "aggressive": true,
    "poisonous": false,
    "immune_poison": false,
    "immune_venom": false,
    "weakness": [],
    "slayer_monster": true,
    "slayer_level": 1,
    "slayer_xp": 71.0,
    "slayer_masters": [
        "turael",
        "vannaka"
    ],
    "duplicate": true,
    "examine": "A partially decomposing zombie ogre.",
    "wiki_name": "Zogre",
    "wiki_url": "https://oldschool.runescape.wiki/w/Zogre",
    "attack_level": 20,
    "strength_level": 36,
    "defence_level": 35,
    "magic_level": 1,
    "ranged_level": 1,
    "attack_stab": 0,
    "attack_slash": 0,
    "attack_crush": 0,
    "attack_magic": 0,
    "attack_ranged": 0,
    "defence_stab": 0,
    "defence_slash": 0,
    "defence_crush": 0,
    "defence_magic": 0,
    "defence_ranged": 0,
    "attack_accuracy": 0,
    "melee_strength": 0,
    "ranged_strength": 0,
    "magic_damage": 0,
    "drops": {
        "2677": {
            "id": 2677,
            "name": "Clue scroll (easy)",
            "members": true,
            "quantity": "1",
            "noted": false,
            "rarity": "1/128",
            "drop_requirements": null
        },
        "4812": {
            "id": 4812,
            "name": "Zogre bones",
            "members": true,
            "quantity": "1",
            "noted": false,
            "rarity": "1/1",
            "drop_requirements": null
        },
        "4850": {
            "id": 4850,
            "name": "Ogre coffin key",
            "members": true,
            "quantity": "1",
            "noted": false,
            "rarity": "1/1",
            "drop_requirements": null
        },
        "6807": {
            "id": 6807,
            "name": "Zombie champion scroll",
            "members": true,
            "quantity": "1",
            "noted": false,
            "rarity": "1/512",
            "drop_requirements": null
        },
        "7848": {
            "id": 7848,
            "name": "Zogre bone",
            "members": true,
            "quantity": "1",
            "noted": false,
            "rarity": "1/8",
            "drop_requirements": null
        }
    },
    "rare_drop_table": false
}