{
    "id": 8703,
    "name": "Temple Spider",
    "incomplete": false,
    "members": true,
    "release_date": "2019-07-04",
    "combat_level": 75,
    "size": 1,
    "hitpoints": 70,
    "max_hit": 6,
    "attack_type": [
        "crush"
    ],
    "attack_speed": 4,
    "aggressive": true,
    "poisonous": false,
    "immune_poison": false,
    "immune_venom": false,
    "weakness": [
        "crush"
    ],
    "slayer_monster": true,
    "slayer_level": 1,
    "slayer_xp": 70.0,
    "slayer_masters": [
        "turael"
    ],
    "duplicate": false,
    "examine": "Preys on unsuspecting adventurers.",
    "wiki_name": "Temple Spider",
    "wiki_url": "https://oldschool.runescape.wiki/w/Temple_Spider",
    "attack_level": 120,
    "strength_level": 50,
    "defence_level": 10,
    "magic_level": 1,
    "ranged_level": 1,
    "attack_stab": 0,
    "attack_slash": 0,
    "attack_crush": 0,
    "attack_magic": 0,
    "attack_ranged": 0,
    "defence_stab": 20,
    "defence_slash": 30,
    "defence_crush": 10,
    "defence_magic": 25,
    "defence_ranged": 20,
    "attack_accuracy": 0,
    "melee_strength": 0,
    "ranged_strength": 0,
    "magic_damage": 0,
    "drops": {
        "183": {
            "id": 183,
            "name": "Superantipoison(2)",
            "members": true,
            "quantity": "1",
            "noted": false,
            "rarity": "8/100",
            "drop_requirements": null
        },
        "223": {
            "id": 223,
            "name": "Red spiders' eggs",
            "members": true,
            "quantity": "3-5",
            "noted": true,
            "rarity": "8/100",
            "drop_requirements": null
        },
        "554": {
            "id": 554,
            "name": "Fire rune",
            "members": true,
            "quantity": "30-50",
            "noted": false,
            "rarity": "5/100",
            "drop_requirements": null
        },
        "555": {
            "id": 555,
            "name": "Water rune",
            "members": true,
            "quantity": "30-50",
            "noted": false,
            "rarity": "5/100",
            "drop_requirements": null
        },
        "556": {
            "id": 556,
            "name": "Air rune",
            "members": true,
            "quantity": "30-50",
            "noted": false,
            "rarity": "5/100",
            "drop_requirements": null
        },
        "557": {
            "id": 557,
            "name": "Earth rune",
            "members": true,
            "quantity": "30-50",
            "noted": false,
            "rarity": "5/100",
            "drop_requirements": null
        },
        "560": {
            "id": 560,
            "name": "Death rune",
            "members": true,
            "quantity": "10-15",
            "noted": false,
            "rarity": "2/100",
            "drop_requirements": null
        },
        "561": {
            "id": 561,
            "name": "Nature rune",
            "members": true,
            "quantity": "10-15",
            "noted": false,
            "rarity": "2/100",
            "drop_requirements": null
        },
        "562": {
            "id": 562,
            "name": "Chaos rune",
            "members": true,
            "quantity": "10-15",
            "noted": false,
            "rarity": "2/100",
            "drop_requirements": null
        },
        "563": {
            "id": 563,
            "name": "Law rune",
            "members": true,
            "quantity": "5",
            "noted": false,
            "rarity": "1/100",
            "drop_requirements": null
        },
        "564": {
            "id": 564,
            "name": "Cosmic rune",
            "members": true,
            "quantity": "10-15",
            "noted": false,
            "rarity": "2/100",
            "drop_requirements": null
        },
        "566": {
            "id": 566,
            "name": "Soul rune",
            "members": true,
            "quantity": "5",
            "noted": false,
            "rarity": "1/100",
            "drop_requirements": null
        },
        "617": {
            "id": 617,
            "name": "Coins",
            "members": true,
            "quantity": "400-600",
            "noted": false,
            "rarity": "17/100",
            "drop_requirements": null
        },
        "1145": {
            "id": 1145,
            "name": "Adamant med helm",
            "members": true,
            "quantity": "1",
            "noted": false,
            "rarity": "4/100",
            "drop_requirements": null
        },
        "1147": {
            "id": 1147,
            "name": "Rune med helm",
            "members": true,
            "quantity": "1",
            "noted": false,
            "rarity": "1/100",
            "drop_requirements": null
        },
        "1213": {
            "id": 1213,
            "name": "Rune dagger",
            "members": true,
            "quantity": "1",
            "noted": false,
            "rarity": "1/100",
            "drop_requirements": null
        },
        "1301": {
            "id": 1301,
            "name": "Adamant longsword",
            "members": true,
            "quantity": "1",
            "noted": false,
            "rarity": "4/100",
            "drop_requirements": null
        },
        "2722": {
            "id": 2722,
            "name": "Clue scroll (hard)",
            "members": true,
            "quantity": "1",
            "noted": false,
            "rarity": "1/200",
            "drop_requirements": "forthos-dungeon-only"
        },
        "5937": {
            "id": 5937,
            "name": "Weapon poison(+)",
            "members": true,
            "quantity": "1",
            "noted": false,
            "rarity": "2/100",
            "drop_requirements": null
        },
        "23083": {
            "id": 23083,
            "name": "Brimstone key",
            "members": true,
            "quantity": "1",
            "noted": false,
            "rarity": "1/225",
            "drop_requirements": null
        },
        "23499": {
            "id": 23499,
            "name": "Grubby key",
            "members": true,
            "quantity": "1",
            "noted": false,
            "rarity": "1/100",
            "drop_requirements": "forthos-dungeon-only"
        },
        "23510": {
            "id": 23510,
            "name": "Tattered moon page",
            "members": true,
            "quantity": "1",
            "noted": false,
            "rarity": "1/30",
            "drop_requirements": "forthos-dungeon-only"
        },
        "23512": {
            "id": 23512,
            "name": "Tattered sun page",
            "members": true,
            "quantity": "1",
            "noted": false,
            "rarity": "1/30",
            "drop_requirements": "forthos-dungeon-only"
        },
        "23514": {
            "id": 23514,
            "name": "Tattered temple page",
            "members": true,
            "quantity": "1",
            "noted": false,
            "rarity": "1/30",
            "drop_requirements": "forthos-dungeon-only"
        }
    },
    "rare_drop_table": true
}