{
    "id": 8851,
    "name": "Knight of Ardougne",
    "incomplete": true,
    "members": true,
    "release_date": "2002-04-30",
    "combat_level": 27,
    "size": 1,
    "hitpoints": 52,
    "max_hit": 0,
    "attack_type": [
        "slash"
    ],
    "attack_speed": 5,
    "aggressive": false,
    "poisonous": false,
    "immune_poison": false,
    "immune_venom": false,
    "weakness": [
        "water spells"
    ],
    "slayer_monster": false,
    "slayer_level": null,
    "slayer_xp": null,
    "slayer_masters": [],
    "duplicate": false,
    "examine": "A member of Ardougne's militia.",
    "wiki_name": "Knight of Ardougne",
    "wiki_url": "https://oldschool.runescape.wiki/w/Knight_of_Ardougne",
    "attack_level": 38,
    "strength_level": 40,
    "defence_level": 31,
    "magic_level": 1,
    "ranged_level": 1,
    "attack_stab": 0,
    "attack_slash": 0,
    "attack_crush": 0,
    "attack_magic": 0,
    "attack_ranged": 0,
    "defence_stab": 39,
    "defence_slash": 40,
    "defence_crush": 36,
    "defence_magic": -11,
    "defence_ranged": 36,
    "attack_accuracy": 8,
    "melee_strength": 10,
    "ranged_strength": 0,
    "magic_damage": 0,
    "drops": {
        "526": {
            "id": 526,
            "name": "Bones",
            "members": true,
            "quantity": "1",
            "noted": false,
            "rarity": "1/1",
            "drop_requirements": null
        },
        "617": {
            "id": 617,
            "name": "Coins",
            "members": true,
            "quantity": "50",
            "noted": false,
            "rarity": "1/1",
            "drop_requirements": null
        }
    },
    "rare_drop_table": false
}