{
    "id": 9017,
    "name": "Mourner",
    "incomplete": true,
    "members": true,
    "release_date": "2002-08-27",
    "combat_level": 108,
    "size": 1,
    "hitpoints": 19,
    "max_hit": 2,
    "attack_type": [
        "crush"
    ],
    "attack_speed": 4,
    "aggressive": false,
    "poisonous": false,
    "immune_poison": false,
    "immune_venom": false,
    "weakness": [
        "magic"
    ],
    "slayer_monster": false,
    "slayer_level": null,
    "slayer_xp": null,
    "slayer_masters": [],
    "duplicate": false,
    "examine": "A mourner, or plague healer.",
    "wiki_name": "Mourner",
    "wiki_url": "https://oldschool.runescape.wiki/w/Mourner",
    "attack_level": 8,
    "strength_level": 8,
    "defence_level": 8,
    "magic_level": 1,
    "ranged_level": 1,
    "attack_stab": 0,
    "attack_slash": 0,
    "attack_crush": 0,
    "attack_magic": 0,
    "attack_ranged": 0,
    "defence_stab": 6,
    "defence_slash": 6,
    "defence_crush": 9,
    "defence_magic": 0,
    "defence_ranged": 0,
    "attack_accuracy": 6,
    "melee_strength": 2,
    "ranged_strength": 0,
    "magic_damage": 0,
    "drops": {
        "526": {
            "id": 526,
            "name": "Bones",
            "members": true,
            "quantity": "1",
            "noted": false,
            "rarity": "1/1",
            "drop_requirements": null
        },
        "1506": {
            "id": 1506,
            "name": "Gas mask",
            "members": true,
            "quantity": "1",
            "noted": false,
            "rarity": "1/1",
            "drop_requirements": null
        },
        "6064": {
            "id": 6064,
            "name": "Bloody mourner top",
            "members": true,
            "quantity": "1",
            "noted": false,
            "rarity": "1/1",
            "drop_requirements": null
        },
        "6065": {
            "id": 6065,
            "name": "Mourner top",
            "members": true,
            "quantity": "1",
            "noted": false,
            "rarity": "1/1",
            "drop_requirements": null
        },
        "6067": {
            "id": 6067,
            "name": "Mourner trousers",
            "members": true,
            "quantity": "1",
            "noted": false,
            "rarity": "1/1",
            "drop_requirements": null
        },
        "6068": {
            "id": 6068,
            "name": "Mourner gloves",
            "members": true,
            "quantity": "1",
            "noted": false,
            "rarity": "1/1",
            "drop_requirements": null
        },
        "6069": {
            "id": 6069,
            "name": "Mourner boots",
            "members": true,
            "quantity": "1",
            "noted": false,
            "rarity": "1/1",
            "drop_requirements": null
        },
        "6070": {
            "id": 6070,
            "name": "Mourner cloak",
            "members": true,
            "quantity": "1",
            "noted": false,
            "rarity": "1/1",
            "drop_requirements": null
        },
        "6071": {
            "id": 6071,
            "name": "Mourner letter",
            "members": true,
            "quantity": "1",
            "noted": false,
            "rarity": "1/1",
            "drop_requirements": null
        }
    },
    "rare_drop_table": false
}