{
    "id": 9029,
    "name": "Crystalline Unicorn",
    "incomplete": true,
    "members": true,
    "release_date": "2019-07-25",
    "combat_level": 48,
    "size": 2,
    "hitpoints": 0,
    "max_hit": 0,
    "attack_type": [
        "melee"
    ],
    "attack_speed": 4,
    "aggressive": true,
    "poisonous": false,
    "immune_poison": false,
    "immune_venom": false,
    "weakness": [],
    "slayer_monster": false,
    "slayer_level": null,
    "slayer_xp": null,
    "slayer_masters": [],
    "duplicate": false,
    "examine": "A crystal formed horse with a crystal formed horn.",
    "wiki_name": "Crystalline Unicorn",
    "wiki_url": "https://oldschool.runescape.wiki/w/Crystalline_Unicorn",
    "attack_level": 0,
    "strength_level": 0,
    "defence_level": 0,
    "magic_level": 0,
    "ranged_level": 0,
    "attack_stab": 0,
    "attack_slash": 0,
    "attack_crush": 0,
    "attack_magic": 0,
    "attack_ranged": 0,
    "defence_stab": 0,
    "defence_slash": 0,
    "defence_crush": 0,
    "defence_magic": 0,
    "defence_ranged": 0,
    "attack_accuracy": 0,
    "melee_strength": 0,
    "ranged_strength": 0,
    "magic_damage": 0,
    "drops": {
        "23834": {
            "id": 23834,
            "name": "Weapon frame",
            "members": true,
            "quantity": "1",
            "noted": false,
            "rarity": "1/8",
            "drop_requirements": null
        },
        "23866": {
            "id": 23866,
            "name": "Crystal shards",
            "members": true,
            "quantity": "50-105",
            "noted": false,
            "rarity": "1/1",
            "drop_requirements": null
        },
        "23872": {
            "id": 23872,
            "name": "Raw paddlefish",
            "members": true,
            "quantity": "4",
            "noted": false,
            "rarity": "1/8",
            "drop_requirements": null
        },
        "23904": {
            "id": 23904,
            "name": "Teleport crystal (The Gauntlet)",
            "members": true,
            "quantity": "1",
            "noted": false,
            "rarity": "1/32",
            "drop_requirements": null
        }
    },
    "rare_drop_table": false
}