{
    "id": 9036,
    "name": "Corrupted Hunllef",
    "incomplete": true,
    "members": true,
    "release_date": "2019-07-25",
    "combat_level": 894,
    "size": 5,
    "hitpoints": 1000,
    "max_hit": 0,
    "attack_type": [
        "melee",
        "ranged",
        "ranged",
        "magic"
    ],
    "attack_speed": 5,
    "aggressive": true,
    "poisonous": false,
    "immune_poison": true,
    "immune_venom": true,
    "weakness": [],
    "slayer_monster": false,
    "slayer_level": null,
    "slayer_xp": null,
    "slayer_masters": [],
    "duplicate": true,
    "examine": "A deadly predator formed from crystal.",
    "wiki_name": "Corrupted Hunllef",
    "wiki_url": "https://oldschool.runescape.wiki/w/Corrupted_Hunllef",
    "attack_level": 0,
    "strength_level": 0,
    "defence_level": 0,
    "magic_level": 0,
    "ranged_level": 0,
    "attack_stab": 0,
    "attack_slash": 0,
    "attack_crush": 0,
    "attack_magic": 0,
    "attack_ranged": 0,
    "defence_stab": 0,
    "defence_slash": 0,
    "defence_crush": 0,
    "defence_magic": 0,
    "defence_ranged": 0,
    "attack_accuracy": 0,
    "melee_strength": 0,
    "ranged_strength": 0,
    "magic_damage": 0,
    "drops": {},
    "rare_drop_table": false
}