{
    "id": 9040,
    "name": "Corrupted Rat",
    "incomplete": true,
    "members": true,
    "release_date": "2019-07-25",
    "combat_level": 34,
    "size": 2,
    "hitpoints": 0,
    "max_hit": 14,
    "attack_type": [
        "melee"
    ],
    "attack_speed": 4,
    "aggressive": true,
    "poisonous": false,
    "immune_poison": false,
    "immune_venom": false,
    "weakness": [],
    "slayer_monster": false,
    "slayer_level": null,
    "slayer_xp": null,
    "slayer_masters": [],
    "duplicate": false,
    "examine": "I wonder if he knows any corrupted turtles?",
    "wiki_name": "Corrupted Rat",
    "wiki_url": "https://oldschool.runescape.wiki/w/Corrupted_Rat",
    "attack_level": 30,
    "strength_level": 40,
    "defence_level": 30,
    "magic_level": 10,
    "ranged_level": 1,
    "attack_stab": 30,
    "attack_slash": 30,
    "attack_crush": 30,
    "attack_magic": 10,
    "attack_ranged": 1,
    "defence_stab": 50,
    "defence_slash": 1,
    "defence_crush": 50,
    "defence_magic": 1,
    "defence_ranged": 1,
    "attack_accuracy": 30,
    "melee_strength": 30,
    "ranged_strength": 1,
    "magic_damage": 10,
    "drops": {
        "23824": {
            "id": 23824,
            "name": "Corrupted shards",
            "members": true,
            "quantity": "10-30",
            "noted": false,
            "rarity": "1/1",
            "drop_requirements": null
        },
        "23835": {
            "id": 23835,
            "name": "Grym leaf (corrupted)",
            "members": true,
            "quantity": "1",
            "noted": false,
            "rarity": "1/8",
            "drop_requirements": null
        },
        "23858": {
            "id": 23858,
            "name": "Corrupted teleport crystal",
            "members": true,
            "quantity": "1",
            "noted": false,
            "rarity": "1/32",
            "drop_requirements": null
        },
        "23871": {
            "id": 23871,
            "name": "Weapon frame (corrupted)",
            "members": true,
            "quantity": "1",
            "noted": false,
            "rarity": "1/8",
            "drop_requirements": null
        },
        "23872": {
            "id": 23872,
            "name": "Raw paddlefish",
            "members": true,
            "quantity": "1,3",
            "noted": false,
            "rarity": "1/8",
            "drop_requirements": null
        }
    },
    "rare_drop_table": false
}