{
    "id": 9248,
    "name": "Arianwyn",
    "incomplete": true,
    "members": true,
    "release_date": "2019-07-25",
    "combat_level": 182,
    "size": 1,
    "hitpoints": 300,
    "max_hit": 38,
    "attack_type": [
        "ranged",
        "ranged"
    ],
    "attack_speed": 5,
    "aggressive": true,
    "poisonous": false,
    "immune_poison": true,
    "immune_venom": true,
    "weakness": [
        "melee"
    ],
    "slayer_monster": false,
    "slayer_level": null,
    "slayer_xp": null,
    "slayer_masters": [],
    "duplicate": true,
    "examine": "A concerned looking elf.",
    "wiki_name": "Arianwyn",
    "wiki_url": "https://oldschool.runescape.wiki/w/Arianwyn",
    "attack_level": 0,
    "strength_level": 0,
    "defence_level": 102,
    "magic_level": 102,
    "ranged_level": 368,
    "attack_stab": 0,
    "attack_slash": 0,
    "attack_crush": 0,
    "attack_magic": 0,
    "attack_ranged": 84,
    "defence_stab": 80,
    "defence_slash": 80,
    "defence_crush": 80,
    "defence_magic": 260,
    "defence_ranged": 180,
    "attack_accuracy": 0,
    "melee_strength": 0,
    "ranged_strength": 0,
    "magic_damage": 0,
    "drops": {},
    "rare_drop_table": false
}