{
    "id": 928,
    "name": "Kraka",
    "incomplete": false,
    "members": true,
    "release_date": "2004-08-09",
    "combat_level": 91,
    "size": 2,
    "hitpoints": 120,
    "max_hit": 23,
    "attack_type": [
        "crush"
    ],
    "attack_speed": 6,
    "aggressive": true,
    "poisonous": false,
    "immune_poison": false,
    "immune_venom": false,
    "weakness": [
        "slash",
        "stab"
    ],
    "slayer_monster": true,
    "slayer_level": 1,
    "slayer_xp": 126.0,
    "slayer_masters": [
        "vannaka",
        "chaeldar",
        "nieve",
        "duradel"
    ],
    "duplicate": false,
    "examine": "A nasty looking troll.",
    "wiki_name": "Kraka",
    "wiki_url": "https://oldschool.runescape.wiki/w/Kraka",
    "attack_level": 50,
    "strength_level": 100,
    "defence_level": 50,
    "magic_level": 0,
    "ranged_level": 0,
    "attack_stab": 0,
    "attack_slash": 0,
    "attack_crush": 0,
    "attack_magic": 0,
    "attack_ranged": 0,
    "defence_stab": 25,
    "defence_slash": 25,
    "defence_crush": 40,
    "defence_magic": 200,
    "defence_ranged": 200,
    "attack_accuracy": 40,
    "melee_strength": 70,
    "ranged_strength": 0,
    "magic_damage": 0,
    "drops": {
        "359": {
            "id": 359,
            "name": "Raw tuna",
            "members": true,
            "quantity": "4",
            "noted": true,
            "rarity": "2/128",
            "drop_requirements": null
        },
        "453": {
            "id": 453,
            "name": "Coal",
            "members": true,
            "quantity": "6",
            "noted": true,
            "rarity": "3/128",
            "drop_requirements": null
        },
        "532": {
            "id": 532,
            "name": "Big bones",
            "members": true,
            "quantity": "1",
            "noted": false,
            "rarity": "1/1",
            "drop_requirements": null
        },
        "557": {
            "id": 557,
            "name": "Earth rune",
            "members": true,
            "quantity": "25",
            "noted": false,
            "rarity": "1/128",
            "drop_requirements": null
        },
        "561": {
            "id": 561,
            "name": "Nature rune",
            "members": true,
            "quantity": "16",
            "noted": false,
            "rarity": "5/128",
            "drop_requirements": null
        },
        "563": {
            "id": 563,
            "name": "Law rune",
            "members": true,
            "quantity": "4",
            "noted": false,
            "rarity": "3/128",
            "drop_requirements": null
        },
        "617": {
            "id": 617,
            "name": "Coins",
            "members": true,
            "quantity": "420",
            "noted": false,
            "rarity": "1/128",
            "drop_requirements": null
        },
        "1119": {
            "id": 1119,
            "name": "Steel platebody",
            "members": true,
            "quantity": "1",
            "noted": false,
            "rarity": "4/128",
            "drop_requirements": null
        },
        "1121": {
            "id": 1121,
            "name": "Mithril platebody",
            "members": true,
            "quantity": "1",
            "noted": false,
            "rarity": "1/128",
            "drop_requirements": null
        },
        "1183": {
            "id": 1183,
            "name": "Adamant sq shield",
            "members": true,
            "quantity": "1",
            "noted": false,
            "rarity": "1/128",
            "drop_requirements": null
        },
        "1339": {
            "id": 1339,
            "name": "Steel warhammer",
            "members": true,
            "quantity": "1",
            "noted": false,
            "rarity": "3/128",
            "drop_requirements": null
        },
        "1341": {
            "id": 1341,
            "name": "Black warhammer",
            "members": true,
            "quantity": "1",
            "noted": false,
            "rarity": "3/128",
            "drop_requirements": null
        },
        "1347": {
            "id": 1347,
            "name": "Rune warhammer",
            "members": true,
            "quantity": "1",
            "noted": false,
            "rarity": "1/128",
            "drop_requirements": null
        },
        "1357": {
            "id": 1357,
            "name": "Adamant axe",
            "members": true,
            "quantity": "1",
            "noted": false,
            "rarity": "2/128",
            "drop_requirements": null
        },
        "3122": {
            "id": 3122,
            "name": "Granite shield",
            "members": true,
            "quantity": "1",
            "noted": false,
            "rarity": "1/128",
            "drop_requirements": null
        },
        "7884": {
            "id": 7884,
            "name": "Troll bone",
            "members": true,
            "quantity": "1",
            "noted": false,
            "rarity": "1/4",
            "drop_requirements": null
        },
        "10976": {
            "id": 10976,
            "name": "Long bone",
            "members": true,
            "quantity": "1",
            "noted": false,
            "rarity": "1/400",
            "drop_requirements": null
        },
        "10977": {
            "id": 10977,
            "name": "Curved bone",
            "members": true,
            "quantity": "1",
            "noted": false,
            "rarity": "1/5012.5",
            "drop_requirements": null
        },
        "13483": {
            "id": 13483,
            "name": "Ensouled troll head",
            "members": true,
            "quantity": "1",
            "noted": false,
            "rarity": "1/28",
            "drop_requirements": null
        }
    },
    "rare_drop_table": true
}