{
    "id": 9284,
    "name": "Basilisk",
    "incomplete": false,
    "members": true,
    "release_date": "2005-01-26",
    "combat_level": 61,
    "size": 2,
    "hitpoints": 75,
    "max_hit": 5,
    "attack_type": [
        "slash"
    ],
    "attack_speed": 4,
    "aggressive": false,
    "poisonous": false,
    "immune_poison": false,
    "immune_venom": false,
    "weakness": [
        "crush",
        "ranged"
    ],
    "slayer_monster": true,
    "slayer_level": 40,
    "slayer_xp": 75.0,
    "slayer_masters": [
        "vannaka",
        "chaeldar",
        "konar",
        "nieve",
        "duradel"
    ],
    "duplicate": true,
    "examine": "The eyes of evil.",
    "wiki_name": "Basilisk",
    "wiki_url": "https://oldschool.runescape.wiki/w/Basilisk",
    "attack_level": 30,
    "strength_level": 45,
    "defence_level": 75,
    "magic_level": 1,
    "ranged_level": 1,
    "attack_stab": 0,
    "attack_slash": 0,
    "attack_crush": 0,
    "attack_magic": 0,
    "attack_ranged": 0,
    "defence_stab": 20,
    "defence_slash": 20,
    "defence_crush": 0,
    "defence_magic": 20,
    "defence_ranged": 0,
    "attack_accuracy": 0,
    "melee_strength": 0,
    "ranged_strength": 0,
    "magic_damage": 0,
    "drops": {
        "449": {
            "id": 449,
            "name": "Adamantite ore",
            "members": true,
            "quantity": "1",
            "noted": false,
            "rarity": "3/128",
            "drop_requirements": null
        },
        "526": {
            "id": 526,
            "name": "Bones",
            "members": true,
            "quantity": "1",
            "noted": false,
            "rarity": "1/1",
            "drop_requirements": null
        },
        "555": {
            "id": 555,
            "name": "Water rune",
            "members": true,
            "quantity": "75",
            "noted": false,
            "rarity": "8/128",
            "drop_requirements": null
        },
        "561": {
            "id": 561,
            "name": "Nature rune",
            "members": true,
            "quantity": "37",
            "noted": false,
            "rarity": "1/128",
            "drop_requirements": null
        },
        "563": {
            "id": 563,
            "name": "Law rune",
            "members": true,
            "quantity": "3",
            "noted": false,
            "rarity": "3/128",
            "drop_requirements": null
        },
        "617": {
            "id": 617,
            "name": "Coins",
            "members": true,
            "quantity": "440",
            "noted": false,
            "rarity": "1/128",
            "drop_requirements": null
        },
        "1161": {
            "id": 1161,
            "name": "Adamant full helm",
            "members": true,
            "quantity": "1",
            "noted": false,
            "rarity": "1/128",
            "drop_requirements": null
        },
        "1197": {
            "id": 1197,
            "name": "Mithril kiteshield",
            "members": true,
            "quantity": "1",
            "noted": false,
            "rarity": "1/128",
            "drop_requirements": null
        },
        "1213": {
            "id": 1213,
            "name": "Rune dagger",
            "members": true,
            "quantity": "1",
            "noted": false,
            "rarity": "1/128",
            "drop_requirements": null
        },
        "1243": {
            "id": 1243,
            "name": "Mithril spear",
            "members": true,
            "quantity": "1",
            "noted": false,
            "rarity": "2/128",
            "drop_requirements": null
        },
        "1355": {
            "id": 1355,
            "name": "Mithril axe",
            "members": true,
            "quantity": "1",
            "noted": false,
            "rarity": "3/128",
            "drop_requirements": null
        },
        "1365": {
            "id": 1365,
            "name": "Steel battleaxe",
            "members": true,
            "quantity": "1",
            "noted": false,
            "rarity": "3/128",
            "drop_requirements": null
        },
        "4109": {
            "id": 4109,
            "name": "Mystic hat (light)",
            "members": true,
            "quantity": "1",
            "noted": false,
            "rarity": "1/512",
            "drop_requirements": null
        },
        "7899": {
            "id": 7899,
            "name": "Basilisk bone",
            "members": true,
            "quantity": "1",
            "noted": false,
            "rarity": "1/4",
            "drop_requirements": null
        },
        "7977": {
            "id": 7977,
            "name": "Basilisk head",
            "members": true,
            "quantity": "1",
            "noted": false,
            "rarity": "1/2000",
            "drop_requirements": null
        },
        "12073": {
            "id": 12073,
            "name": "Clue scroll (elite)",
            "members": true,
            "quantity": "1",
            "noted": false,
            "rarity": "1/1",
            "drop_requirements": null
        },
        "20543": {
            "id": 20543,
            "name": "Reward casket (elite)",
            "members": true,
            "quantity": "1",
            "noted": false,
            "rarity": "1/1",
            "drop_requirements": null
        },
        "23083": {
            "id": 23083,
            "name": "Brimstone key",
            "members": true,
            "quantity": "1",
            "noted": false,
            "rarity": "1/404.2",
            "drop_requirements": null
        }
    },
    "rare_drop_table": false
}