{
    "id": 9291,
    "name": "The Jormungand",
    "incomplete": false,
    "members": true,
    "release_date": "2019-09-26",
    "combat_level": 363,
    "size": 5,
    "hitpoints": 600,
    "max_hit": 22,
    "attack_type": [
        "melee",
        "magic"
    ],
    "attack_speed": 5,
    "aggressive": true,
    "poisonous": false,
    "immune_poison": true,
    "immune_venom": true,
    "weakness": [
        "crush",
        "ranged"
    ],
    "slayer_monster": true,
    "slayer_level": 40,
    "slayer_xp": 600.0,
    "slayer_masters": [
        "vannaka",
        "chaeldar"
    ],
    "duplicate": false,
    "examine": "The serpent king.",
    "wiki_name": "The Jormungand",
    "wiki_url": "https://oldschool.runescape.wiki/w/The_Jormungand",
    "attack_level": 180,
    "strength_level": 180,
    "defence_level": 180,
    "magic_level": 180,
    "ranged_level": 180,
    "attack_stab": 0,
    "attack_slash": 0,
    "attack_crush": 0,
    "attack_magic": 0,
    "attack_ranged": 0,
    "defence_stab": 50,
    "defence_slash": 50,
    "defence_crush": 10,
    "defence_magic": 50,
    "defence_ranged": 50,
    "attack_accuracy": 0,
    "melee_strength": 12,
    "ranged_strength": 12,
    "magic_damage": 12,
    "drops": {},
    "rare_drop_table": false
}