{
    "id": 957,
    "name": "Kalphite Soldier",
    "incomplete": false,
    "members": true,
    "release_date": "2004-09-07",
    "combat_level": 85,
    "size": 3,
    "hitpoints": 90,
    "max_hit": 8,
    "attack_type": [
        "crush"
    ],
    "attack_speed": 4,
    "aggressive": true,
    "poisonous": true,
    "immune_poison": false,
    "immune_venom": false,
    "weakness": [
        "crush",
        "keris"
    ],
    "slayer_monster": true,
    "slayer_level": 1,
    "slayer_xp": 90.0,
    "slayer_masters": [
        "turael",
        "mazchna",
        "vannaka",
        "chaeldar",
        "konar",
        "nieve",
        "duradel"
    ],
    "duplicate": false,
    "examine": "I don't think insect repellent will work...",
    "wiki_name": "Kalphite Soldier",
    "wiki_url": "https://oldschool.runescape.wiki/w/Kalphite_Soldier",
    "attack_level": 70,
    "strength_level": 70,
    "defence_level": 70,
    "magic_level": 1,
    "ranged_level": 1,
    "attack_stab": 0,
    "attack_slash": 0,
    "attack_crush": 0,
    "attack_magic": 0,
    "attack_ranged": 0,
    "defence_stab": 25,
    "defence_slash": 25,
    "defence_crush": 5,
    "defence_magic": 50,
    "defence_ranged": 50,
    "attack_accuracy": 0,
    "melee_strength": 0,
    "ranged_strength": 0,
    "magic_damage": 0,
    "drops": {
        "554": {
            "id": 554,
            "name": "Fire rune",
            "members": true,
            "quantity": "60",
            "noted": false,
            "rarity": "8/128",
            "drop_requirements": null
        },
        "560": {
            "id": 560,
            "name": "Death rune",
            "members": true,
            "quantity": "3",
            "noted": false,
            "rarity": "3/128",
            "drop_requirements": null
        },
        "561": {
            "id": 561,
            "name": "Nature rune",
            "members": true,
            "quantity": "1",
            "noted": false,
            "rarity": "2/128",
            "drop_requirements": null
        },
        "562": {
            "id": 562,
            "name": "Chaos rune",
            "members": true,
            "quantity": "12",
            "noted": false,
            "rarity": "5/128",
            "drop_requirements": null
        },
        "617": {
            "id": 617,
            "name": "Coins",
            "members": true,
            "quantity": "450",
            "noted": false,
            "rarity": "1/128",
            "drop_requirements": null
        },
        "1109": {
            "id": 1109,
            "name": "Mithril chainbody",
            "members": true,
            "quantity": "1",
            "noted": false,
            "rarity": "1/128",
            "drop_requirements": null
        },
        "1145": {
            "id": 1145,
            "name": "Adamant med helm",
            "members": true,
            "quantity": "1",
            "noted": false,
            "rarity": "1/128",
            "drop_requirements": null
        },
        "1157": {
            "id": 1157,
            "name": "Steel full helm",
            "members": true,
            "quantity": "1",
            "noted": false,
            "rarity": "4/128",
            "drop_requirements": null
        },
        "1181": {
            "id": 1181,
            "name": "Mithril sq shield",
            "members": true,
            "quantity": "1",
            "noted": false,
            "rarity": "1/128",
            "drop_requirements": null
        },
        "1325": {
            "id": 1325,
            "name": "Steel scimitar",
            "members": true,
            "quantity": "1",
            "noted": false,
            "rarity": "3/128",
            "drop_requirements": null
        },
        "1353": {
            "id": 1353,
            "name": "Steel axe",
            "members": true,
            "quantity": "1",
            "noted": false,
            "rarity": "4/128",
            "drop_requirements": null
        },
        "1823": {
            "id": 1823,
            "name": "Waterskin(4)",
            "members": true,
            "quantity": "1",
            "noted": false,
            "rarity": "3/128",
            "drop_requirements": null
        },
        "13489": {
            "id": 13489,
            "name": "Ensouled kalphite head",
            "members": true,
            "quantity": "1",
            "noted": false,
            "rarity": "1/90",
            "drop_requirements": null
        },
        "23083": {
            "id": 23083,
            "name": "Brimstone key",
            "members": true,
            "quantity": "1",
            "noted": false,
            "rarity": "1/145",
            "drop_requirements": null
        }
    },
    "rare_drop_table": true
}