{
    "id": 963,
    "name": "Kalphite Queen",
    "incomplete": false,
    "members": true,
    "release_date": "2004-09-07",
    "combat_level": 333,
    "size": 5,
    "hitpoints": 255,
    "max_hit": 31,
    "attack_type": [
        "stab",
        "ranged",
        "ranged",
        "magic"
    ],
    "attack_speed": 4,
    "aggressive": true,
    "poisonous": false,
    "immune_poison": false,
    "immune_venom": false,
    "weakness": [
        "crush",
        "keris"
    ],
    "slayer_monster": true,
    "slayer_level": 1,
    "slayer_xp": 535.5,
    "slayer_masters": [
        "turael",
        "mazchna",
        "vannaka",
        "chaeldar",
        "konar",
        "nieve",
        "duradel"
    ],
    "duplicate": false,
    "examine": "I don't think insect repellent will work...",
    "wiki_name": "Kalphite Queen (Crawling)",
    "wiki_url": "https://oldschool.runescape.wiki/w/Kalphite_Queen#Crawling",
    "attack_level": 300,
    "strength_level": 300,
    "defence_level": 300,
    "magic_level": 150,
    "ranged_level": 1,
    "attack_stab": 0,
    "attack_slash": 0,
    "attack_crush": 0,
    "attack_magic": 0,
    "attack_ranged": 0,
    "defence_stab": 50,
    "defence_slash": 50,
    "defence_crush": 10,
    "defence_magic": 100,
    "defence_ranged": 100,
    "attack_accuracy": 0,
    "melee_strength": 0,
    "ranged_strength": 0,
    "magic_damage": 0,
    "drops": {
        "169": {
            "id": 169,
            "name": "Ranging potion(3)",
            "members": true,
            "quantity": "1",
            "noted": false,
            "rarity": "1/9",
            "drop_requirements": null
        },
        "183": {
            "id": 183,
            "name": "Superantipoison(2)",
            "members": true,
            "quantity": "1",
            "noted": false,
            "rarity": "1/9",
            "drop_requirements": null
        },
        "207": {
            "id": 207,
            "name": "Grimy ranarr weed",
            "members": true,
            "quantity": "25",
            "noted": true,
            "rarity": "2/128",
            "drop_requirements": null
        },
        "219": {
            "id": 219,
            "name": "Grimy torstol",
            "members": true,
            "quantity": "25",
            "noted": true,
            "rarity": "2/128",
            "drop_requirements": null
        },
        "245": {
            "id": 245,
            "name": "Wine of zamorak",
            "members": true,
            "quantity": "60",
            "noted": true,
            "rarity": "10/128",
            "drop_requirements": null
        },
        "385": {
            "id": 385,
            "name": "Shark",
            "members": true,
            "quantity": "2",
            "noted": false,
            "rarity": "1/9",
            "drop_requirements": null
        },
        "444": {
            "id": 444,
            "name": "Gold ore",
            "members": true,
            "quantity": "250",
            "noted": true,
            "rarity": "4/128",
            "drop_requirements": null
        },
        "560": {
            "id": 560,
            "name": "Death rune",
            "members": true,
            "quantity": "150",
            "noted": false,
            "rarity": "6/128",
            "drop_requirements": null
        },
        "565": {
            "id": 565,
            "name": "Blood rune",
            "members": true,
            "quantity": "100",
            "noted": false,
            "rarity": "6/128",
            "drop_requirements": null
        },
        "617": {
            "id": 617,
            "name": "Coins",
            "members": true,
            "quantity": "15000-20000",
            "noted": false,
            "rarity": "5/128",
            "drop_requirements": null
        },
        "888": {
            "id": 888,
            "name": "Mithril arrow",
            "members": true,
            "quantity": "500",
            "noted": false,
            "rarity": "5/128",
            "drop_requirements": null
        },
        "892": {
            "id": 892,
            "name": "Rune arrow",
            "members": true,
            "quantity": "250",
            "noted": false,
            "rarity": "3/128",
            "drop_requirements": null
        },
        "1113": {
            "id": 1113,
            "name": "Rune chainbody",
            "members": true,
            "quantity": "1",
            "noted": false,
            "rarity": "4.5/128",
            "drop_requirements": null
        },
        "1391": {
            "id": 1391,
            "name": "Battlestaff",
            "members": true,
            "quantity": "10",
            "noted": true,
            "rarity": "5/128",
            "drop_requirements": null
        },
        "1513": {
            "id": 1513,
            "name": "Magic logs",
            "members": true,
            "quantity": "60",
            "noted": true,
            "rarity": "4/128",
            "drop_requirements": null
        },
        "1617": {
            "id": 1617,
            "name": "Uncut diamond",
            "members": true,
            "quantity": "25",
            "noted": true,
            "rarity": "3/128",
            "drop_requirements": null
        },
        "1619": {
            "id": 1619,
            "name": "Uncut ruby",
            "members": true,
            "quantity": "25",
            "noted": true,
            "rarity": "3/128",
            "drop_requirements": null
        },
        "1621": {
            "id": 1621,
            "name": "Uncut emerald",
            "members": true,
            "quantity": "25",
            "noted": true,
            "rarity": "3/128",
            "drop_requirements": null
        },
        "1783": {
            "id": 1783,
            "name": "Bucket of sand",
            "members": true,
            "quantity": "100",
            "noted": true,
            "rarity": "4/128",
            "drop_requirements": null
        },
        "1987": {
            "id": 1987,
            "name": "Grapes",
            "members": true,
            "quantity": "100",
            "noted": true,
            "rarity": "5/128",
            "drop_requirements": null
        },
        "2363": {
            "id": 2363,
            "name": "Runite bar",
            "members": true,
            "quantity": "3",
            "noted": true,
            "rarity": "5/128",
            "drop_requirements": null
        },
        "2434": {
            "id": 2434,
            "name": "Prayer potion(4)",
            "members": true,
            "quantity": "2",
            "noted": false,
            "rarity": "1/9",
            "drop_requirements": null
        },
        "2501": {
            "id": 2501,
            "name": "Red d'hide body",
            "members": true,
            "quantity": "1",
            "noted": false,
            "rarity": "4/128",
            "drop_requirements": null
        },
        "2513": {
            "id": 2513,
            "name": "Dragon chainbody",
            "members": true,
            "quantity": "1",
            "noted": false,
            "rarity": "1/128",
            "drop_requirements": null
        },
        "3024": {
            "id": 3024,
            "name": "Super restore(4)",
            "members": true,
            "quantity": "1",
            "noted": false,
            "rarity": "1/9",
            "drop_requirements": null
        },
        "3049": {
            "id": 3049,
            "name": "Grimy toadflax",
            "members": true,
            "quantity": "25",
            "noted": true,
            "rarity": "2/128",
            "drop_requirements": null
        },
        "3051": {
            "id": 3051,
            "name": "Grimy snapdragon",
            "members": true,
            "quantity": "25",
            "noted": true,
            "rarity": "2/128",
            "drop_requirements": null
        },
        "3053": {
            "id": 3053,
            "name": "Lava battlestaff",
            "members": true,
            "quantity": "1",
            "noted": false,
            "rarity": "2/128",
            "drop_requirements": null
        },
        "3138": {
            "id": 3138,
            "name": "Potato cactus",
            "members": true,
            "quantity": "100",
            "noted": true,
            "rarity": "8/128",
            "drop_requirements": null
        },
        "5288": {
            "id": 5288,
            "name": "Papaya tree seed",
            "members": true,
            "quantity": "2",
            "noted": false,
            "rarity": "3/128",
            "drop_requirements": null
        },
        "5289": {
            "id": 5289,
            "name": "Palm tree seed",
            "members": true,
            "quantity": "2",
            "noted": false,
            "rarity": "3/128",
            "drop_requirements": null
        },
        "5304": {
            "id": 5304,
            "name": "Torstol seed",
            "members": true,
            "quantity": "2",
            "noted": false,
            "rarity": "4/128",
            "drop_requirements": null
        },
        "5316": {
            "id": 5316,
            "name": "Magic seed",
            "members": true,
            "quantity": "2",
            "noted": false,
            "rarity": "3/128",
            "drop_requirements": null
        },
        "5321": {
            "id": 5321,
            "name": "Watermelon seed",
            "members": true,
            "quantity": "25",
            "noted": false,
            "rarity": "3/128",
            "drop_requirements": null
        },
        "5667": {
            "id": 5667,
            "name": "Rune knife(p++)",
            "members": true,
            "quantity": "25",
            "noted": false,
            "rarity": "4/128",
            "drop_requirements": null
        },
        "5940": {
            "id": 5940,
            "name": "Weapon poison(++)",
            "members": true,
            "quantity": "5",
            "noted": true,
            "rarity": "5/128",
            "drop_requirements": null
        },
        "6016": {
            "id": 6016,
            "name": "Cactus spine",
            "members": true,
            "quantity": "10",
            "noted": true,
            "rarity": "3/128",
            "drop_requirements": null
        },
        "6685": {
            "id": 6685,
            "name": "Saradomin brew(4)",
            "members": true,
            "quantity": "1",
            "noted": false,
            "rarity": "1/9",
            "drop_requirements": null
        },
        "7158": {
            "id": 7158,
            "name": "Dragon 2h sword",
            "members": true,
            "quantity": "1",
            "noted": false,
            "rarity": "1/256",
            "drop_requirements": null
        },
        "7946": {
            "id": 7946,
            "name": "Monkfish",
            "members": true,
            "quantity": "3",
            "noted": false,
            "rarity": "1/9",
            "drop_requirements": null
        },
        "7981": {
            "id": 7981,
            "name": "Kq head",
            "members": true,
            "quantity": "1",
            "noted": false,
            "rarity": "1/128",
            "drop_requirements": null
        },
        "11936": {
            "id": 11936,
            "name": "Dark crab",
            "members": true,
            "quantity": "2",
            "noted": false,
            "rarity": "1/9",
            "drop_requirements": null
        },
        "12073": {
            "id": 12073,
            "name": "Clue scroll (elite)",
            "members": true,
            "quantity": "1",
            "noted": false,
            "rarity": "1/100",
            "drop_requirements": null
        },
        "12647": {
            "id": 12647,
            "name": "Kalphite princess",
            "members": true,
            "quantity": "1",
            "noted": false,
            "rarity": "1/3000",
            "drop_requirements": null
        },
        "12699": {
            "id": 12699,
            "name": "Super combat potion(2)",
            "members": true,
            "quantity": "1",
            "noted": false,
            "rarity": "1/9",
            "drop_requirements": null
        },
        "12885": {
            "id": 12885,
            "name": "Jar of sand",
            "members": true,
            "quantity": "1",
            "noted": false,
            "rarity": "1/2000",
            "drop_requirements": null
        },
        "13489": {
            "id": 13489,
            "name": "Ensouled kalphite head",
            "members": true,
            "quantity": "1",
            "noted": false,
            "rarity": "1/20",
            "drop_requirements": null
        },
        "22671": {
            "id": 22671,
            "name": "Kq head (tattered)",
            "members": true,
            "quantity": "1",
            "noted": false,
            "rarity": "1/1",
            "drop_requirements": null
        },
        "23083": {
            "id": 23083,
            "name": "Brimstone key",
            "members": true,
            "quantity": "1",
            "noted": false,
            "rarity": "1/53.4",
            "drop_requirements": null
        }
    },
    "rare_drop_table": true
}