{
    "id": 971,
    "name": "Dagannoth",
    "incomplete": false,
    "members": true,
    "release_date": "2004-11-17",
    "combat_level": 74,
    "size": 1,
    "hitpoints": 70,
    "max_hit": 8,
    "attack_type": [
        "ranged",
        "ranged"
    ],
    "attack_speed": 4,
    "aggressive": true,
    "poisonous": false,
    "immune_poison": false,
    "immune_venom": false,
    "weakness": [
        "magic"
    ],
    "slayer_monster": true,
    "slayer_level": 1,
    "slayer_xp": 70.0,
    "slayer_masters": [
        "vannaka",
        "chaeldar",
        "konar",
        "nieve",
        "duradel"
    ],
    "duplicate": true,
    "examine": "A horror from the ocean depths...",
    "wiki_name": "Dagannoth (Lighthouse) (Lv 74)",
    "wiki_url": "https://oldschool.runescape.wiki/w/Dagannoth_(Lighthouse)#Lv_74",
    "attack_level": 68,
    "strength_level": 70,
    "defence_level": 50,
    "magic_level": 1,
    "ranged_level": 1,
    "attack_stab": 0,
    "attack_slash": 0,
    "attack_crush": 0,
    "attack_magic": 0,
    "attack_ranged": 0,
    "defence_stab": 0,
    "defence_slash": 0,
    "defence_crush": 0,
    "defence_magic": 0,
    "defence_ranged": 0,
    "attack_accuracy": 0,
    "melee_strength": 0,
    "ranged_strength": 0,
    "magic_damage": 0,
    "drops": {
        "45": {
            "id": 45,
            "name": "Opal bolt tips",
            "members": true,
            "quantity": "12",
            "noted": false,
            "rarity": "2/128",
            "drop_requirements": null
        },
        "301": {
            "id": 301,
            "name": "Lobster pot",
            "members": true,
            "quantity": "1",
            "noted": false,
            "rarity": "12/128",
            "drop_requirements": null
        },
        "311": {
            "id": 311,
            "name": "Harpoon",
            "members": true,
            "quantity": "1",
            "noted": false,
            "rarity": "3/128",
            "drop_requirements": null
        },
        "313": {
            "id": 313,
            "name": "Fishing bait",
            "members": true,
            "quantity": "50",
            "noted": false,
            "rarity": "2/128",
            "drop_requirements": null
        },
        "314": {
            "id": 314,
            "name": "Feather",
            "members": true,
            "quantity": "15",
            "noted": false,
            "rarity": "2/128",
            "drop_requirements": null
        },
        "327": {
            "id": 327,
            "name": "Raw sardine",
            "members": true,
            "quantity": "5",
            "noted": false,
            "rarity": "4/128",
            "drop_requirements": null
        },
        "345": {
            "id": 345,
            "name": "Raw herring",
            "members": true,
            "quantity": "3",
            "noted": false,
            "rarity": "4/128",
            "drop_requirements": null
        },
        "359": {
            "id": 359,
            "name": "Raw tuna",
            "members": true,
            "quantity": "1",
            "noted": false,
            "rarity": "2/128",
            "drop_requirements": null
        },
        "377": {
            "id": 377,
            "name": "Raw lobster",
            "members": true,
            "quantity": "1",
            "noted": false,
            "rarity": "2/128",
            "drop_requirements": null
        },
        "401": {
            "id": 401,
            "name": "Seaweed",
            "members": true,
            "quantity": "10",
            "noted": false,
            "rarity": "2/128",
            "drop_requirements": null
        },
        "405": {
            "id": 405,
            "name": "Casket",
            "members": true,
            "quantity": "1",
            "noted": false,
            "rarity": "1/128",
            "drop_requirements": null
        },
        "413": {
            "id": 413,
            "name": "Oyster pearls",
            "members": true,
            "quantity": "2",
            "noted": false,
            "rarity": "1/128",
            "drop_requirements": null
        },
        "526": {
            "id": 526,
            "name": "Bones",
            "members": true,
            "quantity": "1",
            "noted": false,
            "rarity": "1/1",
            "drop_requirements": null
        },
        "555": {
            "id": 555,
            "name": "Water rune",
            "members": true,
            "quantity": "15",
            "noted": false,
            "rarity": "4/128",
            "drop_requirements": null
        },
        "617": {
            "id": 617,
            "name": "Coins",
            "members": true,
            "quantity": "41",
            "noted": false,
            "rarity": "6/128",
            "drop_requirements": null
        },
        "828": {
            "id": 828,
            "name": "Mithril javelin",
            "members": true,
            "quantity": "3",
            "noted": false,
            "rarity": "1/128",
            "drop_requirements": null
        },
        "886": {
            "id": 886,
            "name": "Steel arrow",
            "members": true,
            "quantity": "15",
            "noted": false,
            "rarity": "2/128",
            "drop_requirements": null
        },
        "1237": {
            "id": 1237,
            "name": "Bronze spear",
            "members": true,
            "quantity": "1",
            "noted": false,
            "rarity": "5/128",
            "drop_requirements": null
        },
        "1239": {
            "id": 1239,
            "name": "Iron spear",
            "members": true,
            "quantity": "1",
            "noted": false,
            "rarity": "6/128",
            "drop_requirements": null
        },
        "1243": {
            "id": 1243,
            "name": "Mithril spear",
            "members": true,
            "quantity": "1",
            "noted": false,
            "rarity": "1/128",
            "drop_requirements": null
        },
        "2801": {
            "id": 2801,
            "name": "Clue scroll (medium)",
            "members": true,
            "quantity": "1",
            "noted": false,
            "rarity": "1/128",
            "drop_requirements": null
        },
        "7857": {
            "id": 7857,
            "name": "Dagannoth ribs",
            "members": true,
            "quantity": "1",
            "noted": false,
            "rarity": "1/4",
            "drop_requirements": null
        },
        "13492": {
            "id": 13492,
            "name": "Ensouled dagannoth head",
            "members": true,
            "quantity": "1",
            "noted": false,
            "rarity": "1/40",
            "drop_requirements": null
        },
        "23083": {
            "id": 23083,
            "name": "Brimstone key",
            "members": true,
            "quantity": "1",
            "noted": false,
            "rarity": "1/235.2",
            "drop_requirements": null
        }
    },
    "rare_drop_table": true
}