{
    "id": 992,
    "name": "Sigmund",
    "incomplete": true,
    "members": true,
    "release_date": "2006-06-21",
    "combat_level": 50,
    "size": 1,
    "hitpoints": 60,
    "max_hit": 5,
    "attack_type": [
        "crush"
    ],
    "attack_speed": 4,
    "aggressive": true,
    "poisonous": false,
    "immune_poison": false,
    "immune_venom": false,
    "weakness": [
        "magic"
    ],
    "slayer_monster": false,
    "slayer_level": null,
    "slayer_xp": null,
    "slayer_masters": [],
    "duplicate": true,
    "examine": "Former advisor to the Duke of Lumbridge.",
    "wiki_name": "Sigmund",
    "wiki_url": "https://oldschool.runescape.wiki/w/Sigmund",
    "attack_level": 45,
    "strength_level": 45,
    "defence_level": 24,
    "magic_level": 1,
    "ranged_level": 1,
    "attack_stab": 0,
    "attack_slash": 0,
    "attack_crush": 0,
    "attack_magic": 8,
    "attack_ranged": 0,
    "defence_stab": 0,
    "defence_slash": 0,
    "defence_crush": 0,
    "defence_magic": 0,
    "defence_ranged": 0,
    "attack_accuracy": 0,
    "melee_strength": 0,
    "ranged_strength": 0,
    "magic_damage": 0,
    "drops": {
        "5010": {
            "id": 5010,
            "name": "Key (The Lost Tribe)",
            "members": true,
            "quantity": "1",
            "noted": false,
            "rarity": "1/1",
            "drop_requirements": null
        }
    },
    "rare_drop_table": false
}