{
    "id": 12269,
    "name": "Bandos stole",
    "incomplete": true,
    "members": true,
    "tradeable": true,
    "tradeable_on_ge": true,
    "stackable": false,
    "noted": false,
    "noteable": true,
    "linked_id_item": null,
    "linked_id_noted": 12270,
    "linked_id_placeholder": 15875,
    "placeholder": false,
    "equipable": true,
    "equipable_by_player": true,
    "equipable_weapon": false,
    "cost": 2500,
    "lowalch": 1000,
    "highalch": 1500,
    "weight": 0.0,
    "buy_limit": 8,
    "quest_item": false,
    "release_date": "2014-06-12",
    "duplicate": false,
    "examine": "A Bandos stole.",
    "wiki_name": "Bandos stole",
    "wiki_url": "https://oldschool.runescape.wiki/w/Bandos_stole",
    "equipment": {
        "attack_stab": 0,
        "attack_slash": 0,
        "attack_crush": 0,
        "attack_magic": 2,
        "attack_ranged": 0,
        "defence_stab": 0,
        "defence_slash": 0,
        "defence_crush": 0,
        "defence_magic": 2,
        "defence_ranged": 0,
        "melee_strength": 0,
        "ranged_strength": 0,
        "magic_damage": 0,
        "prayer": 10,
        "slot": "neck",
        "requirements": {
            "prayer": 40
        }
    },
    "weapon": null
}