{
    "id": 13318,
    "name": "Deadman's legs",
    "incomplete": false,
    "members": false,
    "tradeable": false,
    "tradeable_on_ge": false,
    "stackable": false,
    "noted": false,
    "noteable": false,
    "linked_id_item": null,
    "linked_id_noted": null,
    "linked_id_placeholder": 18220,
    "placeholder": false,
    "equipable": true,
    "equipable_by_player": true,
    "equipable_weapon": false,
    "cost": 1,
    "lowalch": 0,
    "highalch": 0,
    "weight": 9.5,
    "buy_limit": null,
    "quest_item": false,
    "release_date": "2015-10-29",
    "duplicate": false,
    "examine": "That numb feeling.",
    "wiki_name": "Deadman's legs (Deadman mode)",
    "wiki_url": "https://oldschool.runescape.wiki/w/Deadman's_legs#Deadman_mode",
    "equipment": {
        "attack_stab": 0,
        "attack_slash": 0,
        "attack_crush": 0,
        "attack_magic": 0,
        "attack_ranged": 0,
        "defence_stab": 0,
        "defence_slash": 0,
        "defence_crush": 0,
        "defence_magic": 0,
        "defence_ranged": 0,
        "melee_strength": 0,
        "ranged_strength": 0,
        "magic_damage": 0,
        "prayer": 0,
        "slot": "legs",
        "requirements": null
    },
    "weapon": null
}