{
    "id": 24425,
    "name": "Eldritch nightmare staff",
    "incomplete": true,
    "members": true,
    "tradeable": false,
    "tradeable_on_ge": false,
    "stackable": false,
    "noted": false,
    "noteable": false,
    "linked_id_item": null,
    "linked_id_noted": null,
    "linked_id_placeholder": null,
    "placeholder": false,
    "equipable": true,
    "equipable_by_player": true,
    "equipable_weapon": true,
    "cost": 4600000,
    "lowalch": 1840000,
    "highalch": 2760000,
    "weight": 1.6,
    "buy_limit": null,
    "quest_item": false,
    "release_date": "2019-11-28",
    "duplicate": false,
    "examine": "An ancient staff corrupted by darkness. An eldritch orb has been added to it.",
    "wiki_name": "Eldritch nightmare staff",
    "wiki_url": "https://oldschool.runescape.wiki/w/Eldritch_nightmare_staff",
    "equipment": {
        "attack_stab": 0,
        "attack_slash": 0,
        "attack_crush": 0,
        "attack_magic": 16,
        "attack_ranged": 0,
        "defence_stab": 0,
        "defence_slash": 0,
        "defence_crush": 0,
        "defence_magic": 14,
        "defence_ranged": 0,
        "melee_strength": 0,
        "ranged_strength": 0,
        "magic_damage": 15,
        "prayer": 0,
        "slot": "weapon",
        "requirements": null
    },
    "weapon": {
        "attack_speed": 5,
        "weapon_type": "staves",
        "stances": [
            {
                "combat_style": "bash",
                "attack_type": "crush",
                "attack_style": "accurate",
                "experience": "attack",
                "boosts": null
            },
            {
                "combat_style": "pound",
                "attack_type": "crush",
                "attack_style": "aggressive",
                "experience": "strength",
                "boosts": null
            },
            {
                "combat_style": "focus",
                "attack_type": "crush",
                "attack_style": "defensive",
                "experience": "defence",
                "boosts": null
            },
            {
                "combat_style": "spell",
                "attack_type": "spellcasting",
                "attack_style": "magic",
                "experience": "magic",
                "boosts": null
            },
            {
                "combat_style": "spell (defensive)",
                "attack_type": "defensive casting",
                "attack_style": "magic",
                "experience": "magic and defence",
                "boosts": null
            }
        ]
    }
}