{
    "id": 24433,
    "name": "Festive ginger powder",
    "incomplete": true,
    "members": false,
    "tradeable": false,
    "tradeable_on_ge": false,
    "stackable": false,
    "noted": false,
    "noteable": false,
    "linked_id_item": null,
    "linked_id_noted": null,
    "linked_id_placeholder": null,
    "placeholder": false,
    "equipable": false,
    "equipable_by_player": false,
    "equipable_weapon": false,
    "cost": 0,
    "lowalch": 0,
    "highalch": 0,
    "weight": null,
    "buy_limit": null,
    "quest_item": false,
    "release_date": null,
    "duplicate": false,
    "examine": null,
    "wiki_name": null,
    "wiki_url": null,
    "equipment": null,
    "weapon": null
}