{
    "id": 4511,
    "name": "Decorative helm",
    "incomplete": false,
    "members": false,
    "tradeable": false,
    "tradeable_on_ge": false,
    "stackable": false,
    "noted": false,
    "noteable": false,
    "linked_id_item": null,
    "linked_id_noted": null,
    "linked_id_placeholder": 15637,
    "placeholder": false,
    "equipable": true,
    "equipable_by_player": true,
    "equipable_weapon": false,
    "cost": 1920,
    "lowalch": 768,
    "highalch": 1152,
    "weight": 1.36,
    "buy_limit": null,
    "quest_item": false,
    "release_date": "2004-12-13",
    "duplicate": false,
    "examine": "A very decorative helm.",
    "wiki_name": "Decorative helm (gold) (Normal)",
    "wiki_url": "https://oldschool.runescape.wiki/w/Decorative_helm_(gold)#Normal",
    "equipment": {
        "attack_stab": 0,
        "attack_slash": 0,
        "attack_crush": 0,
        "attack_magic": -3,
        "attack_ranged": -1,
        "defence_stab": 14,
        "defence_slash": 15,
        "defence_crush": 13,
        "defence_magic": -1,
        "defence_ranged": 14,
        "melee_strength": 0,
        "ranged_strength": 0,
        "magic_damage": 0,
        "prayer": 0,
        "slot": "head",
        "requirements": {
            "defence": 5
        }
    },
    "weapon": null
}